<?xml version="1.0" encoding="UTF-8" standalone="no"?>
<!DOCTYPE svg PUBLIC "-//W3C//DTD SVG 1.1//EN"
 "http://www.w3.org/Graphics/SVG/1.1/DTD/svg11.dtd">
<!-- Generated by graphviz version 2.38.0 (20140413.2041)
 -->
<!-- Title: ViennaRNA/constraints.h Pages: 1 -->
<svg width="3773pt" height="341pt"
 viewBox="0.00 0.00 3773.07 341.00" xmlns="http://www.w3.org/2000/svg" xmlns:xlink="http://www.w3.org/1999/xlink">
<g id="graph0" class="graph" transform="scale(1 1) rotate(0) translate(4 337)">
<title>ViennaRNA/constraints.h</title>
<!-- Node1 -->
<g id="node1" class="node"><title>Node1</title>
<polygon fill="#bfbfbf" stroke="black" points="1341.57,-313.5 1341.57,-332.5 1469.57,-332.5 1469.57,-313.5 1341.57,-313.5"/>
<text text-anchor="middle" x="1405.57" y="-320.5" font-family="Helvetica,sans-Serif" font-size="10.00">ViennaRNA/constraints.h</text>
</g>
<!-- Node2 -->
<g id="node2" class="node"><title>Node2</title>
<g id="a_node2"><a xlink:href="data__structures_8h.html" target="_top" xlink:title="ViennaRNA/data_structures.h">
<polygon fill="none" stroke="black" points="1332.07,-257.5 1332.07,-276.5 1479.07,-276.5 1479.07,-257.5 1332.07,-257.5"/>
<text text-anchor="middle" x="1405.57" y="-264.5" font-family="Helvetica,sans-Serif" font-size="10.00">ViennaRNA/data_structures.h</text>
</a>
</g>
</g>
<!-- Node1&#45;&gt;Node2 -->
<g id="edge1" class="edge"><title>Node1&#45;&gt;Node2</title>
<path fill="none" stroke="midnightblue" d="M1399.1,-303.101C1398.46,-294.136 1398.91,-283.858 1400.44,-276.751"/>
<polygon fill="midnightblue" stroke="midnightblue" points="1395.63,-303.622 1400.4,-313.083 1402.58,-302.713 1395.63,-303.622"/>
</g>
<!-- Node23 -->
<g id="node23" class="node"><title>Node23</title>
<g id="a_node23"><a xlink:href="interior__loops_8h.html" target="_top" xlink:title="Energy evaluation of interior loops for MFE and partition function calculations. ">
<polygon fill="none" stroke="black" points="840.069,-56.5 840.069,-86.5 941.069,-86.5 941.069,-56.5 840.069,-56.5"/>
<text text-anchor="start" x="848.069" y="-74.5" font-family="Helvetica,sans-Serif" font-size="10.00">ViennaRNA/interior</text>
<text text-anchor="middle" x="890.569" y="-63.5" font-family="Helvetica,sans-Serif" font-size="10.00">_loops.h</text>
</a>
</g>
</g>
<!-- Node1&#45;&gt;Node23 -->
<g id="edge81" class="edge"><title>Node1&#45;&gt;Node23</title>
<path fill="none" stroke="midnightblue" d="M1331.03,-322.234C1056.97,-322.339 116.306,-315.746 25.5688,-221 -4.56331,-189.537 -6.32705,-154.688 23.5688,-123 30.6256,-115.52 655.805,-84.0895 840.031,-74.9825"/>
<polygon fill="midnightblue" stroke="midnightblue" points="1331.27,-325.734 1341.27,-322.227 1331.27,-318.734 1331.27,-325.734"/>
</g>
<!-- Node2&#45;&gt;Node1 -->
<g id="edge13" class="edge"><title>Node2&#45;&gt;Node1</title>
<path fill="none" stroke="midnightblue" d="M1412.03,-286.691C1412.67,-295.635 1412.24,-305.927 1410.74,-313.083"/>
<polygon fill="midnightblue" stroke="midnightblue" points="1415.49,-286.2 1410.7,-276.751 1408.55,-287.126 1415.49,-286.2"/>
</g>
<!-- Node3 -->
<g id="node3" class="node"><title>Node3</title>
<g id="a_node3"><a xlink:href="2Dfold_8h.html" target="_top" xlink:title="ViennaRNA/2Dfold.h">
<polygon fill="none" stroke="black" points="1644.57,-129 1644.57,-148 1752.57,-148 1752.57,-129 1644.57,-129"/>
<text text-anchor="middle" x="1698.57" y="-136" font-family="Helvetica,sans-Serif" font-size="10.00">ViennaRNA/2Dfold.h</text>
</a>
</g>
</g>
<!-- Node2&#45;&gt;Node3 -->
<g id="edge2" class="edge"><title>Node2&#45;&gt;Node3</title>
<path fill="none" stroke="midnightblue" d="M1321.9,-256.343C1261.97,-246.175 1197.26,-226.404 1230.57,-190 1260.99,-156.749 1590.05,-160.995 1634.57,-154 1644.47,-152.444 1655.13,-150.244 1664.85,-148.027"/>
<polygon fill="midnightblue" stroke="midnightblue" points="1321.41,-259.811 1331.85,-257.954 1322.53,-252.901 1321.41,-259.811"/>
</g>
<!-- Node4 -->
<g id="node4" class="node"><title>Node4</title>
<g id="a_node4"><a xlink:href="2Dpfold_8h.html" target="_top" xlink:title="ViennaRNA/2Dpfold.h">
<polygon fill="none" stroke="black" points="1418.07,-196 1418.07,-215 1531.07,-215 1531.07,-196 1418.07,-196"/>
<text text-anchor="middle" x="1474.57" y="-203" font-family="Helvetica,sans-Serif" font-size="10.00">ViennaRNA/2Dpfold.h</text>
</a>
</g>
</g>
<!-- Node2&#45;&gt;Node4 -->
<g id="edge3" class="edge"><title>Node2&#45;&gt;Node4</title>
<path fill="none" stroke="midnightblue" d="M1423.37,-250.65C1436.53,-239.306 1453.95,-224.281 1464.7,-215.009"/>
<polygon fill="midnightblue" stroke="midnightblue" points="1420.74,-248.294 1415.45,-257.475 1425.31,-253.595 1420.74,-248.294"/>
</g>
<!-- Node5 -->
<g id="node5" class="node"><title>Node5</title>
<g id="a_node5"><a xlink:href="ali__plex_8h_source.html" target="_top" xlink:title="ViennaRNA/ali_plex.h">
<polygon fill="none" stroke="black" points="1549.07,-196 1549.07,-215 1662.07,-215 1662.07,-196 1549.07,-196"/>
<text text-anchor="middle" x="1605.57" y="-203" font-family="Helvetica,sans-Serif" font-size="10.00">ViennaRNA/ali_plex.h</text>
</a>
</g>
</g>
<!-- Node2&#45;&gt;Node5 -->
<g id="edge4" class="edge"><title>Node2&#45;&gt;Node5</title>
<path fill="none" stroke="midnightblue" d="M1444.13,-254.529C1483,-242.965 1542.09,-225.385 1576.97,-215.009"/>
<polygon fill="midnightblue" stroke="midnightblue" points="1442.81,-251.269 1434.22,-257.475 1444.81,-257.978 1442.81,-251.269"/>
</g>
<!-- Node6 -->
<g id="node6" class="node"><title>Node6</title>
<g id="a_node6"><a xlink:href="alifold_8h.html" target="_top" xlink:title="compute various properties (consensus MFE structures, partition function, Boltzmann distributed stoch...">
<polygon fill="none" stroke="black" points="40.0688,-62 40.0688,-81 145.069,-81 145.069,-62 40.0688,-62"/>
<text text-anchor="middle" x="92.5688" y="-69" font-family="Helvetica,sans-Serif" font-size="10.00">ViennaRNA/alifold.h</text>
</a>
</g>
</g>
<!-- Node2&#45;&gt;Node6 -->
<g id="edge5" class="edge"><title>Node2&#45;&gt;Node6</title>
<path fill="none" stroke="midnightblue" d="M1321.84,-266.197C1030.19,-266.506 74.0805,-264.206 25.5688,-221 -7.12575,-191.881 -5.23518,-161.523 15.5688,-123 26.6595,-102.463 50.1446,-88.9255 68.2794,-81.0836"/>
<polygon fill="midnightblue" stroke="midnightblue" points="1321.93,-269.697 1331.93,-266.185 1321.92,-262.697 1321.93,-269.697"/>
</g>
<!-- Node7 -->
<g id="node7" class="node"><title>Node7</title>
<g id="a_node7"><a xlink:href="boltzmann__sampling_8h.html" target="_top" xlink:title="Boltzmann Sampling of secondary structures from the ensemble. ">
<polygon fill="none" stroke="black" points="34.5688,-190.5 34.5688,-220.5 150.569,-220.5 150.569,-190.5 34.5688,-190.5"/>
<text text-anchor="start" x="42.5688" y="-208.5" font-family="Helvetica,sans-Serif" font-size="10.00">ViennaRNA/boltzmann</text>
<text text-anchor="middle" x="92.5688" y="-197.5" font-family="Helvetica,sans-Serif" font-size="10.00">_sampling.h</text>
</a>
</g>
</g>
<!-- Node2&#45;&gt;Node7 -->
<g id="edge6" class="edge"><title>Node2&#45;&gt;Node7</title>
<path fill="none" stroke="midnightblue" d="M1321.91,-264.74C1081.15,-260.831 389.496,-247.548 164.569,-221 160.01,-220.462 155.31,-219.788 150.598,-219.028"/>
<polygon fill="midnightblue" stroke="midnightblue" points="1321.94,-268.241 1332,-264.902 1322.06,-261.241 1321.94,-268.241"/>
</g>
<!-- Node8 -->
<g id="node8" class="node"><title>Node8</title>
<g id="a_node8"><a xlink:href="part__func_8h.html" target="_top" xlink:title="Partition function of single RNA sequences. ">
<polygon fill="none" stroke="black" points="32.5688,-129 32.5688,-148 152.569,-148 152.569,-129 32.5688,-129"/>
<text text-anchor="middle" x="92.5688" y="-136" font-family="Helvetica,sans-Serif" font-size="10.00">ViennaRNA/part_func.h</text>
</a>
</g>
</g>
<!-- Node2&#45;&gt;Node8 -->
<g id="edge58" class="edge"><title>Node2&#45;&gt;Node8</title>
<path fill="none" stroke="midnightblue" d="M1321.57,-265.952C1064.87,-265.378 301.85,-260.343 197.569,-221 177.176,-213.306 176.719,-203.451 159.569,-190 140.543,-175.078 118.02,-158.274 104.534,-148.303"/>
<polygon fill="midnightblue" stroke="midnightblue" points="1321.94,-269.453 1331.95,-265.973 1321.96,-262.453 1321.94,-269.453"/>
</g>
<!-- Node9 -->
<g id="node9" class="node"><title>Node9</title>
<g id="a_node9"><a xlink:href="centroid_8h.html" target="_top" xlink:title="Centroid structure computation. ">
<polygon fill="none" stroke="black" points="206.569,-196 206.569,-215 320.569,-215 320.569,-196 206.569,-196"/>
<text text-anchor="middle" x="263.569" y="-203" font-family="Helvetica,sans-Serif" font-size="10.00">ViennaRNA/centroid.h</text>
</a>
</g>
</g>
<!-- Node2&#45;&gt;Node9 -->
<g id="edge10" class="edge"><title>Node2&#45;&gt;Node9</title>
<path fill="none" stroke="midnightblue" d="M1321.82,-264.388C1103.57,-259.882 520.984,-245.836 329.569,-221 318.865,-219.611 307.331,-217.348 296.946,-215.018"/>
<polygon fill="midnightblue" stroke="midnightblue" points="1321.87,-267.889 1331.94,-264.595 1322.01,-260.891 1321.87,-267.889"/>
</g>
<!-- Node10 -->
<g id="node10" class="node"><title>Node10</title>
<g id="a_node10"><a xlink:href="cofold_8h.html" target="_top" xlink:title="MFE version of cofolding routines. ">
<polygon fill="none" stroke="black" points="366.569,-129 366.569,-148 472.569,-148 472.569,-129 366.569,-129"/>
<text text-anchor="middle" x="419.569" y="-136" font-family="Helvetica,sans-Serif" font-size="10.00">ViennaRNA/cofold.h</text>
</a>
</g>
</g>
<!-- Node2&#45;&gt;Node10 -->
<g id="edge12" class="edge"><title>Node2&#45;&gt;Node10</title>
<path fill="none" stroke="midnightblue" d="M1321.75,-265.745C1109.05,-264.557 559.982,-257.907 486.569,-221 454.493,-204.875 432.259,-165.667 423.599,-148.175"/>
<polygon fill="midnightblue" stroke="midnightblue" points="1321.9,-269.246 1331.92,-265.799 1321.94,-262.246 1321.9,-269.246"/>
</g>
<!-- Node11 -->
<g id="node11" class="node"><title>Node11</title>
<g id="a_node11"><a xlink:href="dp__matrices_8h.html" target="_top" xlink:title="ViennaRNA/dp_matrices.h">
<polygon fill="none" stroke="black" points="1680.07,-196 1680.07,-215 1813.07,-215 1813.07,-196 1680.07,-196"/>
<text text-anchor="middle" x="1746.57" y="-203" font-family="Helvetica,sans-Serif" font-size="10.00">ViennaRNA/dp_matrices.h</text>
</a>
</g>
</g>
<!-- Node2&#45;&gt;Node11 -->
<g id="edge14" class="edge"><title>Node2&#45;&gt;Node11</title>
<path fill="none" stroke="midnightblue" d="M1461.14,-255.715C1513.05,-246.817 1592.47,-233.458 1661.57,-221 1672.01,-219.117 1683.25,-217.016 1694.06,-215.01"/>
<polygon fill="midnightblue" stroke="midnightblue" points="1460.4,-252.291 1451.13,-257.433 1461.58,-259.189 1460.4,-252.291"/>
</g>
<!-- Node12 -->
<g id="node12" class="node"><title>Node12</title>
<g id="a_node12"><a xlink:href="duplex_8h.html" target="_top" xlink:title="Duplex folding function declarations... ">
<polygon fill="none" stroke="black" points="1831.57,-196 1831.57,-215 1939.57,-215 1939.57,-196 1831.57,-196"/>
<text text-anchor="middle" x="1885.57" y="-203" font-family="Helvetica,sans-Serif" font-size="10.00">ViennaRNA/duplex.h</text>
</a>
</g>
</g>
<!-- Node2&#45;&gt;Node12 -->
<g id="edge16" class="edge"><title>Node2&#45;&gt;Node12</title>
<path fill="none" stroke="midnightblue" d="M1489.21,-259.797C1573.49,-252.881 1707.1,-240.094 1821.57,-221 1831.23,-219.388 1841.63,-217.223 1851.17,-215.058"/>
<polygon fill="midnightblue" stroke="midnightblue" points="1488.87,-256.314 1479.18,-260.612 1489.44,-263.291 1488.87,-256.314"/>
</g>
<!-- Node13 -->
<g id="node13" class="node"><title>Node13</title>
<g id="a_node13"><a xlink:href="eval_8h.html" target="_top" xlink:title="Functions and variables related to energy evaluation of sequence/structure pairs. ...">
<polygon fill="none" stroke="black" points="528.569,-129 528.569,-148 626.569,-148 626.569,-129 528.569,-129"/>
<text text-anchor="middle" x="577.569" y="-136" font-family="Helvetica,sans-Serif" font-size="10.00">ViennaRNA/eval.h</text>
</a>
</g>
</g>
<!-- Node2&#45;&gt;Node13 -->
<g id="edge17" class="edge"><title>Node2&#45;&gt;Node13</title>
<path fill="none" stroke="midnightblue" d="M1321.38,-263.548C1172.84,-258.643 870.253,-245.891 767.569,-221 699.199,-204.427 624.146,-165.458 592.72,-148.101"/>
<polygon fill="midnightblue" stroke="midnightblue" points="1321.69,-267.06 1331.8,-263.888 1321.92,-260.064 1321.69,-267.06"/>
</g>
<!-- Node14 -->
<g id="node14" class="node"><title>Node14</title>
<g id="a_node14"><a xlink:href="fold_8h.html" target="_top" xlink:title="MFE calculations for single RNA sequences. ">
<polygon fill="none" stroke="black" points="491.069,-62 491.069,-81 586.069,-81 586.069,-62 491.069,-62"/>
<text text-anchor="middle" x="538.569" y="-69" font-family="Helvetica,sans-Serif" font-size="10.00">ViennaRNA/fold.h</text>
</a>
</g>
</g>
<!-- Node2&#45;&gt;Node14 -->
<g id="edge23" class="edge"><title>Node2&#45;&gt;Node14</title>
<path fill="none" stroke="midnightblue" d="M1321.96,-264.349C1157.74,-260.528 798.634,-249.152 678.569,-221 603.909,-203.494 561.978,-217.89 519.569,-154 504.222,-130.88 522.352,-96.8919 532.548,-81.1228"/>
<polygon fill="midnightblue" stroke="midnightblue" points="1321.94,-267.85 1332.01,-264.579 1322.1,-260.851 1321.94,-267.85"/>
</g>
<!-- Node15 -->
<g id="node15" class="node"><title>Node15</title>
<g id="a_node15"><a xlink:href="exterior__loops_8h.html" target="_top" xlink:title="Energy evaluation of exterior loops for MFE and partition function calculations. ">
<polygon fill="none" stroke="black" points="644.569,-123.5 644.569,-153.5 748.569,-153.5 748.569,-123.5 644.569,-123.5"/>
<text text-anchor="start" x="652.569" y="-141.5" font-family="Helvetica,sans-Serif" font-size="10.00">ViennaRNA/exterior</text>
<text text-anchor="middle" x="696.569" y="-130.5" font-family="Helvetica,sans-Serif" font-size="10.00">_loops.h</text>
</a>
</g>
</g>
<!-- Node2&#45;&gt;Node15 -->
<g id="edge19" class="edge"><title>Node2&#45;&gt;Node15</title>
<path fill="none" stroke="midnightblue" d="M1321.48,-264.022C1185.33,-260.04 922.937,-248.923 834.569,-221 787.608,-206.161 739.615,-172.881 714.467,-153.754"/>
<polygon fill="midnightblue" stroke="midnightblue" points="1321.77,-267.531 1331.86,-264.318 1321.97,-260.534 1321.77,-267.531"/>
</g>
<!-- Node17 -->
<g id="node17" class="node"><title>Node17</title>
<g id="a_node17"><a xlink:href="file__formats_8h.html" target="_top" xlink:title="Functions dealing with file formats for RNA sequences, structures, and alignments. ">
<polygon fill="none" stroke="black" points="1958.07,-196 1958.07,-215 2089.07,-215 2089.07,-196 1958.07,-196"/>
<text text-anchor="middle" x="2023.57" y="-203" font-family="Helvetica,sans-Serif" font-size="10.00">ViennaRNA/file_formats.h</text>
</a>
</g>
</g>
<!-- Node2&#45;&gt;Node17 -->
<g id="edge21" class="edge"><title>Node2&#45;&gt;Node17</title>
<path fill="none" stroke="midnightblue" d="M1489.26,-261.883C1596.18,-255.978 1786.75,-243.281 1948.57,-221 1960,-219.426 1972.32,-217.247 1983.61,-215.057"/>
<polygon fill="midnightblue" stroke="midnightblue" points="1488.98,-258.393 1479.18,-262.433 1489.36,-265.383 1488.98,-258.393"/>
</g>
<!-- Node18 -->
<g id="node18" class="node"><title>Node18</title>
<g id="a_node18"><a xlink:href="findpath_8h.html" target="_top" xlink:title="ViennaRNA/findpath.h">
<polygon fill="none" stroke="black" points="2107.57,-196 2107.57,-215 2221.57,-215 2221.57,-196 2107.57,-196"/>
<text text-anchor="middle" x="2164.57" y="-203" font-family="Helvetica,sans-Serif" font-size="10.00">ViennaRNA/findpath.h</text>
</a>
</g>
</g>
<!-- Node2&#45;&gt;Node18 -->
<g id="edge22" class="edge"><title>Node2&#45;&gt;Node18</title>
<path fill="none" stroke="midnightblue" d="M1489.49,-264.547C1620.09,-261.387 1879.62,-251.5 2097.57,-221 2108.18,-219.516 2119.61,-217.283 2129.97,-215.011"/>
<polygon fill="midnightblue" stroke="midnightblue" points="1489.08,-261.056 1479.17,-264.79 1489.24,-268.054 1489.08,-261.056"/>
</g>
<!-- Node19 -->
<g id="node19" class="node"><title>Node19</title>
<g id="a_node19"><a xlink:href="fold__vars_8h.html" target="_top" xlink:title="Here all all declarations of the global variables used throughout RNAlib. ">
<polygon fill="none" stroke="black" points="3450.07,-129 3450.07,-148 3569.07,-148 3569.07,-129 3450.07,-129"/>
<text text-anchor="middle" x="3509.57" y="-136" font-family="Helvetica,sans-Serif" font-size="10.00">ViennaRNA/fold_vars.h</text>
</a>
</g>
</g>
<!-- Node2&#45;&gt;Node19 -->
<g id="edge24" class="edge"><title>Node2&#45;&gt;Node19</title>
<path fill="none" stroke="midnightblue" d="M1489.43,-265.529C1873.22,-263.205 3445.28,-251.82 3485.57,-221 3508.41,-203.524 3510.38,-165.384 3510.02,-148.2"/>
<polygon fill="midnightblue" stroke="midnightblue" points="1489.21,-262.03 1479.23,-265.59 1489.25,-269.03 1489.21,-262.03"/>
</g>
<!-- Node21 -->
<g id="node21" class="node"><title>Node21</title>
<g id="a_node21"><a xlink:href="gquad_8h.html" target="_top" xlink:title="Various functions related to G&#45;quadruplex computations. ">
<polygon fill="none" stroke="black" points="994.569,-129 994.569,-148 1100.57,-148 1100.57,-129 994.569,-129"/>
<text text-anchor="middle" x="1047.57" y="-136" font-family="Helvetica,sans-Serif" font-size="10.00">ViennaRNA/gquad.h</text>
</a>
</g>
</g>
<!-- Node2&#45;&gt;Node21 -->
<g id="edge26" class="edge"><title>Node2&#45;&gt;Node21</title>
<path fill="none" stroke="midnightblue" d="M1321.6,-259.115C1250.02,-252.104 1153.49,-239.602 1119.57,-221 1087.29,-203.297 1062.41,-165.276 1052.39,-148.161"/>
<polygon fill="midnightblue" stroke="midnightblue" points="1321.69,-262.639 1331.97,-260.11 1322.35,-255.671 1321.69,-262.639"/>
</g>
<!-- Node22 -->
<g id="node22" class="node"><title>Node22</title>
<g id="a_node22"><a xlink:href="hairpin__loops_8h.html" target="_top" xlink:title="Energy evaluation of hairpin loops for MFE and partition function calculations. ">
<polygon fill="none" stroke="black" points="1232.07,-62 1232.07,-81 1369.07,-81 1369.07,-62 1232.07,-62"/>
<text text-anchor="middle" x="1300.57" y="-69" font-family="Helvetica,sans-Serif" font-size="10.00">ViennaRNA/hairpin_loops.h</text>
</a>
</g>
</g>
<!-- Node2&#45;&gt;Node22 -->
<g id="edge27" class="edge"><title>Node2&#45;&gt;Node22</title>
<path fill="none" stroke="midnightblue" d="M1345.36,-255.225C1294.23,-243.58 1233.57,-222.244 1263.57,-190 1339.14,-108.763 1685.99,-235.237 1761.57,-154 1770.95,-143.913 1770.77,-133.259 1761.57,-123 1735.87,-94.3358 1491.28,-80.3152 1369.19,-75.0565"/>
<polygon fill="midnightblue" stroke="midnightblue" points="1344.91,-258.709 1355.42,-257.425 1346.4,-251.87 1344.91,-258.709"/>
</g>
<!-- Node2&#45;&gt;Node23 -->
<g id="edge29" class="edge"><title>Node2&#45;&gt;Node23</title>
<path fill="none" stroke="midnightblue" d="M1321.78,-265.087C1178.2,-262.643 897.642,-253.694 867.569,-221 832.951,-183.366 864.824,-116.311 881.666,-86.9464"/>
<polygon fill="midnightblue" stroke="midnightblue" points="1321.82,-268.588 1331.87,-265.252 1321.93,-261.589 1321.82,-268.588"/>
</g>
<!-- Node24 -->
<g id="node24" class="node"><title>Node24</title>
<g id="a_node24"><a xlink:href="ligand_8h.html" target="_top" xlink:title="ViennaRNA/ligand.h">
<polygon fill="none" stroke="black" points="2240.07,-196 2240.07,-215 2345.07,-215 2345.07,-196 2240.07,-196"/>
<text text-anchor="middle" x="2292.57" y="-203" font-family="Helvetica,sans-Serif" font-size="10.00">ViennaRNA/ligand.h</text>
</a>
</g>
</g>
<!-- Node2&#45;&gt;Node24 -->
<g id="edge31" class="edge"><title>Node2&#45;&gt;Node24</title>
<path fill="none" stroke="midnightblue" d="M1489.14,-266.262C1638.65,-265.661 1961.46,-259.505 2230.57,-221 2240.53,-219.575 2251.24,-217.331 2260.91,-215.03"/>
<polygon fill="midnightblue" stroke="midnightblue" points="1489.1,-262.762 1479.11,-266.295 1489.12,-269.762 1489.1,-262.762"/>
</g>
<!-- Node25 -->
<g id="node25" class="node"><title>Node25</title>
<g id="a_node25"><a xlink:href="LPfold_8h.html" target="_top" xlink:title="Function declarations of partition function variants of the Lfold algorithm. ">
<polygon fill="none" stroke="black" points="1118.07,-129 1118.07,-148 1225.07,-148 1225.07,-129 1118.07,-129"/>
<text text-anchor="middle" x="1171.57" y="-136" font-family="Helvetica,sans-Serif" font-size="10.00">ViennaRNA/LPfold.h</text>
</a>
</g>
</g>
<!-- Node2&#45;&gt;Node25 -->
<g id="edge32" class="edge"><title>Node2&#45;&gt;Node25</title>
<path fill="none" stroke="midnightblue" d="M1321.47,-263.874C1249.54,-260.068 1153.88,-249.601 1129.57,-221 1109.88,-197.837 1142.95,-163.87 1161.01,-148.115"/>
<polygon fill="midnightblue" stroke="midnightblue" points="1321.74,-267.391 1331.9,-264.388 1322.08,-260.399 1321.74,-267.391"/>
</g>
<!-- Node26 -->
<g id="node26" class="node"><title>Node26</title>
<g id="a_node26"><a xlink:href="MEA_8h.html" target="_top" xlink:title="Computes a MEA (maximum expected accuracy) structure. ">
<polygon fill="none" stroke="black" points="1243.07,-129 1243.07,-148 1344.07,-148 1344.07,-129 1243.07,-129"/>
<text text-anchor="middle" x="1293.57" y="-136" font-family="Helvetica,sans-Serif" font-size="10.00">ViennaRNA/MEA.h</text>
</a>
</g>
</g>
<!-- Node2&#45;&gt;Node26 -->
<g id="edge33" class="edge"><title>Node2&#45;&gt;Node26</title>
<path fill="none" stroke="midnightblue" d="M1321.91,-263.277C1252.88,-259.059 1162.66,-248.32 1139.57,-221 1130.68,-210.476 1131.49,-201.157 1139.57,-190 1146.87,-179.917 1217.7,-159.636 1260.71,-148.079"/>
<polygon fill="midnightblue" stroke="midnightblue" points="1321.75,-266.773 1331.94,-263.853 1322.15,-259.785 1321.75,-266.773"/>
</g>
<!-- Node27 -->
<g id="node27" class="node"><title>Node27</title>
<g id="a_node27"><a xlink:href="mfe_8h.html" target="_top" xlink:title="MFE calculations for single RNA sequences. ">
<polygon fill="none" stroke="black" points="338.569,-196 338.569,-215 434.569,-215 434.569,-196 338.569,-196"/>
<text text-anchor="middle" x="386.569" y="-203" font-family="Helvetica,sans-Serif" font-size="10.00">ViennaRNA/mfe.h</text>
</a>
</g>
</g>
<!-- Node2&#45;&gt;Node27 -->
<g id="edge34" class="edge"><title>Node2&#45;&gt;Node27</title>
<path fill="none" stroke="midnightblue" d="M1321.64,-264.023C1120.64,-258.969 615.958,-244.31 448.569,-221 438.496,-219.597 427.656,-217.33 417.9,-215.001"/>
<polygon fill="midnightblue" stroke="midnightblue" points="1321.76,-267.527 1331.85,-264.277 1321.94,-260.529 1321.76,-267.527"/>
</g>
<!-- Node29 -->
<g id="node29" class="node"><title>Node29</title>
<g id="a_node29"><a xlink:href="multibranch__loops_8h.html" target="_top" xlink:title="Energy evaluation of multibranch loops for MFE and partition function calculations. ">
<polygon fill="none" stroke="black" points="1659.57,-56.5 1659.57,-86.5 1781.57,-86.5 1781.57,-56.5 1659.57,-56.5"/>
<text text-anchor="start" x="1667.57" y="-74.5" font-family="Helvetica,sans-Serif" font-size="10.00">ViennaRNA/multibranch</text>
<text text-anchor="middle" x="1720.57" y="-63.5" font-family="Helvetica,sans-Serif" font-size="10.00">_loops.h</text>
</a>
</g>
</g>
<!-- Node2&#45;&gt;Node29 -->
<g id="edge39" class="edge"><title>Node2&#45;&gt;Node29</title>
<path fill="none" stroke="midnightblue" d="M1489.25,-265.743C1869.53,-264.382 3417.69,-256.656 3452.57,-221 3462.2,-211.151 3461.98,-200.065 3452.57,-190 3336.52,-65.853 2096.11,-98.6884 1926.57,-87 1877.92,-83.6464 1822.83,-79.7637 1781.86,-76.8606"/>
<polygon fill="midnightblue" stroke="midnightblue" points="1489.14,-262.244 1479.15,-265.779 1489.16,-269.244 1489.14,-262.244"/>
</g>
<!-- Node30 -->
<g id="node30" class="node"><title>Node30</title>
<g id="a_node30"><a xlink:href="params_8h.html" target="_top" xlink:title="ViennaRNA/params.h">
<polygon fill="none" stroke="black" points="876.569,-196 876.569,-215 988.569,-215 988.569,-196 876.569,-196"/>
<text text-anchor="middle" x="932.569" y="-203" font-family="Helvetica,sans-Serif" font-size="10.00">ViennaRNA/params.h</text>
</a>
</g>
</g>
<!-- Node2&#45;&gt;Node30 -->
<g id="edge41" class="edge"><title>Node2&#45;&gt;Node30</title>
<path fill="none" stroke="midnightblue" d="M1321.67,-259.532C1238.04,-252.214 1106.36,-238.94 993.569,-221 983.151,-219.343 971.934,-217.188 961.926,-215.048"/>
<polygon fill="midnightblue" stroke="midnightblue" points="1321.61,-263.04 1331.87,-260.416 1322.21,-256.066 1321.61,-263.04"/>
</g>
<!-- Node31 -->
<g id="node31" class="node"><title>Node31</title>
<g id="a_node31"><a xlink:href="part__func__co_8h.html" target="_top" xlink:title="Partition function for two RNA sequences. ">
<polygon fill="none" stroke="black" points="1362.57,-129 1362.57,-148 1498.57,-148 1498.57,-129 1362.57,-129"/>
<text text-anchor="middle" x="1430.57" y="-136" font-family="Helvetica,sans-Serif" font-size="10.00">ViennaRNA/part_func_co.h</text>
</a>
</g>
</g>
<!-- Node2&#45;&gt;Node31 -->
<g id="edge59" class="edge"><title>Node2&#45;&gt;Node31</title>
<path fill="none" stroke="midnightblue" d="M1321.87,-266.122C1231.04,-263.341 1105.15,-249.215 1154.57,-190 1183.22,-155.665 1308.58,-162.087 1352.57,-154 1363,-152.082 1374.21,-150.006 1384.79,-148.041"/>
<polygon fill="midnightblue" stroke="midnightblue" points="1321.83,-269.622 1331.92,-266.388 1322.02,-262.624 1321.83,-269.622"/>
</g>
<!-- Node32 -->
<g id="node32" class="node"><title>Node32</title>
<g id="a_node32"><a xlink:href="subopt_8h.html" target="_top" xlink:title="RNAsubopt and density of states declarations. ">
<polygon fill="none" stroke="black" points="1517.07,-129 1517.07,-148 1626.07,-148 1626.07,-129 1517.07,-129"/>
<text text-anchor="middle" x="1571.57" y="-136" font-family="Helvetica,sans-Serif" font-size="10.00">ViennaRNA/subopt.h</text>
</a>
</g>
</g>
<!-- Node2&#45;&gt;Node32 -->
<g id="edge79" class="edge"><title>Node2&#45;&gt;Node32</title>
<path fill="none" stroke="midnightblue" d="M1321.64,-261.828C1245.32,-255.018 1150.54,-237.104 1192.57,-190 1239.47,-137.428 1438.11,-165.802 1507.57,-154 1517.23,-152.359 1527.62,-150.184 1537.16,-148.019"/>
<polygon fill="midnightblue" stroke="midnightblue" points="1321.54,-265.332 1331.8,-262.68 1322.13,-258.356 1321.54,-265.332"/>
</g>
<!-- Node33 -->
<g id="node33" class="node"><title>Node33</title>
<g id="a_node33"><a xlink:href="part__func__up_8h.html" target="_top" xlink:title="Partition Function Cofolding as stepwise process. ">
<polygon fill="none" stroke="black" points="2363.57,-196 2363.57,-215 2499.57,-215 2499.57,-196 2363.57,-196"/>
<text text-anchor="middle" x="2431.57" y="-203" font-family="Helvetica,sans-Serif" font-size="10.00">ViennaRNA/part_func_up.h</text>
</a>
</g>
</g>
<!-- Node2&#45;&gt;Node33 -->
<g id="edge60" class="edge"><title>Node2&#45;&gt;Node33</title>
<path fill="none" stroke="midnightblue" d="M1489.42,-265.85C1655.11,-264.708 2035.95,-257.886 2353.57,-221 2366.02,-219.554 2379.47,-217.304 2391.65,-215.004"/>
<polygon fill="midnightblue" stroke="midnightblue" points="1489.27,-262.351 1479.3,-265.914 1489.32,-269.35 1489.27,-262.351"/>
</g>
<!-- Node34 -->
<g id="node34" class="node"><title>Node34</title>
<g id="a_node34"><a xlink:href="perturbation__fold_8h_source.html" target="_top" xlink:title="ViennaRNA/perturbation\l_fold.h">
<polygon fill="none" stroke="black" points="2517.57,-190.5 2517.57,-220.5 2639.57,-220.5 2639.57,-190.5 2517.57,-190.5"/>
<text text-anchor="start" x="2525.57" y="-208.5" font-family="Helvetica,sans-Serif" font-size="10.00">ViennaRNA/perturbation</text>
<text text-anchor="middle" x="2578.57" y="-197.5" font-family="Helvetica,sans-Serif" font-size="10.00">_fold.h</text>
</a>
</g>
</g>
<!-- Node2&#45;&gt;Node34 -->
<g id="edge61" class="edge"><title>Node2&#45;&gt;Node34</title>
<path fill="none" stroke="midnightblue" d="M1489.41,-264.355C1711.53,-259.714 2311.61,-245.252 2508.57,-221 2511.4,-220.651 2514.29,-220.248 2517.2,-219.803"/>
<polygon fill="midnightblue" stroke="midnightblue" points="1489.04,-260.862 1479.12,-264.569 1489.19,-267.861 1489.04,-260.862"/>
</g>
<!-- Node35 -->
<g id="node35" class="node"><title>Node35</title>
<g id="a_node35"><a xlink:href="PKplex_8h_source.html" target="_top" xlink:title="ViennaRNA/PKplex.h">
<polygon fill="none" stroke="black" points="2658.07,-196 2658.07,-215 2769.07,-215 2769.07,-196 2658.07,-196"/>
<text text-anchor="middle" x="2713.57" y="-203" font-family="Helvetica,sans-Serif" font-size="10.00">ViennaRNA/PKplex.h</text>
</a>
</g>
</g>
<!-- Node2&#45;&gt;Node35 -->
<g id="edge62" class="edge"><title>Node2&#45;&gt;Node35</title>
<path fill="none" stroke="midnightblue" d="M1489.39,-264.968C1730.61,-261.681 2423.57,-249.921 2648.57,-221 2659.12,-219.644 2670.48,-217.39 2680.71,-215.058"/>
<polygon fill="midnightblue" stroke="midnightblue" points="1489.23,-261.47 1479.28,-265.105 1489.33,-268.469 1489.23,-261.47"/>
</g>
<!-- Node36 -->
<g id="node36" class="node"><title>Node36</title>
<g id="a_node36"><a xlink:href="plex_8h_source.html" target="_top" xlink:title="ViennaRNA/plex.h">
<polygon fill="none" stroke="black" points="2786.57,-196 2786.57,-215 2884.57,-215 2884.57,-196 2786.57,-196"/>
<text text-anchor="middle" x="2835.57" y="-203" font-family="Helvetica,sans-Serif" font-size="10.00">ViennaRNA/plex.h</text>
</a>
</g>
</g>
<!-- Node2&#45;&gt;Node36 -->
<g id="edge63" class="edge"><title>Node2&#45;&gt;Node36</title>
<path fill="none" stroke="midnightblue" d="M1489.55,-265.578C1747.64,-263.913 2526.89,-256.04 2777.57,-221 2787.13,-219.664 2797.4,-217.385 2806.6,-215.024"/>
<polygon fill="midnightblue" stroke="midnightblue" points="1489.46,-262.078 1479.48,-265.641 1489.51,-269.078 1489.46,-262.078"/>
</g>
<!-- Node37 -->
<g id="node37" class="node"><title>Node37</title>
<g id="a_node37"><a xlink:href="plot__layouts_8h.html" target="_top" xlink:title="Secondary structure plot layout algorithms. ">
<polygon fill="none" stroke="black" points="3627.57,-196 3627.57,-215 3759.57,-215 3759.57,-196 3627.57,-196"/>
<text text-anchor="middle" x="3693.57" y="-203" font-family="Helvetica,sans-Serif" font-size="10.00">ViennaRNA/plot_layouts.h</text>
</a>
</g>
</g>
<!-- Node2&#45;&gt;Node37 -->
<g id="edge64" class="edge"><title>Node2&#45;&gt;Node37</title>
<path fill="none" stroke="midnightblue" d="M1489.29,-266.025C1839.49,-265.861 3188.28,-262.491 3611.57,-221 3624.95,-219.688 3639.43,-217.416 3652.45,-215.054"/>
<polygon fill="midnightblue" stroke="midnightblue" points="1489.22,-262.525 1479.22,-266.029 1489.22,-269.525 1489.22,-262.525"/>
</g>
<!-- Node39 -->
<g id="node39" class="node"><title>Node39</title>
<g id="a_node39"><a xlink:href="PS__dot_8h.html" target="_top" xlink:title="Various functions for plotting RNA secondary structures, dot&#45;plots and other visualizations. ">
<polygon fill="none" stroke="black" points="3590.57,-62 3590.57,-81 3702.57,-81 3702.57,-62 3590.57,-62"/>
<text text-anchor="middle" x="3646.57" y="-69" font-family="Helvetica,sans-Serif" font-size="10.00">ViennaRNA/PS_dot.h</text>
</a>
</g>
</g>
<!-- Node2&#45;&gt;Node39 -->
<g id="edge68" class="edge"><title>Node2&#45;&gt;Node39</title>
<path fill="none" stroke="midnightblue" d="M1489.24,-265.936C1868.89,-265.424 3415.14,-260.889 3509.57,-221 3544.47,-206.259 3618.01,-110.674 3640.14,-81.1638"/>
<polygon fill="midnightblue" stroke="midnightblue" points="1489.15,-262.436 1479.15,-265.949 1489.16,-269.436 1489.15,-262.436"/>
</g>
<!-- Node40 -->
<g id="node40" class="node"><title>Node40</title>
<g id="a_node40"><a xlink:href="profiledist_8h.html" target="_top" xlink:title="ViennaRNA/profiledist.h">
<polygon fill="none" stroke="black" points="3068.57,-196 3068.57,-215 3190.57,-215 3190.57,-196 3068.57,-196"/>
<text text-anchor="middle" x="3129.57" y="-203" font-family="Helvetica,sans-Serif" font-size="10.00">ViennaRNA/profiledist.h</text>
</a>
</g>
</g>
<!-- Node2&#45;&gt;Node40 -->
<g id="edge67" class="edge"><title>Node2&#45;&gt;Node40</title>
<path fill="none" stroke="midnightblue" d="M1489.49,-265.526C1780.67,-263.599 2746.49,-254.755 3054.57,-221 3066.83,-219.657 3080.08,-217.376 3091.98,-215.016"/>
<polygon fill="midnightblue" stroke="midnightblue" points="1489.39,-262.027 1479.42,-265.592 1489.44,-269.027 1489.39,-262.027"/>
</g>
<!-- Node41 -->
<g id="node41" class="node"><title>Node41</title>
<g id="a_node41"><a xlink:href="snofold_8h_source.html" target="_top" xlink:title="ViennaRNA/snofold.h">
<polygon fill="none" stroke="black" points="3209.07,-196 3209.07,-215 3320.07,-215 3320.07,-196 3209.07,-196"/>
<text text-anchor="middle" x="3264.57" y="-203" font-family="Helvetica,sans-Serif" font-size="10.00">ViennaRNA/snofold.h</text>
</a>
</g>
</g>
<!-- Node2&#45;&gt;Node41 -->
<g id="edge69" class="edge"><title>Node2&#45;&gt;Node41</title>
<path fill="none" stroke="midnightblue" d="M1489.51,-266.058C1797.13,-265.934 2862.28,-262.451 3199.57,-221 3210.24,-219.688 3221.74,-217.416 3232.05,-215.054"/>
<polygon fill="midnightblue" stroke="midnightblue" points="1489.33,-262.558 1479.33,-266.061 1489.33,-269.558 1489.33,-262.558"/>
</g>
<!-- Node42 -->
<g id="node42" class="node"><title>Node42</title>
<g id="a_node42"><a xlink:href="snoop_8h_source.html" target="_top" xlink:title="ViennaRNA/snoop.h">
<polygon fill="none" stroke="black" points="3337.57,-196 3337.57,-215 3443.57,-215 3443.57,-196 3337.57,-196"/>
<text text-anchor="middle" x="3390.57" y="-203" font-family="Helvetica,sans-Serif" font-size="10.00">ViennaRNA/snoop.h</text>
</a>
</g>
</g>
<!-- Node2&#45;&gt;Node42 -->
<g id="edge70" class="edge"><title>Node2&#45;&gt;Node42</title>
<path fill="none" stroke="midnightblue" d="M1489.29,-266.337C1810.6,-267.275 2964.91,-267.276 3328.57,-221 3338.77,-219.702 3349.74,-217.434 3359.57,-215.071"/>
<polygon fill="midnightblue" stroke="midnightblue" points="1489.13,-262.837 1479.12,-266.306 1489.11,-269.837 1489.13,-262.837"/>
</g>
<!-- Node43 -->
<g id="node43" class="node"><title>Node43</title>
<g id="a_node43"><a xlink:href="string__utils_8h.html" target="_top" xlink:title="General utility&#45; and helper&#45;functions for RNA sequence and structure strings used throughout the Vien...">
<polygon fill="none" stroke="black" points="1273.07,-196 1273.07,-215 1400.07,-215 1400.07,-196 1273.07,-196"/>
<text text-anchor="middle" x="1336.57" y="-203" font-family="Helvetica,sans-Serif" font-size="10.00">ViennaRNA/string_utils.h</text>
</a>
</g>
</g>
<!-- Node2&#45;&gt;Node43 -->
<g id="edge71" class="edge"><title>Node2&#45;&gt;Node43</title>
<path fill="none" stroke="midnightblue" d="M1387.77,-250.65C1374.61,-239.306 1357.19,-224.281 1346.44,-215.009"/>
<polygon fill="midnightblue" stroke="midnightblue" points="1385.82,-253.595 1395.68,-257.475 1390.4,-248.294 1385.82,-253.595"/>
</g>
<!-- Node44 -->
<g id="node44" class="node"><title>Node44</title>
<g id="a_node44"><a xlink:href="utils_8h.html" target="_top" xlink:title="General utility&#45; and helper&#45;functions used throughout the ViennaRNA Package. ">
<polygon fill="none" stroke="black" points="1808.57,-129 1808.57,-148 1906.57,-148 1906.57,-129 1808.57,-129"/>
<text text-anchor="middle" x="1857.57" y="-136" font-family="Helvetica,sans-Serif" font-size="10.00">ViennaRNA/utils.h</text>
</a>
</g>
</g>
<!-- Node2&#45;&gt;Node44 -->
<g id="edge80" class="edge"><title>Node2&#45;&gt;Node44</title>
<path fill="none" stroke="midnightblue" d="M1489.53,-265.235C1817.39,-262.05 2994.63,-248.703 3021.57,-221 3031.17,-211.123 3031.1,-199.951 3021.57,-190 2982.46,-149.162 2123.47,-141.136 1906.83,-139.759"/>
<polygon fill="midnightblue" stroke="midnightblue" points="1489.12,-261.738 1479.16,-265.335 1489.19,-268.738 1489.12,-261.738"/>
</g>
<!-- Node45 -->
<g id="node45" class="node"><title>Node45</title>
<g id="a_node45"><a xlink:href="structure__utils_8h.html" target="_top" xlink:title="Various utility&#45; and helper&#45;functions for secondary structure parsing, converting, etc. ">
<polygon fill="none" stroke="black" points="2902.57,-190.5 2902.57,-220.5 3012.57,-220.5 3012.57,-190.5 2902.57,-190.5"/>
<text text-anchor="start" x="2910.57" y="-208.5" font-family="Helvetica,sans-Serif" font-size="10.00">ViennaRNA/structure</text>
<text text-anchor="middle" x="2957.57" y="-197.5" font-family="Helvetica,sans-Serif" font-size="10.00">_utils.h</text>
</a>
</g>
</g>
<!-- Node2&#45;&gt;Node45 -->
<g id="edge77" class="edge"><title>Node2&#45;&gt;Node45</title>
<path fill="none" stroke="midnightblue" d="M1489.49,-265.587C1761.79,-263.914 2618.92,-255.934 2893.57,-221 2896.51,-220.626 2899.51,-220.179 2902.53,-219.677"/>
<polygon fill="midnightblue" stroke="midnightblue" points="1489.26,-262.088 1479.28,-265.649 1489.3,-269.088 1489.26,-262.088"/>
</g>
<!-- Node7&#45;&gt;Node6 -->
<g id="edge7" class="edge"><title>Node7&#45;&gt;Node6</title>
<path fill="none" stroke="midnightblue" d="M53.161,-185.01C41.4642,-177.108 30.0542,-166.783 23.5688,-154 17.3352,-141.713 17.3352,-135.287 23.5688,-123 33.6432,-103.142 55.6009,-89.2175 72.0574,-81.0906"/>
<polygon fill="midnightblue" stroke="midnightblue" points="51.33,-187.993 61.6625,-190.336 55.0465,-182.061 51.33,-187.993"/>
</g>
<!-- Node7&#45;&gt;Node8 -->
<g id="edge8" class="edge"><title>Node7&#45;&gt;Node8</title>
<path fill="none" stroke="midnightblue" d="M92.5688,-180.25C92.5688,-169.017 92.5688,-156.377 92.5688,-148.195"/>
<polygon fill="midnightblue" stroke="midnightblue" points="89.0689,-180.396 92.5688,-190.396 96.0689,-180.396 89.0689,-180.396"/>
</g>
<!-- Node8&#45;&gt;Node6 -->
<g id="edge9" class="edge"><title>Node8&#45;&gt;Node6</title>
<path fill="none" stroke="midnightblue" d="M92.5688,-118.537C92.5688,-106.17 92.5688,-90.6198 92.5688,-81.1273"/>
<polygon fill="midnightblue" stroke="midnightblue" points="89.0689,-118.734 92.5688,-128.734 96.0689,-118.734 89.0689,-118.734"/>
</g>
<!-- Node9&#45;&gt;Node8 -->
<g id="edge11" class="edge"><title>Node9&#45;&gt;Node8</title>
<path fill="none" stroke="midnightblue" d="M231.396,-192.271C197.457,-179.37 144.857,-159.376 115.098,-148.064"/>
<polygon fill="midnightblue" stroke="midnightblue" points="230.27,-195.587 240.861,-195.869 232.757,-189.044 230.27,-195.587"/>
</g>
<!-- Node11&#45;&gt;Node2 -->
<g id="edge15" class="edge"><title>Node11&#45;&gt;Node2</title>
<path fill="none" stroke="midnightblue" d="M1701.66,-216.909C1694.3,-218.308 1686.75,-219.706 1679.57,-221 1605.74,-234.309 1520.14,-248.647 1464.44,-257.474"/>
<polygon fill="midnightblue" stroke="midnightblue" points="1702.37,-220.337 1711.53,-215.01 1701.05,-213.463 1702.37,-220.337"/>
</g>
<!-- Node13&#45;&gt;Node14 -->
<g id="edge18" class="edge"><title>Node13&#45;&gt;Node14</title>
<path fill="none" stroke="midnightblue" d="M567.09,-120.035C559.539,-107.45 549.673,-91.0072 543.745,-81.1273"/>
<polygon fill="midnightblue" stroke="midnightblue" points="564.163,-121.96 572.309,-128.734 570.165,-118.358 564.163,-121.96"/>
</g>
<!-- Node16 -->
<g id="node16" class="node"><title>Node16</title>
<g id="a_node16"><a xlink:href="loop__energies_8h.html" target="_top" xlink:title="Energy evaluation for MFE and partition function calculations. ">
<polygon fill="none" stroke="black" points="1025.57,-0.5 1025.57,-19.5 1165.57,-19.5 1165.57,-0.5 1025.57,-0.5"/>
<text text-anchor="middle" x="1095.57" y="-7.5" font-family="Helvetica,sans-Serif" font-size="10.00">ViennaRNA/loop_energies.h</text>
</a>
</g>
</g>
<!-- Node15&#45;&gt;Node16 -->
<g id="edge20" class="edge"><title>Node15&#45;&gt;Node16</title>
<path fill="none" stroke="midnightblue" d="M723.108,-117.152C749.075,-98.2966 790.462,-70.9738 830.569,-56 894.069,-32.2923 970.821,-21.0008 1025.35,-15.668"/>
<polygon fill="midnightblue" stroke="midnightblue" points="720.889,-114.439 714.918,-123.191 725.043,-120.073 720.889,-114.439"/>
</g>
<!-- Node20 -->
<g id="node20" class="node"><title>Node20</title>
<g id="a_node20"><a xlink:href="pair__mat_8h_source.html" target="_top" xlink:title="ViennaRNA/pair_mat.h">
<polygon fill="none" stroke="black" points="1936.07,-62 1936.07,-81 2053.07,-81 2053.07,-62 1936.07,-62"/>
<text text-anchor="middle" x="1994.57" y="-69" font-family="Helvetica,sans-Serif" font-size="10.00">ViennaRNA/pair_mat.h</text>
</a>
</g>
</g>
<!-- Node19&#45;&gt;Node20 -->
<g id="edge25" class="edge"><title>Node19&#45;&gt;Node20</title>
<path fill="none" stroke="midnightblue" d="M3462.02,-127.031C3453.26,-125.432 3444.17,-123.987 3435.57,-123 3161.07,-91.4981 2288.49,-76.7744 2053.4,-73.3169"/>
<polygon fill="midnightblue" stroke="midnightblue" points="3461.62,-130.518 3472.1,-128.963 3462.94,-123.643 3461.62,-130.518"/>
</g>
<!-- Node22&#45;&gt;Node16 -->
<g id="edge28" class="edge"><title>Node22&#45;&gt;Node16</title>
<path fill="none" stroke="midnightblue" d="M1261.55,-59.1759C1221.72,-47.6144 1160.79,-29.929 1124.89,-19.5091"/>
<polygon fill="midnightblue" stroke="midnightblue" points="1260.62,-62.5489 1271.2,-61.9751 1262.57,-55.8263 1260.62,-62.5489"/>
</g>
<!-- Node23&#45;&gt;Node16 -->
<g id="edge30" class="edge"><title>Node23&#45;&gt;Node16</title>
<path fill="none" stroke="midnightblue" d="M948.906,-53.5681C987.246,-42.44 1035.78,-28.3534 1066.26,-19.5064"/>
<polygon fill="midnightblue" stroke="midnightblue" points="947.519,-50.3259 938.891,-56.4747 949.471,-57.0485 947.519,-50.3259"/>
</g>
<!-- Node27&#45;&gt;Node6 -->
<g id="edge35" class="edge"><title>Node27&#45;&gt;Node6</title>
<path fill="none" stroke="midnightblue" d="M370.61,-188.925C350.98,-170.597 315.896,-140.456 280.569,-123 237.393,-101.665 184.033,-88.4348 145.204,-80.8967"/>
<polygon fill="midnightblue" stroke="midnightblue" points="368.375,-191.629 378.032,-195.985 373.199,-186.557 368.375,-191.629"/>
</g>
<!-- Node27&#45;&gt;Node10 -->
<g id="edge36" class="edge"><title>Node27&#45;&gt;Node10</title>
<path fill="none" stroke="midnightblue" d="M395.624,-186.663C401.988,-174.128 410.222,-157.91 415.189,-148.127"/>
<polygon fill="midnightblue" stroke="midnightblue" points="392.425,-185.233 391.019,-195.734 398.667,-188.402 392.425,-185.233"/>
</g>
<!-- Node27&#45;&gt;Node14 -->
<g id="edge37" class="edge"><title>Node27&#45;&gt;Node14</title>
<path fill="none" stroke="midnightblue" d="M371.92,-187.653C358.503,-170.088 342.798,-142.456 357.569,-123 373.646,-101.823 442.629,-87.1404 490.628,-79.2673"/>
<polygon fill="midnightblue" stroke="midnightblue" points="369.534,-190.267 378.555,-195.824 374.969,-185.855 369.534,-190.267"/>
</g>
<!-- Node28 -->
<g id="node28" class="node"><title>Node28</title>
<g id="a_node28"><a xlink:href="Lfold_8h.html" target="_top" xlink:title="Predicting local MFE structures of large sequences. ">
<polygon fill="none" stroke="black" points="171.069,-129 171.069,-148 272.069,-148 272.069,-129 171.069,-129"/>
<text text-anchor="middle" x="221.569" y="-136" font-family="Helvetica,sans-Serif" font-size="10.00">ViennaRNA/Lfold.h</text>
</a>
</g>
</g>
<!-- Node27&#45;&gt;Node28 -->
<g id="edge38" class="edge"><title>Node27&#45;&gt;Node28</title>
<path fill="none" stroke="midnightblue" d="M355.102,-192.104C322.342,-179.198 271.899,-159.327 243.307,-148.064"/>
<polygon fill="midnightblue" stroke="midnightblue" points="354.071,-195.46 364.658,-195.869 356.637,-188.947 354.071,-195.46"/>
</g>
<!-- Node29&#45;&gt;Node16 -->
<g id="edge40" class="edge"><title>Node29&#45;&gt;Node16</title>
<path fill="none" stroke="midnightblue" d="M1649.28,-63.7129C1528.68,-52.2319 1285.85,-29.115 1165.9,-17.6959"/>
<polygon fill="midnightblue" stroke="midnightblue" points="1649.22,-67.223 1659.5,-64.6866 1649.88,-60.2545 1649.22,-67.223"/>
</g>
<!-- Node30&#45;&gt;Node2 -->
<g id="edge45" class="edge"><title>Node30&#45;&gt;Node2</title>
<path fill="none" stroke="midnightblue" d="M989.132,-216.994C996.695,-218.455 1004.32,-219.848 1011.57,-221 1122.81,-238.693 1252.42,-251.848 1331.79,-259.226"/>
<polygon fill="midnightblue" stroke="midnightblue" points="989.756,-213.549 979.267,-215.048 988.401,-220.417 989.756,-213.549"/>
</g>
<!-- Node30&#45;&gt;Node3 -->
<g id="edge42" class="edge"><title>Node30&#45;&gt;Node3</title>
<path fill="none" stroke="midnightblue" d="M998.745,-201.02C1149.15,-192.903 1513.02,-172.036 1634.57,-154 1644.6,-152.512 1655.39,-150.306 1665.2,-148.061"/>
<polygon fill="midnightblue" stroke="midnightblue" points="998.519,-197.527 988.721,-201.559 998.895,-204.517 998.519,-197.527"/>
</g>
<!-- Node30&#45;&gt;Node6 -->
<g id="edge43" class="edge"><title>Node30&#45;&gt;Node6</title>
<path fill="none" stroke="midnightblue" d="M886.194,-193.253C857.351,-185.019 820.238,-172.106 790.569,-154 773.392,-143.518 775.984,-131.113 757.569,-123 702.107,-98.5657 292.539,-80.3195 145.191,-74.4837"/>
<polygon fill="midnightblue" stroke="midnightblue" points="885.454,-196.68 896.025,-195.971 887.32,-189.933 885.454,-196.68"/>
</g>
<!-- Node30&#45;&gt;Node8 -->
<g id="edge55" class="edge"><title>Node30&#45;&gt;Node8</title>
<path fill="none" stroke="midnightblue" d="M866.084,-203.314C732.166,-200.227 420.615,-189.52 161.569,-154 150.775,-152.52 139.147,-150.317 128.569,-148.072"/>
<polygon fill="midnightblue" stroke="midnightblue" points="866.109,-206.815 876.185,-203.54 866.266,-199.817 866.109,-206.815"/>
</g>
<!-- Node30&#45;&gt;Node10 -->
<g id="edge44" class="edge"><title>Node30&#45;&gt;Node10</title>
<path fill="none" stroke="midnightblue" d="M866.273,-196.855C784.643,-187.336 641.788,-170.331 519.569,-154 504.354,-151.967 487.858,-149.63 472.733,-147.434"/>
<polygon fill="midnightblue" stroke="midnightblue" points="866.067,-200.355 876.405,-198.035 866.877,-193.402 866.067,-200.355"/>
</g>
<!-- Node30&#45;&gt;Node13 -->
<g id="edge46" class="edge"><title>Node30&#45;&gt;Node13</title>
<path fill="none" stroke="midnightblue" d="M866.338,-194.726C805.967,-185.464 714.444,-170.54 635.569,-154 627.239,-152.253 618.295,-150.138 609.984,-148.069"/>
<polygon fill="midnightblue" stroke="midnightblue" points="866.08,-198.227 876.494,-196.276 867.136,-191.307 866.08,-198.227"/>
</g>
<!-- Node30&#45;&gt;Node14 -->
<g id="edge48" class="edge"><title>Node30&#45;&gt;Node14</title>
<path fill="none" stroke="midnightblue" d="M912.233,-189.98C885.57,-171.629 836.745,-140.35 790.569,-123 722.068,-97.2623 637.913,-83.7758 586.273,-77.4064"/>
<polygon fill="midnightblue" stroke="midnightblue" points="910.496,-193.035 920.7,-195.887 914.502,-187.294 910.496,-193.035"/>
</g>
<!-- Node30&#45;&gt;Node15 -->
<g id="edge47" class="edge"><title>Node30&#45;&gt;Node15</title>
<path fill="none" stroke="midnightblue" d="M891.533,-193.198C851.527,-182.179 790.585,-165.394 747.501,-153.528"/>
<polygon fill="midnightblue" stroke="midnightblue" points="890.659,-196.587 901.23,-195.869 892.518,-189.839 890.659,-196.587"/>
</g>
<!-- Node30&#45;&gt;Node21 -->
<g id="edge49" class="edge"><title>Node30&#45;&gt;Node21</title>
<path fill="none" stroke="midnightblue" d="M956.83,-190.787C979.622,-177.905 1013.03,-159.024 1032.31,-148.127"/>
<polygon fill="midnightblue" stroke="midnightblue" points="955.062,-187.766 948.078,-195.734 958.506,-193.86 955.062,-187.766"/>
</g>
<!-- Node30&#45;&gt;Node22 -->
<g id="edge50" class="edge"><title>Node30&#45;&gt;Node22</title>
<path fill="none" stroke="midnightblue" d="M931.611,-185.818C931.751,-167.082 935.157,-138.807 952.569,-123 992.402,-86.8375 1142.34,-76.5321 1231.89,-73.6208"/>
<polygon fill="midnightblue" stroke="midnightblue" points="928.112,-185.899 931.837,-195.817 935.11,-185.741 928.112,-185.899"/>
</g>
<!-- Node30&#45;&gt;Node23 -->
<g id="edge51" class="edge"><title>Node30&#45;&gt;Node23</title>
<path fill="none" stroke="midnightblue" d="M925.828,-186.367C922.337,-176.786 918.082,-164.804 914.569,-154 906.951,-130.575 899.059,-103.03 894.492,-86.7084"/>
<polygon fill="midnightblue" stroke="midnightblue" points="922.625,-187.797 929.364,-195.972 929.194,-185.379 922.625,-187.797"/>
</g>
<!-- Node30&#45;&gt;Node25 -->
<g id="edge52" class="edge"><title>Node30&#45;&gt;Node25</title>
<path fill="none" stroke="midnightblue" d="M974.22,-193.172C1021.48,-180.319 1097.51,-159.643 1140.08,-148.064"/>
<polygon fill="midnightblue" stroke="midnightblue" points="973.037,-189.867 964.306,-195.869 974.874,-196.621 973.037,-189.867"/>
</g>
<!-- Node30&#45;&gt;Node26 -->
<g id="edge53" class="edge"><title>Node30&#45;&gt;Node26</title>
<path fill="none" stroke="midnightblue" d="M998.726,-194.781C1059.88,-185.47 1153.17,-170.438 1233.57,-154 1242.18,-152.24 1251.43,-150.119 1260.03,-148.05"/>
<polygon fill="midnightblue" stroke="midnightblue" points="998.182,-191.323 988.819,-196.282 999.231,-198.244 998.182,-191.323"/>
</g>
<!-- Node30&#45;&gt;Node29 -->
<g id="edge54" class="edge"><title>Node30&#45;&gt;Node29</title>
<path fill="none" stroke="midnightblue" d="M938.745,-186.408C946.415,-167.025 961.506,-137.144 985.569,-123 1014.44,-106.027 1488.3,-83.0134 1659.49,-75.2132"/>
<polygon fill="midnightblue" stroke="midnightblue" points="935.41,-185.337 935.238,-195.93 941.979,-187.756 935.41,-185.337"/>
</g>
<!-- Node30&#45;&gt;Node31 -->
<g id="edge56" class="edge"><title>Node30&#45;&gt;Node31</title>
<path fill="none" stroke="midnightblue" d="M998.809,-197.863C1081.72,-189.25 1228,-173.048 1352.57,-154 1363.87,-152.272 1376.04,-150.14 1387.33,-148.048"/>
<polygon fill="midnightblue" stroke="midnightblue" points="998.358,-194.391 988.771,-198.9 999.078,-201.353 998.358,-194.391"/>
</g>
<!-- Node30&#45;&gt;Node32 -->
<g id="edge57" class="edge"><title>Node30&#45;&gt;Node32</title>
<path fill="none" stroke="midnightblue" d="M999.055,-199.798C1128.74,-190.439 1411.17,-169.082 1507.57,-154 1517.47,-152.45 1528.13,-150.253 1537.85,-148.036"/>
<polygon fill="midnightblue" stroke="midnightblue" points="998.585,-196.322 988.862,-200.531 999.088,-203.304 998.585,-196.322"/>
</g>
<!-- Node38 -->
<g id="node38" class="node"><title>Node38</title>
<g id="a_node38"><a xlink:href="plot__structure_8h.html" target="_top" xlink:title="Various functions for plotting RNA secondary structures. ">
<polygon fill="none" stroke="black" points="3626.07,-129 3626.07,-148 3765.07,-148 3765.07,-129 3626.07,-129"/>
<text text-anchor="middle" x="3695.57" y="-136" font-family="Helvetica,sans-Serif" font-size="10.00">ViennaRNA/plot_structure.h</text>
</a>
</g>
</g>
<!-- Node37&#45;&gt;Node38 -->
<g id="edge65" class="edge"><title>Node37&#45;&gt;Node38</title>
<path fill="none" stroke="midnightblue" d="M3694.15,-185.537C3694.53,-173.17 3695.01,-157.62 3695.3,-148.127"/>
<polygon fill="midnightblue" stroke="midnightblue" points="3690.65,-185.631 3693.84,-195.734 3697.64,-185.846 3690.65,-185.631"/>
</g>
<!-- Node38&#45;&gt;Node39 -->
<g id="edge66" class="edge"><title>Node38&#45;&gt;Node39</title>
<path fill="none" stroke="midnightblue" d="M3682.68,-120.404C3673.16,-107.773 3660.59,-91.1041 3653.07,-81.1273"/>
<polygon fill="midnightblue" stroke="midnightblue" points="3680.15,-122.855 3688.96,-128.734 3685.74,-118.642 3680.15,-122.855"/>
</g>
<!-- Node43&#45;&gt;Node44 -->
<g id="edge72" class="edge"><title>Node43&#45;&gt;Node44</title>
<path fill="none" stroke="midnightblue" d="M1384.79,-194.058C1392.71,-192.554 1400.85,-191.134 1408.57,-190 1579.04,-164.957 1624.46,-181.384 1794.57,-154 1804.32,-152.43 1814.81,-150.226 1824.38,-148.01"/>
<polygon fill="midnightblue" stroke="midnightblue" points="1384.06,-190.634 1374.92,-195.994 1385.41,-197.503 1384.06,-190.634"/>
</g>
<!-- Node44&#45;&gt;Node20 -->
<g id="edge76" class="edge"><title>Node44&#45;&gt;Node20</title>
<path fill="none" stroke="midnightblue" d="M1885.09,-124.444C1912.22,-111.569 1952.93,-92.2573 1976.3,-81.1672"/>
<polygon fill="midnightblue" stroke="midnightblue" points="1883.3,-121.42 1875.76,-128.869 1886.3,-127.744 1883.3,-121.42"/>
</g>
<!-- Node44&#45;&gt;Node22 -->
<g id="edge73" class="edge"><title>Node44&#45;&gt;Node22</title>
<path fill="none" stroke="midnightblue" d="M1814.02,-126.737C1807.53,-125.347 1800.89,-124.046 1794.57,-123 1643.81,-98.0446 1465,-83.4372 1369.25,-76.8117"/>
<polygon fill="midnightblue" stroke="midnightblue" points="1813.52,-130.212 1824.05,-128.971 1815.05,-123.38 1813.52,-130.212"/>
</g>
<!-- Node44&#45;&gt;Node23 -->
<g id="edge74" class="edge"><title>Node44&#45;&gt;Node23</title>
<path fill="none" stroke="midnightblue" d="M1798.32,-127.679C1786.19,-125.914 1773.49,-124.243 1761.57,-123 1600.75,-106.228 1102.36,-82.307 941.318,-74.8267"/>
<polygon fill="midnightblue" stroke="midnightblue" points="1797.94,-131.161 1808.35,-129.177 1798.98,-124.238 1797.94,-131.161"/>
</g>
<!-- Node44&#45;&gt;Node29 -->
<g id="edge75" class="edge"><title>Node44&#45;&gt;Node29</title>
<path fill="none" stroke="midnightblue" d="M1830.11,-124.474C1806.95,-113.485 1773.87,-97.791 1750.14,-86.5281"/>
<polygon fill="midnightblue" stroke="midnightblue" points="1828.84,-127.744 1839.38,-128.869 1831.84,-121.42 1828.84,-127.744"/>
</g>
<!-- Node45&#45;&gt;Node44 -->
<g id="edge78" class="edge"><title>Node45&#45;&gt;Node44</title>
<path fill="none" stroke="midnightblue" d="M2892.61,-190.044C2508.59,-138.471 2054.52,-137.623 1906.66,-138.873"/>
<polygon fill="midnightblue" stroke="midnightblue" points="2892.14,-193.513 2902.52,-191.389 2893.08,-186.577 2892.14,-193.513"/>
</g>
</g>
</svg>
