<?xml version="1.0" encoding="UTF-8" standalone="no"?>
<!DOCTYPE svg PUBLIC "-//W3C//DTD SVG 1.1//EN"
 "http://www.w3.org/Graphics/SVG/1.1/DTD/svg11.dtd">
<!-- Generated by graphviz version 2.38.0 (20140413.2041)
 -->
<!-- Title: Local MFE structure Prediction and Z&#45;scores Pages: 1 -->
<svg width="296pt" height="99pt"
 viewBox="0.00 0.00 296.00 98.50" xmlns="http://www.w3.org/2000/svg" xmlns:xlink="http://www.w3.org/1999/xlink">
<g id="graph0" class="graph" transform="scale(1 1) rotate(0) translate(4 94.5)">
<title>Local MFE structure Prediction and Z&#45;scores</title>
<!-- Node0 -->
<g id="node1" class="node"><title>Node0</title>
<polygon fill="#bfbfbf" stroke="black" points="165,-27.5 165,-57.5 288,-57.5 288,-27.5 165,-27.5"/>
<text text-anchor="start" x="173" y="-45.5" font-family="Helvetica,sans-Serif" font-size="10.00">Local MFE structure</text>
<text text-anchor="middle" x="226.5" y="-34.5" font-family="Helvetica,sans-Serif" font-size="10.00"> Prediction and Z&#45;scores</text>
</g>
<!-- Node1 -->
<g id="node2" class="node"><title>Node1</title>
<g id="a_node2"><a xlink:href="group__local__fold.html" target="_top" xlink:title="Predicting Locally\l stable structures of\l large sequences">
<polygon fill="none" stroke="black" points="12.5,-49 12.5,-90 116.5,-90 116.5,-49 12.5,-49"/>
<text text-anchor="start" x="20.5" y="-78" font-family="Helvetica,sans-Serif" font-size="10.00">Predicting Locally</text>
<text text-anchor="start" x="20.5" y="-67" font-family="Helvetica,sans-Serif" font-size="10.00"> stable structures of</text>
<text text-anchor="middle" x="64.5" y="-56" font-family="Helvetica,sans-Serif" font-size="10.00"> large sequences</text>
</a>
</g>
</g>
<!-- Node1&#45;&gt;Node0 -->
<g id="edge1" class="edge"><title>Node1&#45;&gt;Node0</title>
<path fill="none" stroke="black" d="M126.482,-59.2093C139.057,-57.0872 152.298,-54.8528 164.861,-52.7328"/>
<polygon fill="black" stroke="black" points="125.843,-55.7675 116.565,-60.8828 127.008,-62.6699 125.843,-55.7675"/>
</g>
<!-- Node2 -->
<g id="node3" class="node"><title>Node2</title>
<g id="a_node3"><a xlink:href="group__mfe__fold.html" target="_top" xlink:title="This section covers all functions and variables related to the calculation of minimum free energy (MF...">
<polygon fill="none" stroke="black" points="0,-0.5 0,-30.5 129,-30.5 129,-0.5 0,-0.5"/>
<text text-anchor="start" x="8" y="-18.5" font-family="Helvetica,sans-Serif" font-size="10.00">Computing Minimum Free</text>
<text text-anchor="middle" x="64.5" y="-7.5" font-family="Helvetica,sans-Serif" font-size="10.00"> Energy (MFE) Structures</text>
</a>
</g>
</g>
<!-- Node2&#45;&gt;Node0 -->
<g id="edge2" class="edge"><title>Node2&#45;&gt;Node0</title>
<path fill="none" stroke="black" d="M139.215,-27.9394C147.808,-29.3895 156.499,-30.8561 164.887,-32.2716"/>
<polygon fill="black" stroke="black" points="139.639,-24.4615 129.196,-26.2487 138.474,-31.364 139.639,-24.4615"/>
</g>
</g>
</svg>
