%!PS-Adobe-3.0 EPSF-3.0
%%Title: RNA Dot Plot
%%Creator: ViennaRNA-2.2.4
%%CreationDate: Wed Apr 27 16:59:38 2016
%%BoundingBox: 66 211 518 662
%%DocumentFonts: Helvetica
%%Pages: 1
%%EndComments

%Options: 
% 
%This file contains the square roots of the base pair probabilities in the form
% i  j  sqrt(p(i,j)) ubox

%%BeginProlog
/DPdict 100 dict def
DPdict begin
/logscale false def
/lpmin 1e-05 log def

/box { %size x y box - draws box centered on x,y
   2 index 0.5 mul sub            % x -= 0.5
   exch 2 index 0.5 mul sub exch  % y -= 0.5
   3 -1 roll dup rectfill
} bind def

/ubox {
   logscale {
      log dup add lpmin div 1 exch sub dup 0 lt { pop 0 } if
   } if
   3 1 roll
   exch len exch sub 1 add box
} bind def

/lbox {
   3 1 roll
   len exch sub 1 add box
} bind def

/drawseq {
% print sequence along all 4 sides
[ [0.7 -0.3 0 ]
  [0.7 0.7 len add 0]
  [-0.3 len sub -0.4 -90]
  [-0.3 len sub 0.7 len add -90]
] {
   gsave
    aload pop rotate translate
    0 1 len 1 sub {
     dup 0 moveto
     sequence exch 1 getinterval
     show
    } for
   grestore
  } forall
} bind def

/drawgrid{
  0.01 setlinewidth
  len log 0.9 sub cvi 10 exch exp  % grid spacing
  dup 1 gt {
     dup dup 20 div dup 2 array astore exch 40 div setdash
  } { [0.3 0.7] 0.1 setdash } ifelse
  0 exch len {
     dup dup
     0 moveto
     len lineto
     dup
     len exch sub 0 exch moveto
     len exch len exch sub lineto
     stroke
  } for
  [] 0 setdash
  0.04 setlinewidth
  currentdict /cutpoint known {
    cutpoint 1 sub
    dup dup -1 moveto len 1 add lineto
    len exch sub dup
    -1 exch moveto len 1 add exch lineto
    stroke
  } if
  0.5 neg dup translate
} bind def

end
%%EndProlog
DPdict begin
%delete next line to get rid of title
270 665 moveto /Helvetica findfont 14 scalefont setfont (dot.ps) show

/sequence { (\
GGGGAUGUAGCUCAUAUGGUAGAGCGCUCGCUUUGCAUGCGAGAGGCACAGGGUUCGAUUCCCUGCAUCUCCA\
) } def
/len { sequence length } bind def

72 216 translate
72 6 mul len 1 add div dup scale
/Helvetica findfont 0.95 scalefont setfont

drawseq
0.5 dup translate
% draw diagonal
0.04 setlinewidth
0 len moveto len 0 lineto stroke

/min { 2 copy gt { exch } if pop } bind def

/utri{ % i j prob utri
  gsave
  1 min 2 div
  0.85 mul 0.15 add 0.95  0.33
  3 1 roll % prepare hsb color
  sethsbcolor
  % now produce the coordinates for lines
  exch 1 sub dup len exch sub dup 4 -1 roll dup 3 1 roll dup len exch sub
  moveto lineto lineto closepath fill
  grestore
} bind def
/uHmotif{ % i j uHmotif
  gsave
  1 min 2 div
  0.85 mul 0.15 add 0.95  0.99
  3 1 roll % prepare hsb color
  sethsbcolor
  % now produce the coordinates for lines
  exch 1 sub dup len exch sub dup 4 -1 roll dup 3 1 roll dup len exch sub
  moveto lineto lineto closepath fill
  grestore
} bind def
/lHmotif{ % i j lHmotif
  gsave
  1 min 2 div
  0.85 mul 0.15 add 0.95  0.99
  3 1 roll % prepare hsb color
  sethsbcolor
  % now produce the coordinates for lines
  dup len exch sub dup 4 -1 roll 1 sub dup 3 1 roll dup len exch sub
  moveto lineto lineto closepath fill
  grestore
} bind def
/uImotif{ % i j k l uImotif
  gsave
  1 min 2 div
  0.85 mul 0.15 add 0.95  0.99
  3 1 roll % prepare hsb color
  sethsbcolor
  % now produce the coordinates for lines
  1 sub dup 5 1 roll exch len exch sub dup 5 1 roll 3 -1 roll dup
  5 1 roll exch 4 1 roll 3 1 roll exch 1 sub len exch sub dup 3 1 roll
  moveto lineto lineto lineto closepath fill
  grestore
} bind def
/lImotif{ % i j k l lImotif
  gsave
  1 min 2 div
  0.85 mul 0.15 add 0.95  0.99
  3 1 roll % prepare hsb color
  sethsbcolor
  % now produce the coordinates for lines
  4 -1 roll 1 sub dup 5 1 roll exch 1 sub len exch sub dup 3 -1 roll exch
  5 -1 roll len exch sub dup 6 -1 roll dup 3 1 roll 7 4 roll
  moveto lineto lineto lineto closepath fill
  grestore
} bind def

%data starts here

%start of quadruplex data

%start of Hmotif data

%start of Imotif data

%draw the grid
drawgrid

%start of base pair probability data
1 71 0.003365746 ubox
1 72 0.998779536 ubox
2 71 0.999505159 ubox
2 72 0.028563092 ubox
3 69 0.003838273 ubox
3 70 0.998902195 ubox
3 71 0.028534886 ubox
3 72 0.005428745 ubox
4 69 0.999927011 ubox
4 70 0.003858279 ubox
4 71 0.005430081 ubox
5 68 0.998801795 ubox
5 70 0.005032246 ubox
6 14 0.003469382 ubox
6 23 0.004756718 ubox
6 48 0.086007677 ubox
6 67 0.994107229 ubox
7 13 0.004593836 ubox
7 17 0.007447552 ubox
7 27 0.010022228 ubox
7 47 0.161344135 ubox
7 49 0.004154133 ubox
7 66 0.982363386 ubox
8 14 0.003883441 ubox
8 16 0.021012197 ubox
8 18 0.014125687 ubox
8 21 0.074602275 ubox
8 22 0.012502696 ubox
8 23 0.007427464 ubox
8 26 0.037307332 ubox
8 44 0.011210755 ubox
8 45 0.027589330 ubox
8 46 0.170009180 ubox
8 48 0.021676140 ubox
8 65 0.491240150 ubox
9 15 0.022589114 ubox
9 17 0.015481692 ubox
9 20 0.079389258 ubox
9 28 0.003189837 ubox
9 55 0.004055633 ubox
9 64 0.357490220 ubox
10 15 0.004842983 ubox
10 17 0.003706182 ubox
10 20 0.077396946 ubox
10 25 0.841733041 ubox
10 27 0.003276838 ubox
10 40 0.006763352 ubox
10 47 0.135424537 ubox
10 49 0.008703714 ubox
10 54 0.005798731 ubox
10 63 0.220056176 ubox
10 66 0.004132604 ubox
11 18 0.102226672 ubox
11 19 0.079759493 ubox
11 22 0.029740554 ubox
11 24 0.844922593 ubox
11 26 0.003274783 ubox
11 39 0.006723917 ubox
11 41 0.006931709 ubox
11 43 0.458710057 ubox
11 45 0.105106531 ubox
11 46 0.116959529 ubox
11 53 0.008775346 ubox
12 16 0.004607911 ubox
12 18 0.070079135 ubox
12 19 0.019868480 ubox
12 21 0.029270052 ubox
12 23 0.846224089 ubox
12 42 0.465374780 ubox
12 44 0.120889753 ubox
12 45 0.075798596 ubox
12 52 0.008757865 ubox
12 58 0.008171639 ubox
13 18 0.052327821 ubox
13 19 0.020181447 ubox
13 22 0.846211340 ubox
13 39 0.015614838 ubox
13 41 0.468285585 ubox
13 43 0.124071285 ubox
13 45 0.007864837 ubox
13 51 0.008723672 ubox
13 57 0.008369068 ubox
14 20 0.149071100 ubox
14 38 0.016255840 ubox
14 59 0.006584780 ubox
15 19 0.138811860 ubox
15 21 0.143656947 ubox
15 22 0.003543037 ubox
15 37 0.016002003 ubox
15 39 0.471336967 ubox
15 41 0.043693138 ubox
15 42 0.033788205 ubox
15 43 0.004599795 ubox
15 58 0.006689354 ubox
16 20 0.128261304 ubox
16 38 0.473771616 ubox
16 54 0.006308909 ubox
16 59 0.005293663 ubox
17 21 0.008847705 ubox
17 23 0.005058946 ubox
17 26 0.003929215 ubox
17 37 0.461409166 ubox
17 39 0.028100338 ubox
17 41 0.014696944 ubox
17 42 0.003544649 ubox
17 50 0.006474624 ubox
17 53 0.006287377 ubox
17 57 0.006159931 ubox
17 58 0.005055978 ubox
18 25 0.005601217 ubox
18 36 0.332983346 ubox
18 38 0.025348502 ubox
18 40 0.015863624 ubox
18 49 0.007051354 ubox
18 54 0.004541695 ubox
18 56 0.006850671 ubox
18 59 0.003870909 ubox
18 60 0.007072138 ubox
18 61 0.005888597 ubox
18 62 0.051170590 ubox
19 25 0.004313019 ubox
19 36 0.387905074 ubox
19 40 0.003686098 ubox
19 47 0.004754716 ubox
19 49 0.012044000 ubox
19 55 0.005814142 ubox
19 56 0.004334005 ubox
19 59 0.008491133 ubox
19 60 0.005491629 ubox
19 61 0.051161450 ubox
20 24 0.004047694 ubox
20 35 0.502700190 ubox
20 39 0.003590821 ubox
20 46 0.004743326 ubox
20 48 0.012021995 ubox
20 52 0.005289353 ubox
20 58 0.009704938 ubox
21 33 0.005165746 ubox
21 34 0.509424205 ubox
21 59 0.005103756 ubox
21 60 0.003173758 ubox
22 32 0.003342675 ubox
22 33 0.510654770 ubox
22 47 0.010207456 ubox
22 49 0.027478538 ubox
22 56 0.053421491 ubox
23 32 0.511265212 ubox
23 55 0.053457897 ubox
24 31 0.511443115 ubox
24 47 0.144291156 ubox
24 54 0.053401014 ubox
25 30 0.510706796 ubox
25 41 0.003902485 ubox
25 45 0.057898286 ubox
25 46 0.145147255 ubox
25 53 0.053418959 ubox
25 57 0.003814176 ubox
26 36 0.054197256 ubox
26 40 0.010076077 ubox
26 47 0.189872798 ubox
26 49 0.018136672 ubox
26 54 0.003746746 ubox
26 56 0.004121224 ubox
27 35 0.054240741 ubox
27 39 0.010084819 ubox
27 43 0.830121423 ubox
27 45 0.026721895 ubox
27 46 0.175467030 ubox
27 51 0.052827975 ubox
27 52 0.005848989 ubox
27 53 0.003879701 ubox
28 42 0.844892858 ubox
28 43 0.004702677 ubox
28 44 0.025983702 ubox
28 45 0.107711977 ubox
28 48 0.006551791 ubox
28 50 0.051066394 ubox
28 51 0.005732141 ubox
28 52 0.003878444 ubox
28 58 0.005116541 ubox
29 41 0.852383734 ubox
29 43 0.023050552 ubox
29 45 0.012066913 ubox
29 51 0.003910494 ubox
29 57 0.005431455 ubox
30 36 0.019268705 ubox
30 40 0.852679124 ubox
30 47 0.085102090 ubox
30 54 0.007351955 ubox
30 56 0.004375087 ubox
31 35 0.019166109 ubox
31 39 0.852424011 ubox
31 41 0.006626268 ubox
31 43 0.012764997 ubox
31 45 0.008418482 ubox
31 46 0.085115191 ubox
31 53 0.008705035 ubox
32 37 0.058180992 ubox
32 39 0.011752510 ubox
32 42 0.011984662 ubox
32 43 0.010538576 ubox
32 44 0.009445647 ubox
32 45 0.084853875 ubox
32 52 0.008723041 ubox
33 37 0.087439284 ubox
33 39 0.003760312 ubox
33 41 0.010749251 ubox
33 42 0.014247517 ubox
33 43 0.009523912 ubox
33 44 0.084338647 ubox
33 51 0.008707003 ubox
34 41 0.015617037 ubox
34 42 0.009769345 ubox
34 43 0.079554614 ubox
34 48 0.004890110 ubox
34 50 0.008968412 ubox
35 40 0.017046475 ubox
35 47 0.005448010 ubox
35 49 0.009018263 ubox
36 41 0.052044504 ubox
36 43 0.003741664 ubox
36 46 0.005419119 ubox
38 48 0.141503162 ubox
38 50 0.003352391 ubox
39 47 0.164604308 ubox
39 49 0.003717639 ubox
40 45 0.009689022 ubox
40 46 0.164471916 ubox
40 57 0.004334228 ubox
41 47 0.004859920 ubox
41 56 0.004344756 ubox
42 55 0.004223259 ubox
43 47 0.008202947 ubox
43 49 0.007839358 ubox
43 56 0.023429887 ubox
44 55 0.026271008 ubox
44 60 0.003303384 ubox
44 64 0.016336073 ubox
45 49 0.040106407 ubox
45 54 0.026864396 ubox
45 55 0.023558130 ubox
45 56 0.014202027 ubox
45 61 0.004359359 ubox
45 62 0.031685554 ubox
45 63 0.019284991 ubox
45 64 0.003558321 ubox
45 66 0.008515228 ubox
46 54 0.029401787 ubox
46 55 0.012219325 ubox
46 56 0.006686735 ubox
46 60 0.003851853 ubox
46 61 0.031690876 ubox
46 62 0.018648979 ubox
46 63 0.005096018 ubox
46 66 0.032962511 ubox
47 51 0.005381860 ubox
47 52 0.027008870 ubox
47 53 0.030567739 ubox
47 57 0.005042877 ubox
47 65 0.034677672 ubox
48 54 0.010308321 ubox
48 59 0.014996775 ubox
48 60 0.007244202 ubox
48 64 0.024599803 ubox
49 53 0.010522027 ubox
49 57 0.010263062 ubox
49 65 0.865858520 ubox
50 59 0.006396360 ubox
50 60 0.004656289 ubox
50 64 0.926499680 ubox
51 56 0.029670393 ubox
51 59 0.004818362 ubox
51 60 0.004747070 ubox
51 61 0.023249002 ubox
51 62 0.209710029 ubox
51 63 0.971537487 ubox
51 64 0.016519109 ubox
52 56 0.007630818 ubox
52 59 0.005116507 ubox
52 60 0.023339424 ubox
52 61 0.210524835 ubox
52 62 0.973172461 ubox
52 63 0.024989617 ubox
53 59 0.024776733 ubox
53 60 0.194953789 ubox
53 61 0.972101873 ubox
53 62 0.025364722 ubox
54 58 0.031495571 ubox
57 61 0.003881462 ubox
57 62 0.009754941 ubox
57 63 0.004225284 ubox
1 72 0.9500000 lbox
2 71 0.9500000 lbox
3 70 0.9500000 lbox
4 69 0.9500000 lbox
5 68 0.9500000 lbox
6 67 0.9500000 lbox
7 66 0.9500000 lbox
10 25 0.9500000 lbox
11 24 0.9500000 lbox
12 23 0.9500000 lbox
13 22 0.9500000 lbox
27 43 0.9500000 lbox
28 42 0.9500000 lbox
29 41 0.9500000 lbox
30 40 0.9500000 lbox
31 39 0.9500000 lbox
49 65 0.9500000 lbox
50 64 0.9500000 lbox
51 63 0.9500000 lbox
52 62 0.9500000 lbox
53 61 0.9500000 lbox
showpage
end
%%EOF
