\relax 
\providecommand\hyper@newdestlabel[2]{}
\@writefile{toc}{\contentsline {section}{\numberline {13.45}Direct refolding paths between two secondary structures}{254}{section.13.45}}
\newlabel{group__direct__paths}{{13.45}{254}{Direct refolding paths between two secondary structures}{section.13.45}{}}
\newlabel{group__direct__paths_ga818d4f3d1cf8723d6905990b08d909fe}{{13.45}{254}{Typedefs}{section*.144}{}}
\@writefile{toc}{\contentsline {subsection}{\numberline {13.45.1}Detailed Description}{254}{subsection.13.45.1}}
\@writefile{toc}{\contentsline {subsection}{\numberline {13.45.2}Data Structure Documentation}{254}{subsection.13.45.2}}
\newlabel{structvrna__path__s}{{13.45.2}{254}{Data Structure Documentation}{subsection.13.45.2}{}}
\@writefile{toc}{\contentsline {subsubsection}{\numberline {13.45.2.1}struct vrna\discretionary {\unhbox \voidb@x \hbox {\relax \fontsize  {7}{8}\selectfont  $\DOTSB \leftarrow \joinrel  \rhook $}}{}{}\_\discretionary {\unhbox \voidb@x \hbox {\relax \fontsize  {7}{8}\selectfont  $\DOTSB \leftarrow \joinrel  \rhook $}}{}{}path\discretionary {\unhbox \voidb@x \hbox {\relax \fontsize  {7}{8}\selectfont  $\DOTSB \leftarrow \joinrel  \rhook $}}{}{}\_\discretionary {\unhbox \voidb@x \hbox {\relax \fontsize  {7}{8}\selectfont  $\DOTSB \leftarrow \joinrel  \rhook $}}{}{}s}{254}{subsubsection.13.45.2.1}}
\citation{flamm:2001}
\gdef \PWST@ccviii{1}
\citation{flamm:2001}
\newlabel{group__direct__paths_ac25160bf31d28097358278f367e41227}{{13.45.2.1}{255}{Data Fields}{section*.146}{}}
\newlabel{group__direct__paths_a141b70a59cb81d10bc65bbb7a0f6db77}{{13.45.2.1}{255}{Data Fields}{section*.146}{}}
\@writefile{toc}{\contentsline {subsection}{\numberline {13.45.3}Typedef Documentation}{255}{subsection.13.45.3}}
\@writefile{toc}{\contentsline {subsubsection}{\numberline {13.45.3.1}path\discretionary {\unhbox \voidb@x \hbox {\relax \fontsize  {7}{8}\selectfont  $\DOTSB \leftarrow \joinrel  \rhook $}}{}{}\_\discretionary {\unhbox \voidb@x \hbox {\relax \fontsize  {7}{8}\selectfont  $\DOTSB \leftarrow \joinrel  \rhook $}}{}{}t}{255}{subsubsection.13.45.3.1}}
\newlabel{group__direct__paths_gab6b8737d5377e70a7815d04aae7fd884}{{13.45.3.1}{255}{path\+\_\+t}{subsubsection.13.45.3.1}{}}
\@writefile{toc}{\contentsline {subsection}{\numberline {13.45.4}Function Documentation}{255}{subsection.13.45.4}}
\@writefile{toc}{\contentsline {subsubsection}{\numberline {13.45.4.1}vrna\discretionary {\unhbox \voidb@x \hbox {\relax \fontsize  {7}{8}\selectfont  $\DOTSB \leftarrow \joinrel  \rhook $}}{}{}\_\discretionary {\unhbox \voidb@x \hbox {\relax \fontsize  {7}{8}\selectfont  $\DOTSB \leftarrow \joinrel  \rhook $}}{}{}path\discretionary {\unhbox \voidb@x \hbox {\relax \fontsize  {7}{8}\selectfont  $\DOTSB \leftarrow \joinrel  \rhook $}}{}{}\_\discretionary {\unhbox \voidb@x \hbox {\relax \fontsize  {7}{8}\selectfont  $\DOTSB \leftarrow \joinrel  \rhook $}}{}{}findpath\discretionary {\unhbox \voidb@x \hbox {\relax \fontsize  {7}{8}\selectfont  $\DOTSB \leftarrow \joinrel  \rhook $}}{}{}\_\discretionary {\unhbox \voidb@x \hbox {\relax \fontsize  {7}{8}\selectfont  $\DOTSB \leftarrow \joinrel  \rhook $}}{}{}saddle}{255}{subsubsection.13.45.4.1}}
\newlabel{group__direct__paths_ga957922acc1bcaa97f52cbd0975f7dcd0}{{13.45.4.1}{255}{vrna\+\_\+path\+\_\+findpath\+\_\+saddle}{subsubsection.13.45.4.1}{}}
\@writefile{brf}{\backcite{flamm:2001}{{255}{13.45.4.1}{subsubsection.13.45.4.1}}}
\gdef \PWST@ccix{1}
\gdef \PWST@ccx{1}
\@writefile{toc}{\contentsline {subsubsection}{\numberline {13.45.4.2}vrna\discretionary {\unhbox \voidb@x \hbox {\relax \fontsize  {7}{8}\selectfont  $\DOTSB \leftarrow \joinrel  \rhook $}}{}{}\_\discretionary {\unhbox \voidb@x \hbox {\relax \fontsize  {7}{8}\selectfont  $\DOTSB \leftarrow \joinrel  \rhook $}}{}{}path\discretionary {\unhbox \voidb@x \hbox {\relax \fontsize  {7}{8}\selectfont  $\DOTSB \leftarrow \joinrel  \rhook $}}{}{}\_\discretionary {\unhbox \voidb@x \hbox {\relax \fontsize  {7}{8}\selectfont  $\DOTSB \leftarrow \joinrel  \rhook $}}{}{}findpath}{256}{subsubsection.13.45.4.2}}
\newlabel{group__direct__paths_ga5e1f97f58adc65016a8df88802dc16b5}{{13.45.4.2}{256}{vrna\+\_\+path\+\_\+findpath}{subsubsection.13.45.4.2}{}}
\@writefile{brf}{\backcite{flamm:2001}{{256}{13.45.4.2}{subsubsection.13.45.4.2}}}
\@writefile{toc}{\contentsline {subsubsection}{\numberline {13.45.4.3}find\discretionary {\unhbox \voidb@x \hbox {\relax \fontsize  {7}{8}\selectfont  $\DOTSB \leftarrow \joinrel  \rhook $}}{}{}\_\discretionary {\unhbox \voidb@x \hbox {\relax \fontsize  {7}{8}\selectfont  $\DOTSB \leftarrow \joinrel  \rhook $}}{}{}saddle}{256}{subsubsection.13.45.4.3}}
\newlabel{group__direct__paths_gad0e14268e309af773ecd1fce6244ee50}{{13.45.4.3}{256}{find\+\_\+saddle}{subsubsection.13.45.4.3}{}}
\@writefile{toc}{\contentsline {subsubsection}{\numberline {13.45.4.4}free\discretionary {\unhbox \voidb@x \hbox {\relax \fontsize  {7}{8}\selectfont  $\DOTSB \leftarrow \joinrel  \rhook $}}{}{}\_\discretionary {\unhbox \voidb@x \hbox {\relax \fontsize  {7}{8}\selectfont  $\DOTSB \leftarrow \joinrel  \rhook $}}{}{}path}{256}{subsubsection.13.45.4.4}}
\newlabel{group__direct__paths_ga9056421d716ae89f0ed3f107627f395b}{{13.45.4.4}{256}{free\+\_\+path}{subsubsection.13.45.4.4}{}}
\gdef \PWST@ccxi{1}
\gdef \PWST@ccxii{1}
\@writefile{toc}{\contentsline {subsubsection}{\numberline {13.45.4.5}get\discretionary {\unhbox \voidb@x \hbox {\relax \fontsize  {7}{8}\selectfont  $\DOTSB \leftarrow \joinrel  \rhook $}}{}{}\_\discretionary {\unhbox \voidb@x \hbox {\relax \fontsize  {7}{8}\selectfont  $\DOTSB \leftarrow \joinrel  \rhook $}}{}{}path}{257}{subsubsection.13.45.4.5}}
\newlabel{group__direct__paths_ga0b22426253e190bd268f86b01b71220d}{{13.45.4.5}{257}{get\+\_\+path}{subsubsection.13.45.4.5}{}}
\@setckpt{group__direct__paths}{
\setcounter{page}{258}
\setcounter{equation}{0}
\setcounter{enumi}{2}
\setcounter{enumii}{0}
\setcounter{enumiii}{0}
\setcounter{enumiv}{0}
\setcounter{footnote}{0}
\setcounter{mpfootnote}{0}
\setcounter{part}{0}
\setcounter{chapter}{13}
\setcounter{section}{45}
\setcounter{subsection}{4}
\setcounter{subsubsection}{5}
\setcounter{paragraph}{0}
\setcounter{subparagraph}{0}
\setcounter{figure}{0}
\setcounter{table}{0}
\setcounter{float@type}{4}
\setcounter{PWSTtable}{212}
\setcounter{NAT@ctr}{0}
\setcounter{lofdepth}{1}
\setcounter{lotdepth}{1}
\setcounter{parentequation}{0}
\setcounter{Item}{12}
\setcounter{Hfootnote}{0}
\setcounter{bookmark@seq@number}{607}
\setcounter{section@level}{3}
}
