\relax 
\providecommand\hyper@newdestlabel[2]{}
\gdef \PWST@cvii{1}
\@writefile{toc}{\contentsline {section}{\numberline {13.13}Compute the centroid structure}{137}{section.13.13}}
\newlabel{group__centroid__fold}{{13.13}{137}{Compute the centroid structure}{section.13.13}{}}
\@writefile{toc}{\contentsline {subsection}{\numberline {13.13.1}Detailed Description}{137}{subsection.13.13.1}}
\@writefile{toc}{\contentsline {subsection}{\numberline {13.13.2}Function Documentation}{137}{subsection.13.13.2}}
\@writefile{toc}{\contentsline {subsubsection}{\numberline {13.13.2.1}vrna\discretionary {\unhbox \voidb@x \hbox {\relax \fontsize  {7}{8}\selectfont  $\DOTSB \leftarrow \joinrel  \rhook $}}{}{}\_\discretionary {\unhbox \voidb@x \hbox {\relax \fontsize  {7}{8}\selectfont  $\DOTSB \leftarrow \joinrel  \rhook $}}{}{}centroid}{137}{subsubsection.13.13.2.1}}
\newlabel{group__centroid__fold_ga0e64bb67e51963dc71cbd4d30b80a018}{{13.13.2.1}{137}{vrna\+\_\+centroid}{subsubsection.13.13.2.1}{}}
\@writefile{toc}{\contentsline {subsubsection}{\numberline {13.13.2.2}vrna\discretionary {\unhbox \voidb@x \hbox {\relax \fontsize  {7}{8}\selectfont  $\DOTSB \leftarrow \joinrel  \rhook $}}{}{}\_\discretionary {\unhbox \voidb@x \hbox {\relax \fontsize  {7}{8}\selectfont  $\DOTSB \leftarrow \joinrel  \rhook $}}{}{}centroid\discretionary {\unhbox \voidb@x \hbox {\relax \fontsize  {7}{8}\selectfont  $\DOTSB \leftarrow \joinrel  \rhook $}}{}{}\_\discretionary {\unhbox \voidb@x \hbox {\relax \fontsize  {7}{8}\selectfont  $\DOTSB \leftarrow \joinrel  \rhook $}}{}{}from\discretionary {\unhbox \voidb@x \hbox {\relax \fontsize  {7}{8}\selectfont  $\DOTSB \leftarrow \joinrel  \rhook $}}{}{}\_\discretionary {\unhbox \voidb@x \hbox {\relax \fontsize  {7}{8}\selectfont  $\DOTSB \leftarrow \joinrel  \rhook $}}{}{}plist}{137}{subsubsection.13.13.2.2}}
\newlabel{group__centroid__fold_ga70525a53b879c1427f9ea546c96fa1c5}{{13.13.2.2}{137}{vrna\+\_\+centroid\+\_\+from\+\_\+plist}{subsubsection.13.13.2.2}{}}
\gdef \PWST@cviii{1}
\gdef \PWST@cix{1}
\@writefile{toc}{\contentsline {subsubsection}{\numberline {13.13.2.3}vrna\discretionary {\unhbox \voidb@x \hbox {\relax \fontsize  {7}{8}\selectfont  $\DOTSB \leftarrow \joinrel  \rhook $}}{}{}\_\discretionary {\unhbox \voidb@x \hbox {\relax \fontsize  {7}{8}\selectfont  $\DOTSB \leftarrow \joinrel  \rhook $}}{}{}centroid\discretionary {\unhbox \voidb@x \hbox {\relax \fontsize  {7}{8}\selectfont  $\DOTSB \leftarrow \joinrel  \rhook $}}{}{}\_\discretionary {\unhbox \voidb@x \hbox {\relax \fontsize  {7}{8}\selectfont  $\DOTSB \leftarrow \joinrel  \rhook $}}{}{}from\discretionary {\unhbox \voidb@x \hbox {\relax \fontsize  {7}{8}\selectfont  $\DOTSB \leftarrow \joinrel  \rhook $}}{}{}\_\discretionary {\unhbox \voidb@x \hbox {\relax \fontsize  {7}{8}\selectfont  $\DOTSB \leftarrow \joinrel  \rhook $}}{}{}probs}{138}{subsubsection.13.13.2.3}}
\newlabel{group__centroid__fold_ga98193ede06778a9ea966cc8fc43d0804}{{13.13.2.3}{138}{vrna\+\_\+centroid\+\_\+from\+\_\+probs}{subsubsection.13.13.2.3}{}}
\@setckpt{group__centroid__fold}{
\setcounter{page}{139}
\setcounter{equation}{0}
\setcounter{enumi}{2}
\setcounter{enumii}{0}
\setcounter{enumiii}{0}
\setcounter{enumiv}{0}
\setcounter{footnote}{0}
\setcounter{mpfootnote}{0}
\setcounter{part}{0}
\setcounter{chapter}{13}
\setcounter{section}{13}
\setcounter{subsection}{2}
\setcounter{subsubsection}{3}
\setcounter{paragraph}{0}
\setcounter{subparagraph}{0}
\setcounter{figure}{0}
\setcounter{table}{0}
\setcounter{float@type}{4}
\setcounter{PWSTtable}{109}
\setcounter{NAT@ctr}{0}
\setcounter{lofdepth}{1}
\setcounter{lotdepth}{1}
\setcounter{parentequation}{0}
\setcounter{Item}{12}
\setcounter{Hfootnote}{0}
\setcounter{bookmark@seq@number}{298}
\setcounter{section@level}{3}
}
