\relax 
\providecommand\hyper@newdestlabel[2]{}
\@writefile{toc}{\contentsline {section}{\numberline {13.48}Various utilities for Sequence Alignments, and Comparative Structure Prediction}{276}{section.13.48}}
\newlabel{group__aln__utils}{{13.48}{276}{Various utilities for Sequence Alignments, and Comparative Structure Prediction}{section.13.48}{}}
\newlabel{group__aln__utils_ga6660dfca23debee7306e0cd53341263f}{{13.48}{276}{Typedefs}{section*.156}{}}
\@writefile{toc}{\contentsline {subsection}{\numberline {13.48.1}Detailed Description}{276}{subsection.13.48.1}}
\@writefile{toc}{\contentsline {subsection}{\numberline {13.48.2}Data Structure Documentation}{276}{subsection.13.48.2}}
\newlabel{structvrna__pinfo__s}{{13.48.2}{276}{Data Structure Documentation}{subsection.13.48.2}{}}
\@writefile{toc}{\contentsline {subsubsection}{\numberline {13.48.2.1}struct vrna\discretionary {\unhbox \voidb@x \hbox {\relax \fontsize  {7}{8}\selectfont  $\DOTSB \leftarrow \joinrel  \rhook $}}{}{}\_\discretionary {\unhbox \voidb@x \hbox {\relax \fontsize  {7}{8}\selectfont  $\DOTSB \leftarrow \joinrel  \rhook $}}{}{}pinfo\discretionary {\unhbox \voidb@x \hbox {\relax \fontsize  {7}{8}\selectfont  $\DOTSB \leftarrow \joinrel  \rhook $}}{}{}\_\discretionary {\unhbox \voidb@x \hbox {\relax \fontsize  {7}{8}\selectfont  $\DOTSB \leftarrow \joinrel  \rhook $}}{}{}s}{276}{subsubsection.13.48.2.1}}
\gdef \PWST@ccxlviii{1}
\newlabel{group__aln__utils_ab91db0a87ef8402dc151795ba5a64c6f}{{13.48.2.1}{277}{Data Fields}{section*.158}{}}
\newlabel{group__aln__utils_a4142e38d6ba127acccdf680300a88e1f}{{13.48.2.1}{277}{Data Fields}{section*.158}{}}
\newlabel{group__aln__utils_a71990eae41fa100db8b557e4512ec281}{{13.48.2.1}{277}{Data Fields}{section*.158}{}}
\newlabel{group__aln__utils_a5ab2a63f3da8e12c6d54d8e9dd9e3e73}{{13.48.2.1}{277}{Data Fields}{section*.158}{}}
\newlabel{group__aln__utils_aa5feac5559b36dcd7cb38111c45d444d}{{13.48.2.1}{277}{Data Fields}{section*.158}{}}
\newlabel{group__aln__utils_a0720ae74ce53802a759ee9f98e9c8c43}{{13.48.2.1}{277}{Data Fields}{section*.158}{}}
\@writefile{toc}{\contentsline {subsection}{\numberline {13.48.3}Typedef Documentation}{277}{subsection.13.48.3}}
\@writefile{toc}{\contentsline {subsubsection}{\numberline {13.48.3.1}pair\discretionary {\unhbox \voidb@x \hbox {\relax \fontsize  {7}{8}\selectfont  $\DOTSB \leftarrow \joinrel  \rhook $}}{}{}\_\discretionary {\unhbox \voidb@x \hbox {\relax \fontsize  {7}{8}\selectfont  $\DOTSB \leftarrow \joinrel  \rhook $}}{}{}info}{277}{subsubsection.13.48.3.1}}
\newlabel{group__aln__utils_ga7b61662a793ad0aa1ea38efc3a5baacc}{{13.48.3.1}{277}{pair\+\_\+info}{subsubsection.13.48.3.1}{}}
\@writefile{toc}{\contentsline {subsection}{\numberline {13.48.4}Function Documentation}{277}{subsection.13.48.4}}
\@writefile{toc}{\contentsline {subsubsection}{\numberline {13.48.4.1}vrna\discretionary {\unhbox \voidb@x \hbox {\relax \fontsize  {7}{8}\selectfont  $\DOTSB \leftarrow \joinrel  \rhook $}}{}{}\_\discretionary {\unhbox \voidb@x \hbox {\relax \fontsize  {7}{8}\selectfont  $\DOTSB \leftarrow \joinrel  \rhook $}}{}{}aln\discretionary {\unhbox \voidb@x \hbox {\relax \fontsize  {7}{8}\selectfont  $\DOTSB \leftarrow \joinrel  \rhook $}}{}{}\_\discretionary {\unhbox \voidb@x \hbox {\relax \fontsize  {7}{8}\selectfont  $\DOTSB \leftarrow \joinrel  \rhook $}}{}{}pinfo}{277}{subsubsection.13.48.4.1}}
\newlabel{group__aln__utils_gaf6421a1318586c59fea6a127ed9f65f3}{{13.48.4.1}{277}{vrna\+\_\+aln\+\_\+pinfo}{subsubsection.13.48.4.1}{}}
\@setckpt{group__aln__utils}{
\setcounter{page}{278}
\setcounter{equation}{0}
\setcounter{enumi}{2}
\setcounter{enumii}{0}
\setcounter{enumiii}{0}
\setcounter{enumiv}{0}
\setcounter{footnote}{0}
\setcounter{mpfootnote}{0}
\setcounter{part}{0}
\setcounter{chapter}{13}
\setcounter{section}{48}
\setcounter{subsection}{4}
\setcounter{subsubsection}{1}
\setcounter{paragraph}{0}
\setcounter{subparagraph}{0}
\setcounter{figure}{0}
\setcounter{table}{0}
\setcounter{float@type}{4}
\setcounter{PWSTtable}{248}
\setcounter{NAT@ctr}{0}
\setcounter{lofdepth}{1}
\setcounter{lotdepth}{1}
\setcounter{parentequation}{0}
\setcounter{Item}{12}
\setcounter{Hfootnote}{0}
\setcounter{bookmark@seq@number}{672}
\setcounter{section@level}{3}
}
