\relax 
\providecommand\hyper@newdestlabel[2]{}
\@writefile{toc}{\contentsline {section}{\numberline {13.9}Utilities}{114}{section.13.9}}
\newlabel{group__utils}{{13.9}{114}{Utilities}{section.13.9}{}}
\newlabel{group__utils_gad403c9ea58f1836689404c2931419c8c}{{13.9}{114}{Macros}{section*.48}{}}
\newlabel{group__utils_ga72f3c6ca5c83d2b9baed2922d19c403d}{{13.9}{115}{Macros}{section*.48}{}}
\newlabel{group__utils_ga8e3241b321c9c1a78a69e59e2e019a71}{{13.9}{115}{Macros}{section*.48}{}}
\newlabel{group__utils_ga086742158293217a46ae2f71bb296937}{{13.9}{115}{Macros}{section*.48}{}}
\newlabel{group__utils_ga7a2e8c50a0c7ce82e60da1016e1367fd}{{13.9}{115}{Macros}{section*.48}{}}
\newlabel{group__utils_ga0de536599b881c787b0943a2671da476}{{13.9}{115}{Macros}{section*.48}{}}
\newlabel{group__utils_gab4db885222b3b69608310d7c7e63e286}{{13.9}{115}{Macros}{section*.48}{}}
\newlabel{group__utils_ga305474b93ccb79ae4c7754016a8ddd84}{{13.9}{115}{Macros}{section*.48}{}}
\newlabel{group__utils_ga0f6311f11bed1842e3a527ab27b294c6}{{13.9}{115}{Macros}{section*.48}{}}
\newlabel{group__utils_gaf2062e0eeefffd3ed639af460b3d4fab}{{13.9}{115}{Macros}{section*.48}{}}
\newlabel{group__utils_gae0b9cd0ce090bd69b951aa73e8fa4f7d}{{13.9}{115}{Macros}{section*.48}{}}
\newlabel{group__utils_ga33297b3679c713b0c4d897cd0fe3b122}{{13.9}{115}{Macros}{section*.48}{}}
\newlabel{group__utils_ga721b8d5f3abef17f10293f1f7f8c958e}{{13.9}{115}{Macros}{section*.48}{}}
\newlabel{group__utils_ga8d577123d2e66d2b7d0bf9af6e172b93}{{13.9}{115}{Macros}{section*.48}{}}
\newlabel{group__utils_ga0ad1f40ea316e5c5918695c35613027a}{{13.9}{115}{Functions}{section*.49}{}}
\newlabel{group__utils_ga4382a56d2fee9ed738364b99329edc7c}{{13.9}{116}{Functions}{section*.49}{}}
\@writefile{toc}{\contentsline {subsection}{\numberline {13.9.1}Detailed Description}{116}{subsection.13.9.1}}
\@writefile{toc}{\contentsline {subsection}{\numberline {13.9.2}Macro Definition Documentation}{116}{subsection.13.9.2}}
\@writefile{toc}{\contentsline {subsubsection}{\numberline {13.9.2.1}V\discretionary {\unhbox \voidb@x \hbox {\relax \fontsize  {7}{8}\selectfont  $\DOTSB \leftarrow \joinrel  \rhook $}}{}{}R\discretionary {\unhbox \voidb@x \hbox {\relax \fontsize  {7}{8}\selectfont  $\DOTSB \leftarrow \joinrel  \rhook $}}{}{}N\discretionary {\unhbox \voidb@x \hbox {\relax \fontsize  {7}{8}\selectfont  $\DOTSB \leftarrow \joinrel  \rhook $}}{}{}A\discretionary {\unhbox \voidb@x \hbox {\relax \fontsize  {7}{8}\selectfont  $\DOTSB \leftarrow \joinrel  \rhook $}}{}{}\_\discretionary {\unhbox \voidb@x \hbox {\relax \fontsize  {7}{8}\selectfont  $\DOTSB \leftarrow \joinrel  \rhook $}}{}{}\discretionary {\unhbox \voidb@x \hbox {\relax \fontsize  {7}{8}\selectfont  $\DOTSB \leftarrow \joinrel  \rhook $}}{}{}I\discretionary {\unhbox \voidb@x \hbox {\relax \fontsize  {7}{8}\selectfont  $\DOTSB \leftarrow \joinrel  \rhook $}}{}{}N\discretionary {\unhbox \voidb@x \hbox {\relax \fontsize  {7}{8}\selectfont  $\DOTSB \leftarrow \joinrel  \rhook $}}{}{}P\discretionary {\unhbox \voidb@x \hbox {\relax \fontsize  {7}{8}\selectfont  $\DOTSB \leftarrow \joinrel  \rhook $}}{}{}U\discretionary {\unhbox \voidb@x \hbox {\relax \fontsize  {7}{8}\selectfont  $\DOTSB \leftarrow \joinrel  \rhook $}}{}{}T\discretionary {\unhbox \voidb@x \hbox {\relax \fontsize  {7}{8}\selectfont  $\DOTSB \leftarrow \joinrel  \rhook $}}{}{}\_\discretionary {\unhbox \voidb@x \hbox {\relax \fontsize  {7}{8}\selectfont  $\DOTSB \leftarrow \joinrel  \rhook $}}{}{}\discretionary {\unhbox \voidb@x \hbox {\relax \fontsize  {7}{8}\selectfont  $\DOTSB \leftarrow \joinrel  \rhook $}}{}{}F\discretionary {\unhbox \voidb@x \hbox {\relax \fontsize  {7}{8}\selectfont  $\DOTSB \leftarrow \joinrel  \rhook $}}{}{}A\discretionary {\unhbox \voidb@x \hbox {\relax \fontsize  {7}{8}\selectfont  $\DOTSB \leftarrow \joinrel  \rhook $}}{}{}S\discretionary {\unhbox \voidb@x \hbox {\relax \fontsize  {7}{8}\selectfont  $\DOTSB \leftarrow \joinrel  \rhook $}}{}{}T\discretionary {\unhbox \voidb@x \hbox {\relax \fontsize  {7}{8}\selectfont  $\DOTSB \leftarrow \joinrel  \rhook $}}{}{}A\discretionary {\unhbox \voidb@x \hbox {\relax \fontsize  {7}{8}\selectfont  $\DOTSB \leftarrow \joinrel  \rhook $}}{}{}\_\discretionary {\unhbox \voidb@x \hbox {\relax \fontsize  {7}{8}\selectfont  $\DOTSB \leftarrow \joinrel  \rhook $}}{}{}\discretionary {\unhbox \voidb@x \hbox {\relax \fontsize  {7}{8}\selectfont  $\DOTSB \leftarrow \joinrel  \rhook $}}{}{}H\discretionary {\unhbox \voidb@x \hbox {\relax \fontsize  {7}{8}\selectfont  $\DOTSB \leftarrow \joinrel  \rhook $}}{}{}E\discretionary {\unhbox \voidb@x \hbox {\relax \fontsize  {7}{8}\selectfont  $\DOTSB \leftarrow \joinrel  \rhook $}}{}{}A\discretionary {\unhbox \voidb@x \hbox {\relax \fontsize  {7}{8}\selectfont  $\DOTSB \leftarrow \joinrel  \rhook $}}{}{}D\discretionary {\unhbox \voidb@x \hbox {\relax \fontsize  {7}{8}\selectfont  $\DOTSB \leftarrow \joinrel  \rhook $}}{}{}E\discretionary {\unhbox \voidb@x \hbox {\relax \fontsize  {7}{8}\selectfont  $\DOTSB \leftarrow \joinrel  \rhook $}}{}{}R}{116}{subsubsection.13.9.2.1}}
\newlabel{group__utils_ga2f0d8069e93d3ac54d9320d6bdb8e7e7}{{13.9.2.1}{116}{V\+R\+N\+A\+\_\+\+I\+N\+P\+U\+T\+\_\+\+F\+A\+S\+T\+A\+\_\+\+H\+E\+A\+D\+E\+R}{subsubsection.13.9.2.1}{}}
\@writefile{toc}{\contentsline {subsubsection}{\numberline {13.9.2.2}V\discretionary {\unhbox \voidb@x \hbox {\relax \fontsize  {7}{8}\selectfont  $\DOTSB \leftarrow \joinrel  \rhook $}}{}{}R\discretionary {\unhbox \voidb@x \hbox {\relax \fontsize  {7}{8}\selectfont  $\DOTSB \leftarrow \joinrel  \rhook $}}{}{}N\discretionary {\unhbox \voidb@x \hbox {\relax \fontsize  {7}{8}\selectfont  $\DOTSB \leftarrow \joinrel  \rhook $}}{}{}A\discretionary {\unhbox \voidb@x \hbox {\relax \fontsize  {7}{8}\selectfont  $\DOTSB \leftarrow \joinrel  \rhook $}}{}{}\_\discretionary {\unhbox \voidb@x \hbox {\relax \fontsize  {7}{8}\selectfont  $\DOTSB \leftarrow \joinrel  \rhook $}}{}{}\discretionary {\unhbox \voidb@x \hbox {\relax \fontsize  {7}{8}\selectfont  $\DOTSB \leftarrow \joinrel  \rhook $}}{}{}I\discretionary {\unhbox \voidb@x \hbox {\relax \fontsize  {7}{8}\selectfont  $\DOTSB \leftarrow \joinrel  \rhook $}}{}{}N\discretionary {\unhbox \voidb@x \hbox {\relax \fontsize  {7}{8}\selectfont  $\DOTSB \leftarrow \joinrel  \rhook $}}{}{}P\discretionary {\unhbox \voidb@x \hbox {\relax \fontsize  {7}{8}\selectfont  $\DOTSB \leftarrow \joinrel  \rhook $}}{}{}U\discretionary {\unhbox \voidb@x \hbox {\relax \fontsize  {7}{8}\selectfont  $\DOTSB \leftarrow \joinrel  \rhook $}}{}{}T\discretionary {\unhbox \voidb@x \hbox {\relax \fontsize  {7}{8}\selectfont  $\DOTSB \leftarrow \joinrel  \rhook $}}{}{}\_\discretionary {\unhbox \voidb@x \hbox {\relax \fontsize  {7}{8}\selectfont  $\DOTSB \leftarrow \joinrel  \rhook $}}{}{}\discretionary {\unhbox \voidb@x \hbox {\relax \fontsize  {7}{8}\selectfont  $\DOTSB \leftarrow \joinrel  \rhook $}}{}{}C\discretionary {\unhbox \voidb@x \hbox {\relax \fontsize  {7}{8}\selectfont  $\DOTSB \leftarrow \joinrel  \rhook $}}{}{}O\discretionary {\unhbox \voidb@x \hbox {\relax \fontsize  {7}{8}\selectfont  $\DOTSB \leftarrow \joinrel  \rhook $}}{}{}N\discretionary {\unhbox \voidb@x \hbox {\relax \fontsize  {7}{8}\selectfont  $\DOTSB \leftarrow \joinrel  \rhook $}}{}{}S\discretionary {\unhbox \voidb@x \hbox {\relax \fontsize  {7}{8}\selectfont  $\DOTSB \leftarrow \joinrel  \rhook $}}{}{}T\discretionary {\unhbox \voidb@x \hbox {\relax \fontsize  {7}{8}\selectfont  $\DOTSB \leftarrow \joinrel  \rhook $}}{}{}R\discretionary {\unhbox \voidb@x \hbox {\relax \fontsize  {7}{8}\selectfont  $\DOTSB \leftarrow \joinrel  \rhook $}}{}{}A\discretionary {\unhbox \voidb@x \hbox {\relax \fontsize  {7}{8}\selectfont  $\DOTSB \leftarrow \joinrel  \rhook $}}{}{}I\discretionary {\unhbox \voidb@x \hbox {\relax \fontsize  {7}{8}\selectfont  $\DOTSB \leftarrow \joinrel  \rhook $}}{}{}N\discretionary {\unhbox \voidb@x \hbox {\relax \fontsize  {7}{8}\selectfont  $\DOTSB \leftarrow \joinrel  \rhook $}}{}{}T}{116}{subsubsection.13.9.2.2}}
\newlabel{group__utils_gac08a9df45b9721b97a47dbfe7a6e5f85}{{13.9.2.2}{116}{V\+R\+N\+A\+\_\+\+I\+N\+P\+U\+T\+\_\+\+C\+O\+N\+S\+T\+R\+A\+I\+N\+T}{subsubsection.13.9.2.2}{}}
\@writefile{toc}{\contentsline {subsubsection}{\numberline {13.9.2.3}V\discretionary {\unhbox \voidb@x \hbox {\relax \fontsize  {7}{8}\selectfont  $\DOTSB \leftarrow \joinrel  \rhook $}}{}{}R\discretionary {\unhbox \voidb@x \hbox {\relax \fontsize  {7}{8}\selectfont  $\DOTSB \leftarrow \joinrel  \rhook $}}{}{}N\discretionary {\unhbox \voidb@x \hbox {\relax \fontsize  {7}{8}\selectfont  $\DOTSB \leftarrow \joinrel  \rhook $}}{}{}A\discretionary {\unhbox \voidb@x \hbox {\relax \fontsize  {7}{8}\selectfont  $\DOTSB \leftarrow \joinrel  \rhook $}}{}{}\_\discretionary {\unhbox \voidb@x \hbox {\relax \fontsize  {7}{8}\selectfont  $\DOTSB \leftarrow \joinrel  \rhook $}}{}{}\discretionary {\unhbox \voidb@x \hbox {\relax \fontsize  {7}{8}\selectfont  $\DOTSB \leftarrow \joinrel  \rhook $}}{}{}O\discretionary {\unhbox \voidb@x \hbox {\relax \fontsize  {7}{8}\selectfont  $\DOTSB \leftarrow \joinrel  \rhook $}}{}{}P\discretionary {\unhbox \voidb@x \hbox {\relax \fontsize  {7}{8}\selectfont  $\DOTSB \leftarrow \joinrel  \rhook $}}{}{}T\discretionary {\unhbox \voidb@x \hbox {\relax \fontsize  {7}{8}\selectfont  $\DOTSB \leftarrow \joinrel  \rhook $}}{}{}I\discretionary {\unhbox \voidb@x \hbox {\relax \fontsize  {7}{8}\selectfont  $\DOTSB \leftarrow \joinrel  \rhook $}}{}{}O\discretionary {\unhbox \voidb@x \hbox {\relax \fontsize  {7}{8}\selectfont  $\DOTSB \leftarrow \joinrel  \rhook $}}{}{}N\discretionary {\unhbox \voidb@x \hbox {\relax \fontsize  {7}{8}\selectfont  $\DOTSB \leftarrow \joinrel  \rhook $}}{}{}\_\discretionary {\unhbox \voidb@x \hbox {\relax \fontsize  {7}{8}\selectfont  $\DOTSB \leftarrow \joinrel  \rhook $}}{}{}\discretionary {\unhbox \voidb@x \hbox {\relax \fontsize  {7}{8}\selectfont  $\DOTSB \leftarrow \joinrel  \rhook $}}{}{}M\discretionary {\unhbox \voidb@x \hbox {\relax \fontsize  {7}{8}\selectfont  $\DOTSB \leftarrow \joinrel  \rhook $}}{}{}U\discretionary {\unhbox \voidb@x \hbox {\relax \fontsize  {7}{8}\selectfont  $\DOTSB \leftarrow \joinrel  \rhook $}}{}{}L\discretionary {\unhbox \voidb@x \hbox {\relax \fontsize  {7}{8}\selectfont  $\DOTSB \leftarrow \joinrel  \rhook $}}{}{}T\discretionary {\unhbox \voidb@x \hbox {\relax \fontsize  {7}{8}\selectfont  $\DOTSB \leftarrow \joinrel  \rhook $}}{}{}I\discretionary {\unhbox \voidb@x \hbox {\relax \fontsize  {7}{8}\selectfont  $\DOTSB \leftarrow \joinrel  \rhook $}}{}{}L\discretionary {\unhbox \voidb@x \hbox {\relax \fontsize  {7}{8}\selectfont  $\DOTSB \leftarrow \joinrel  \rhook $}}{}{}I\discretionary {\unhbox \voidb@x \hbox {\relax \fontsize  {7}{8}\selectfont  $\DOTSB \leftarrow \joinrel  \rhook $}}{}{}N\discretionary {\unhbox \voidb@x \hbox {\relax \fontsize  {7}{8}\selectfont  $\DOTSB \leftarrow \joinrel  \rhook $}}{}{}E}{116}{subsubsection.13.9.2.3}}
\newlabel{group__utils_gabec89c09874528c6cb73140a4c3d86d7}{{13.9.2.3}{116}{V\+R\+N\+A\+\_\+\+O\+P\+T\+I\+O\+N\+\_\+\+M\+U\+L\+T\+I\+L\+I\+N\+E}{subsubsection.13.9.2.3}{}}
\gdef \PWST@lxxxii{1}
\gdef \PWST@lxxxiii{1}
\gdef \PWST@lxxxiv{1}
\@writefile{toc}{\contentsline {subsection}{\numberline {13.9.3}Function Documentation}{117}{subsection.13.9.3}}
\@writefile{toc}{\contentsline {subsubsection}{\numberline {13.9.3.1}vrna\discretionary {\unhbox \voidb@x \hbox {\relax \fontsize  {7}{8}\selectfont  $\DOTSB \leftarrow \joinrel  \rhook $}}{}{}\_\discretionary {\unhbox \voidb@x \hbox {\relax \fontsize  {7}{8}\selectfont  $\DOTSB \leftarrow \joinrel  \rhook $}}{}{}alloc}{117}{subsubsection.13.9.3.1}}
\newlabel{group__utils_gaf37a0979367c977edfb9da6614eebe99}{{13.9.3.1}{117}{vrna\+\_\+alloc}{subsubsection.13.9.3.1}{}}
\@writefile{toc}{\contentsline {subsubsection}{\numberline {13.9.3.2}vrna\discretionary {\unhbox \voidb@x \hbox {\relax \fontsize  {7}{8}\selectfont  $\DOTSB \leftarrow \joinrel  \rhook $}}{}{}\_\discretionary {\unhbox \voidb@x \hbox {\relax \fontsize  {7}{8}\selectfont  $\DOTSB \leftarrow \joinrel  \rhook $}}{}{}realloc}{117}{subsubsection.13.9.3.2}}
\newlabel{group__utils_ga27f4719a66c6f90d1cca3d1e6e696c6a}{{13.9.3.2}{117}{vrna\+\_\+realloc}{subsubsection.13.9.3.2}{}}
\@writefile{toc}{\contentsline {subsubsection}{\numberline {13.9.3.3}vrna\discretionary {\unhbox \voidb@x \hbox {\relax \fontsize  {7}{8}\selectfont  $\DOTSB \leftarrow \joinrel  \rhook $}}{}{}\_\discretionary {\unhbox \voidb@x \hbox {\relax \fontsize  {7}{8}\selectfont  $\DOTSB \leftarrow \joinrel  \rhook $}}{}{}message\discretionary {\unhbox \voidb@x \hbox {\relax \fontsize  {7}{8}\selectfont  $\DOTSB \leftarrow \joinrel  \rhook $}}{}{}\_\discretionary {\unhbox \voidb@x \hbox {\relax \fontsize  {7}{8}\selectfont  $\DOTSB \leftarrow \joinrel  \rhook $}}{}{}error}{117}{subsubsection.13.9.3.3}}
\newlabel{group__utils_gabb76f8f8dbd652fa4a24037cf4524373}{{13.9.3.3}{117}{vrna\+\_\+message\+\_\+error}{subsubsection.13.9.3.3}{}}
\@writefile{toc}{\contentsline {subsubsection}{\numberline {13.9.3.4}vrna\discretionary {\unhbox \voidb@x \hbox {\relax \fontsize  {7}{8}\selectfont  $\DOTSB \leftarrow \joinrel  \rhook $}}{}{}\_\discretionary {\unhbox \voidb@x \hbox {\relax \fontsize  {7}{8}\selectfont  $\DOTSB \leftarrow \joinrel  \rhook $}}{}{}message\discretionary {\unhbox \voidb@x \hbox {\relax \fontsize  {7}{8}\selectfont  $\DOTSB \leftarrow \joinrel  \rhook $}}{}{}\_\discretionary {\unhbox \voidb@x \hbox {\relax \fontsize  {7}{8}\selectfont  $\DOTSB \leftarrow \joinrel  \rhook $}}{}{}warning}{117}{subsubsection.13.9.3.4}}
\newlabel{group__utils_gafe4072406bd287c6857763dd7d2fe1f1}{{13.9.3.4}{117}{vrna\+\_\+message\+\_\+warning}{subsubsection.13.9.3.4}{}}
\gdef \PWST@lxxxv{2}
\gdef \PWST@lxxxvi{1}
\@writefile{toc}{\contentsline {subsubsection}{\numberline {13.9.3.5}vrna\discretionary {\unhbox \voidb@x \hbox {\relax \fontsize  {7}{8}\selectfont  $\DOTSB \leftarrow \joinrel  \rhook $}}{}{}\_\discretionary {\unhbox \voidb@x \hbox {\relax \fontsize  {7}{8}\selectfont  $\DOTSB \leftarrow \joinrel  \rhook $}}{}{}urn}{118}{subsubsection.13.9.3.5}}
\newlabel{group__utils_ga384e256ebb295d04a14426179db0dd6e}{{13.9.3.5}{118}{vrna\+\_\+urn}{subsubsection.13.9.3.5}{}}
\@writefile{toc}{\contentsline {subsubsection}{\numberline {13.9.3.6}vrna\discretionary {\unhbox \voidb@x \hbox {\relax \fontsize  {7}{8}\selectfont  $\DOTSB \leftarrow \joinrel  \rhook $}}{}{}\_\discretionary {\unhbox \voidb@x \hbox {\relax \fontsize  {7}{8}\selectfont  $\DOTSB \leftarrow \joinrel  \rhook $}}{}{}int\discretionary {\unhbox \voidb@x \hbox {\relax \fontsize  {7}{8}\selectfont  $\DOTSB \leftarrow \joinrel  \rhook $}}{}{}\_\discretionary {\unhbox \voidb@x \hbox {\relax \fontsize  {7}{8}\selectfont  $\DOTSB \leftarrow \joinrel  \rhook $}}{}{}urn}{118}{subsubsection.13.9.3.6}}
\newlabel{group__utils_ga46111bb3747dbcf4609f0d40ae169ad9}{{13.9.3.6}{118}{vrna\+\_\+int\+\_\+urn}{subsubsection.13.9.3.6}{}}
\@writefile{toc}{\contentsline {subsubsection}{\numberline {13.9.3.7}vrna\discretionary {\unhbox \voidb@x \hbox {\relax \fontsize  {7}{8}\selectfont  $\DOTSB \leftarrow \joinrel  \rhook $}}{}{}\_\discretionary {\unhbox \voidb@x \hbox {\relax \fontsize  {7}{8}\selectfont  $\DOTSB \leftarrow \joinrel  \rhook $}}{}{}time\discretionary {\unhbox \voidb@x \hbox {\relax \fontsize  {7}{8}\selectfont  $\DOTSB \leftarrow \joinrel  \rhook $}}{}{}\_\discretionary {\unhbox \voidb@x \hbox {\relax \fontsize  {7}{8}\selectfont  $\DOTSB \leftarrow \joinrel  \rhook $}}{}{}stamp}{118}{subsubsection.13.9.3.7}}
\newlabel{group__utils_gad3bbe8d01afb1310609cb018d5290550}{{13.9.3.7}{118}{vrna\+\_\+time\+\_\+stamp}{subsubsection.13.9.3.7}{}}
\@writefile{toc}{\contentsline {subsubsection}{\numberline {13.9.3.8}get\discretionary {\unhbox \voidb@x \hbox {\relax \fontsize  {7}{8}\selectfont  $\DOTSB \leftarrow \joinrel  \rhook $}}{}{}\_\discretionary {\unhbox \voidb@x \hbox {\relax \fontsize  {7}{8}\selectfont  $\DOTSB \leftarrow \joinrel  \rhook $}}{}{}line}{119}{subsubsection.13.9.3.8}}
\newlabel{group__utils_gabe51806d14cff0789a8c1df7dbc45b71}{{13.9.3.8}{119}{get\+\_\+line}{subsubsection.13.9.3.8}{}}
\gdef \PWST@lxxxvii{1}
\gdef \PWST@lxxxviii{1}
\gdef \PWST@lxxxix{1}
\@writefile{toc}{\contentsline {subsubsection}{\numberline {13.9.3.9}get\discretionary {\unhbox \voidb@x \hbox {\relax \fontsize  {7}{8}\selectfont  $\DOTSB \leftarrow \joinrel  \rhook $}}{}{}\_\discretionary {\unhbox \voidb@x \hbox {\relax \fontsize  {7}{8}\selectfont  $\DOTSB \leftarrow \joinrel  \rhook $}}{}{}input\discretionary {\unhbox \voidb@x \hbox {\relax \fontsize  {7}{8}\selectfont  $\DOTSB \leftarrow \joinrel  \rhook $}}{}{}\_\discretionary {\unhbox \voidb@x \hbox {\relax \fontsize  {7}{8}\selectfont  $\DOTSB \leftarrow \joinrel  \rhook $}}{}{}line}{120}{subsubsection.13.9.3.9}}
\newlabel{group__utils_ga8ef1835eb83f542396f59f0b205965e5}{{13.9.3.9}{120}{get\+\_\+input\+\_\+line}{subsubsection.13.9.3.9}{}}
\@writefile{toc}{\contentsline {subsubsection}{\numberline {13.9.3.10}vrna\discretionary {\unhbox \voidb@x \hbox {\relax \fontsize  {7}{8}\selectfont  $\DOTSB \leftarrow \joinrel  \rhook $}}{}{}\_\discretionary {\unhbox \voidb@x \hbox {\relax \fontsize  {7}{8}\selectfont  $\DOTSB \leftarrow \joinrel  \rhook $}}{}{}message\discretionary {\unhbox \voidb@x \hbox {\relax \fontsize  {7}{8}\selectfont  $\DOTSB \leftarrow \joinrel  \rhook $}}{}{}\_\discretionary {\unhbox \voidb@x \hbox {\relax \fontsize  {7}{8}\selectfont  $\DOTSB \leftarrow \joinrel  \rhook $}}{}{}input\discretionary {\unhbox \voidb@x \hbox {\relax \fontsize  {7}{8}\selectfont  $\DOTSB \leftarrow \joinrel  \rhook $}}{}{}\_\discretionary {\unhbox \voidb@x \hbox {\relax \fontsize  {7}{8}\selectfont  $\DOTSB \leftarrow \joinrel  \rhook $}}{}{}seq\discretionary {\unhbox \voidb@x \hbox {\relax \fontsize  {7}{8}\selectfont  $\DOTSB \leftarrow \joinrel  \rhook $}}{}{}\_\discretionary {\unhbox \voidb@x \hbox {\relax \fontsize  {7}{8}\selectfont  $\DOTSB \leftarrow \joinrel  \rhook $}}{}{}simple}{120}{subsubsection.13.9.3.10}}
\newlabel{group__utils_gaee1dd652ca5b9e56b096963a1576f73b}{{13.9.3.10}{120}{vrna\+\_\+message\+\_\+input\+\_\+seq\+\_\+simple}{subsubsection.13.9.3.10}{}}
\@writefile{toc}{\contentsline {subsubsection}{\numberline {13.9.3.11}vrna\discretionary {\unhbox \voidb@x \hbox {\relax \fontsize  {7}{8}\selectfont  $\DOTSB \leftarrow \joinrel  \rhook $}}{}{}\_\discretionary {\unhbox \voidb@x \hbox {\relax \fontsize  {7}{8}\selectfont  $\DOTSB \leftarrow \joinrel  \rhook $}}{}{}message\discretionary {\unhbox \voidb@x \hbox {\relax \fontsize  {7}{8}\selectfont  $\DOTSB \leftarrow \joinrel  \rhook $}}{}{}\_\discretionary {\unhbox \voidb@x \hbox {\relax \fontsize  {7}{8}\selectfont  $\DOTSB \leftarrow \joinrel  \rhook $}}{}{}input\discretionary {\unhbox \voidb@x \hbox {\relax \fontsize  {7}{8}\selectfont  $\DOTSB \leftarrow \joinrel  \rhook $}}{}{}\_\discretionary {\unhbox \voidb@x \hbox {\relax \fontsize  {7}{8}\selectfont  $\DOTSB \leftarrow \joinrel  \rhook $}}{}{}seq}{120}{subsubsection.13.9.3.11}}
\newlabel{group__utils_gaf4d194d558b0c975f269de01dea52460}{{13.9.3.11}{120}{vrna\+\_\+message\+\_\+input\+\_\+seq}{subsubsection.13.9.3.11}{}}
\@writefile{toc}{\contentsline {subsubsection}{\numberline {13.9.3.12}vrna\discretionary {\unhbox \voidb@x \hbox {\relax \fontsize  {7}{8}\selectfont  $\DOTSB \leftarrow \joinrel  \rhook $}}{}{}\_\discretionary {\unhbox \voidb@x \hbox {\relax \fontsize  {7}{8}\selectfont  $\DOTSB \leftarrow \joinrel  \rhook $}}{}{}idx\discretionary {\unhbox \voidb@x \hbox {\relax \fontsize  {7}{8}\selectfont  $\DOTSB \leftarrow \joinrel  \rhook $}}{}{}\_\discretionary {\unhbox \voidb@x \hbox {\relax \fontsize  {7}{8}\selectfont  $\DOTSB \leftarrow \joinrel  \rhook $}}{}{}row\discretionary {\unhbox \voidb@x \hbox {\relax \fontsize  {7}{8}\selectfont  $\DOTSB \leftarrow \joinrel  \rhook $}}{}{}\_\discretionary {\unhbox \voidb@x \hbox {\relax \fontsize  {7}{8}\selectfont  $\DOTSB \leftarrow \joinrel  \rhook $}}{}{}wise}{120}{subsubsection.13.9.3.12}}
\newlabel{group__utils_ga70b180e9ea764218a82647a1cd347445}{{13.9.3.12}{120}{vrna\+\_\+idx\+\_\+row\+\_\+wise}{subsubsection.13.9.3.12}{}}
\gdef \PWST@xc{1}
\gdef \PWST@xci{1}
\@writefile{toc}{\contentsline {subsubsection}{\numberline {13.9.3.13}vrna\discretionary {\unhbox \voidb@x \hbox {\relax \fontsize  {7}{8}\selectfont  $\DOTSB \leftarrow \joinrel  \rhook $}}{}{}\_\discretionary {\unhbox \voidb@x \hbox {\relax \fontsize  {7}{8}\selectfont  $\DOTSB \leftarrow \joinrel  \rhook $}}{}{}idx\discretionary {\unhbox \voidb@x \hbox {\relax \fontsize  {7}{8}\selectfont  $\DOTSB \leftarrow \joinrel  \rhook $}}{}{}\_\discretionary {\unhbox \voidb@x \hbox {\relax \fontsize  {7}{8}\selectfont  $\DOTSB \leftarrow \joinrel  \rhook $}}{}{}col\discretionary {\unhbox \voidb@x \hbox {\relax \fontsize  {7}{8}\selectfont  $\DOTSB \leftarrow \joinrel  \rhook $}}{}{}\_\discretionary {\unhbox \voidb@x \hbox {\relax \fontsize  {7}{8}\selectfont  $\DOTSB \leftarrow \joinrel  \rhook $}}{}{}wise}{121}{subsubsection.13.9.3.13}}
\newlabel{group__utils_ga89ebc69c52fa0c78c9e1974b0017746b}{{13.9.3.13}{121}{vrna\+\_\+idx\+\_\+col\+\_\+wise}{subsubsection.13.9.3.13}{}}
\@writefile{toc}{\contentsline {subsubsection}{\numberline {13.9.3.14}vrna\discretionary {\unhbox \voidb@x \hbox {\relax \fontsize  {7}{8}\selectfont  $\DOTSB \leftarrow \joinrel  \rhook $}}{}{}\_\discretionary {\unhbox \voidb@x \hbox {\relax \fontsize  {7}{8}\selectfont  $\DOTSB \leftarrow \joinrel  \rhook $}}{}{}ptypes}{121}{subsubsection.13.9.3.14}}
\newlabel{group__utils_ga51a9e86a5f731f5f2f5584ee67cee4a8}{{13.9.3.14}{121}{vrna\+\_\+ptypes}{subsubsection.13.9.3.14}{}}
\@writefile{toc}{\contentsline {subsection}{\numberline {13.9.4}Variable Documentation}{122}{subsection.13.9.4}}
\@writefile{toc}{\contentsline {subsubsection}{\numberline {13.9.4.1}xsubi}{122}{subsubsection.13.9.4.1}}
\newlabel{group__utils_gaf9a866c8417afda7368bbac939ab3c47}{{13.9.4.1}{122}{xsubi}{subsubsection.13.9.4.1}{}}
\@setckpt{group__utils}{
\setcounter{page}{123}
\setcounter{equation}{0}
\setcounter{enumi}{2}
\setcounter{enumii}{0}
\setcounter{enumiii}{0}
\setcounter{enumiv}{0}
\setcounter{footnote}{0}
\setcounter{mpfootnote}{0}
\setcounter{part}{0}
\setcounter{chapter}{13}
\setcounter{section}{9}
\setcounter{subsection}{4}
\setcounter{subsubsection}{1}
\setcounter{paragraph}{0}
\setcounter{subparagraph}{0}
\setcounter{figure}{0}
\setcounter{table}{0}
\setcounter{float@type}{4}
\setcounter{PWSTtable}{91}
\setcounter{NAT@ctr}{0}
\setcounter{lofdepth}{1}
\setcounter{lotdepth}{1}
\setcounter{parentequation}{0}
\setcounter{Item}{12}
\setcounter{Hfootnote}{0}
\setcounter{bookmark@seq@number}{266}
\setcounter{section@level}{3}
}
