\relax 
\providecommand\hyper@newdestlabel[2]{}
\gdef \PWST@vi{1}
\@writefile{toc}{\contentsline {section}{\numberline {13.2}Inverse Secondary Structure Prediction}{46}{section.13.2}}
\newlabel{group__inverse__fold}{{13.2}{46}{Inverse Secondary Structure Prediction}{section.13.2}{}}
\newlabel{group__inverse__fold_ga8f791e7740a5a28b9f6fafb4e60301d9}{{13.2}{46}{Variables}{section*.15}{}}
\@writefile{toc}{\contentsline {subsection}{\numberline {13.2.1}Detailed Description}{46}{subsection.13.2.1}}
\@writefile{toc}{\contentsline {subsection}{\numberline {13.2.2}Function Documentation}{46}{subsection.13.2.2}}
\@writefile{toc}{\contentsline {subsubsection}{\numberline {13.2.2.1}inverse\discretionary {\unhbox \voidb@x \hbox {\relax \fontsize  {7}{8}\selectfont  $\DOTSB \leftarrow \joinrel  \rhook $}}{}{}\_\discretionary {\unhbox \voidb@x \hbox {\relax \fontsize  {7}{8}\selectfont  $\DOTSB \leftarrow \joinrel  \rhook $}}{}{}fold}{46}{subsubsection.13.2.2.1}}
\newlabel{group__inverse__fold_ga7af026de55d4babad879f2c92559cbbc}{{13.2.2.1}{46}{inverse\+\_\+fold}{subsubsection.13.2.2.1}{}}
\gdef \PWST@vii{1}
\@writefile{toc}{\contentsline {subsubsection}{\numberline {13.2.2.2}inverse\discretionary {\unhbox \voidb@x \hbox {\relax \fontsize  {7}{8}\selectfont  $\DOTSB \leftarrow \joinrel  \rhook $}}{}{}\_\discretionary {\unhbox \voidb@x \hbox {\relax \fontsize  {7}{8}\selectfont  $\DOTSB \leftarrow \joinrel  \rhook $}}{}{}pf\discretionary {\unhbox \voidb@x \hbox {\relax \fontsize  {7}{8}\selectfont  $\DOTSB \leftarrow \joinrel  \rhook $}}{}{}\_\discretionary {\unhbox \voidb@x \hbox {\relax \fontsize  {7}{8}\selectfont  $\DOTSB \leftarrow \joinrel  \rhook $}}{}{}fold}{47}{subsubsection.13.2.2.2}}
\newlabel{group__inverse__fold_gaeef52ecbf2a2450ad585a344f9826806}{{13.2.2.2}{47}{inverse\+\_\+pf\+\_\+fold}{subsubsection.13.2.2.2}{}}
\@writefile{toc}{\contentsline {subsection}{\numberline {13.2.3}Variable Documentation}{47}{subsection.13.2.3}}
\@writefile{toc}{\contentsline {subsubsection}{\numberline {13.2.3.1}final\discretionary {\unhbox \voidb@x \hbox {\relax \fontsize  {7}{8}\selectfont  $\DOTSB \leftarrow \joinrel  \rhook $}}{}{}\_\discretionary {\unhbox \voidb@x \hbox {\relax \fontsize  {7}{8}\selectfont  $\DOTSB \leftarrow \joinrel  \rhook $}}{}{}cost}{47}{subsubsection.13.2.3.1}}
\newlabel{group__inverse__fold_ga7f17d3b169af048d32bb185039a9c09c}{{13.2.3.1}{47}{final\+\_\+cost}{subsubsection.13.2.3.1}{}}
\@writefile{toc}{\contentsline {subsubsection}{\numberline {13.2.3.2}give\discretionary {\unhbox \voidb@x \hbox {\relax \fontsize  {7}{8}\selectfont  $\DOTSB \leftarrow \joinrel  \rhook $}}{}{}\_\discretionary {\unhbox \voidb@x \hbox {\relax \fontsize  {7}{8}\selectfont  $\DOTSB \leftarrow \joinrel  \rhook $}}{}{}up}{47}{subsubsection.13.2.3.2}}
\newlabel{group__inverse__fold_ga7ec4ba51f86e1717a1e174264e4a75ce}{{13.2.3.2}{47}{give\+\_\+up}{subsubsection.13.2.3.2}{}}
\@writefile{toc}{\contentsline {subsubsection}{\numberline {13.2.3.3}inv\discretionary {\unhbox \voidb@x \hbox {\relax \fontsize  {7}{8}\selectfont  $\DOTSB \leftarrow \joinrel  \rhook $}}{}{}\_\discretionary {\unhbox \voidb@x \hbox {\relax \fontsize  {7}{8}\selectfont  $\DOTSB \leftarrow \joinrel  \rhook $}}{}{}verbose}{47}{subsubsection.13.2.3.3}}
\newlabel{group__inverse__fold_gafcfc65fba01b9cca5946726ed9057a63}{{13.2.3.3}{47}{inv\+\_\+verbose}{subsubsection.13.2.3.3}{}}
\@setckpt{group__inverse__fold}{
\setcounter{page}{48}
\setcounter{equation}{0}
\setcounter{enumi}{10}
\setcounter{enumii}{0}
\setcounter{enumiii}{0}
\setcounter{enumiv}{0}
\setcounter{footnote}{0}
\setcounter{mpfootnote}{0}
\setcounter{part}{0}
\setcounter{chapter}{13}
\setcounter{section}{2}
\setcounter{subsection}{3}
\setcounter{subsubsection}{3}
\setcounter{paragraph}{0}
\setcounter{subparagraph}{0}
\setcounter{figure}{0}
\setcounter{table}{0}
\setcounter{float@type}{4}
\setcounter{PWSTtable}{7}
\setcounter{NAT@ctr}{0}
\setcounter{lofdepth}{1}
\setcounter{lotdepth}{1}
\setcounter{parentequation}{0}
\setcounter{Item}{10}
\setcounter{Hfootnote}{0}
\setcounter{bookmark@seq@number}{53}
\setcounter{section@level}{3}
}
