\relax 
\providecommand\hyper@newdestlabel[2]{}
\gdef \PWST@clx{1}
\@writefile{toc}{\contentsline {section}{\numberline {13.30}Local M\discretionary {\unhbox \voidb@x \hbox {\relax \fontsize  {7}{8}\selectfont  $\DOTSB \leftarrow \joinrel  \rhook $}}{}{}F\discretionary {\unhbox \voidb@x \hbox {\relax \fontsize  {7}{8}\selectfont  $\DOTSB \leftarrow \joinrel  \rhook $}}{}{}E consensus structures for Sequence Alignments}{186}{section.13.30}}
\newlabel{group__local__consensus__fold}{{13.30}{186}{Local M\+F\+E consensus structures for Sequence Alignments}{section.13.30}{}}
\@writefile{toc}{\contentsline {subsection}{\numberline {13.30.1}Detailed Description}{186}{subsection.13.30.1}}
\@writefile{toc}{\contentsline {subsection}{\numberline {13.30.2}Function Documentation}{186}{subsection.13.30.2}}
\@writefile{toc}{\contentsline {subsubsection}{\numberline {13.30.2.1}ali\discretionary {\unhbox \voidb@x \hbox {\relax \fontsize  {7}{8}\selectfont  $\DOTSB \leftarrow \joinrel  \rhook $}}{}{}Lfold}{186}{subsubsection.13.30.2.1}}
\newlabel{group__local__consensus__fold_ga20a173a3cdb83f5d1778e36c1a6b1f2b}{{13.30.2.1}{186}{ali\+Lfold}{subsubsection.13.30.2.1}{}}
\@setckpt{group__local__consensus__fold}{
\setcounter{page}{187}
\setcounter{equation}{0}
\setcounter{enumi}{2}
\setcounter{enumii}{0}
\setcounter{enumiii}{0}
\setcounter{enumiv}{0}
\setcounter{footnote}{0}
\setcounter{mpfootnote}{0}
\setcounter{part}{0}
\setcounter{chapter}{13}
\setcounter{section}{30}
\setcounter{subsection}{2}
\setcounter{subsubsection}{1}
\setcounter{paragraph}{0}
\setcounter{subparagraph}{0}
\setcounter{figure}{0}
\setcounter{table}{0}
\setcounter{float@type}{4}
\setcounter{PWSTtable}{160}
\setcounter{NAT@ctr}{0}
\setcounter{lofdepth}{1}
\setcounter{lotdepth}{1}
\setcounter{parentequation}{0}
\setcounter{Item}{12}
\setcounter{Hfootnote}{0}
\setcounter{bookmark@seq@number}{427}
\setcounter{section@level}{3}
}
