\relax 
\providecommand\hyper@newdestlabel[2]{}
\@writefile{toc}{\contentsline {section}{\numberline {13.27}Predicting Locally stable structures of large sequences}{178}{section.13.27}}
\newlabel{group__local__fold}{{13.27}{178}{Predicting Locally stable structures of large sequences}{section.13.27}{}}
\@writefile{toc}{\contentsline {subsection}{\numberline {13.27.1}Detailed Description}{178}{subsection.13.27.1}}
\@setckpt{group__local__fold}{
\setcounter{page}{179}
\setcounter{equation}{0}
\setcounter{enumi}{2}
\setcounter{enumii}{0}
\setcounter{enumiii}{0}
\setcounter{enumiv}{0}
\setcounter{footnote}{0}
\setcounter{mpfootnote}{0}
\setcounter{part}{0}
\setcounter{chapter}{13}
\setcounter{section}{27}
\setcounter{subsection}{1}
\setcounter{subsubsection}{0}
\setcounter{paragraph}{0}
\setcounter{subparagraph}{0}
\setcounter{figure}{0}
\setcounter{table}{0}
\setcounter{float@type}{4}
\setcounter{PWSTtable}{151}
\setcounter{NAT@ctr}{0}
\setcounter{lofdepth}{1}
\setcounter{lotdepth}{1}
\setcounter{parentequation}{0}
\setcounter{Item}{12}
\setcounter{Hfootnote}{0}
\setcounter{bookmark@seq@number}{407}
\setcounter{section@level}{2}
}
