\relax 
\providecommand\hyper@newdestlabel[2]{}
\@writefile{toc}{\contentsline {section}{\numberline {13.35}Calculating M\discretionary {\unhbox \voidb@x \hbox {\relax \fontsize  {7}{8}\selectfont  $\DOTSB \leftarrow \joinrel  \rhook $}}{}{}F\discretionary {\unhbox \voidb@x \hbox {\relax \fontsize  {7}{8}\selectfont  $\DOTSB \leftarrow \joinrel  \rhook $}}{}{}E representatives of a Distance Based Partitioning}{196}{section.13.35}}
\newlabel{group__kl__neighborhood__mfe}{{13.35}{196}{Calculating M\+F\+E representatives of a Distance Based Partitioning}{section.13.35}{}}
\citation{lorenz:2009}
\@writefile{toc}{\contentsline {subsection}{\numberline {13.35.1}Detailed Description}{197}{subsection.13.35.1}}
\@writefile{brf}{\backcite{lorenz:2009}{{197}{13.35.1}{subsection.13.35.1}}}
\@writefile{toc}{\contentsline {subsection}{\numberline {13.35.2}Data Structure Documentation}{197}{subsection.13.35.2}}
\newlabel{structvrna__sol__TwoD__t}{{13.35.2}{197}{Data Structure Documentation}{subsection.13.35.2}{}}
\@writefile{toc}{\contentsline {subsubsection}{\numberline {13.35.2.1}struct vrna\discretionary {\unhbox \voidb@x \hbox {\relax \fontsize  {7}{8}\selectfont  $\DOTSB \leftarrow \joinrel  \rhook $}}{}{}\_\discretionary {\unhbox \voidb@x \hbox {\relax \fontsize  {7}{8}\selectfont  $\DOTSB \leftarrow \joinrel  \rhook $}}{}{}sol\discretionary {\unhbox \voidb@x \hbox {\relax \fontsize  {7}{8}\selectfont  $\DOTSB \leftarrow \joinrel  \rhook $}}{}{}\_\discretionary {\unhbox \voidb@x \hbox {\relax \fontsize  {7}{8}\selectfont  $\DOTSB \leftarrow \joinrel  \rhook $}}{}{}\discretionary {\unhbox \voidb@x \hbox {\relax \fontsize  {7}{8}\selectfont  $\DOTSB \leftarrow \joinrel  \rhook $}}{}{}Two\discretionary {\unhbox \voidb@x \hbox {\relax \fontsize  {7}{8}\selectfont  $\DOTSB \leftarrow \joinrel  \rhook $}}{}{}D\discretionary {\unhbox \voidb@x \hbox {\relax \fontsize  {7}{8}\selectfont  $\DOTSB \leftarrow \joinrel  \rhook $}}{}{}\_\discretionary {\unhbox \voidb@x \hbox {\relax \fontsize  {7}{8}\selectfont  $\DOTSB \leftarrow \joinrel  \rhook $}}{}{}t}{197}{subsubsection.13.35.2.1}}
\newlabel{group__kl__neighborhood__mfe_ac111e850bb3b3a11b6b5707912cfa1b8}{{13.35.2.1}{197}{Data Fields}{section*.103}{}}
\newlabel{group__kl__neighborhood__mfe_ab8e95cd920901175a2cc8de726ab1d36}{{13.35.2.1}{197}{Data Fields}{section*.103}{}}
\newlabel{group__kl__neighborhood__mfe_a7577863a6a84224dfee39b321c03cab1}{{13.35.2.1}{197}{Data Fields}{section*.103}{}}
\newlabel{group__kl__neighborhood__mfe_ac5942d2505a6cd7e4a8073a321d5d2d5}{{13.35.2.1}{197}{Data Fields}{section*.103}{}}
\newlabel{structTwoDfold__vars}{{13.35.2.1}{197}{Data Fields}{section*.103}{}}
\@writefile{toc}{\contentsline {subsubsection}{\numberline {13.35.2.2}struct Two\discretionary {\unhbox \voidb@x \hbox {\relax \fontsize  {7}{8}\selectfont  $\DOTSB \leftarrow \joinrel  \rhook $}}{}{}Dfold\discretionary {\unhbox \voidb@x \hbox {\relax \fontsize  {7}{8}\selectfont  $\DOTSB \leftarrow \joinrel  \rhook $}}{}{}\_\discretionary {\unhbox \voidb@x \hbox {\relax \fontsize  {7}{8}\selectfont  $\DOTSB \leftarrow \joinrel  \rhook $}}{}{}vars}{197}{subsubsection.13.35.2.2}}
\newlabel{group__kl__neighborhood__mfe_a70da9e83ad87c37013b4bf0b265dd307}{{13.35.2.2}{198}{Data Fields}{section*.104}{}}
\newlabel{group__kl__neighborhood__mfe_ade5c7e9337a458ae20bac75abdc52d64}{{13.35.2.2}{198}{Data Fields}{section*.104}{}}
\newlabel{group__kl__neighborhood__mfe_aedf60b8b26dae05ad266d3e098d18208}{{13.35.2.2}{198}{Data Fields}{section*.104}{}}
\newlabel{group__kl__neighborhood__mfe_a3596f3d4d320318c4b8428e2abc7ab56}{{13.35.2.2}{198}{Data Fields}{section*.104}{}}
\newlabel{group__kl__neighborhood__mfe_ab9ee459ffbfb5d2c138a033516056cdc}{{13.35.2.2}{198}{Data Fields}{section*.104}{}}
\newlabel{group__kl__neighborhood__mfe_a621ed2ab02116f3f8f5e7120dec429eb}{{13.35.2.2}{198}{Data Fields}{section*.104}{}}
\newlabel{group__kl__neighborhood__mfe_a03f198a4abdb3b784486d2ba5c533aa4}{{13.35.2.2}{198}{Data Fields}{section*.104}{}}
\newlabel{group__kl__neighborhood__mfe_aa11f5bcd8c4fe70a91c155c877c855d5}{{13.35.2.2}{198}{Data Fields}{section*.104}{}}
\newlabel{group__kl__neighborhood__mfe_a2eaa93316b6beb17531f0c078806036c}{{13.35.2.2}{198}{Data Fields}{section*.104}{}}
\newlabel{group__kl__neighborhood__mfe_a1a20cb06b58b75d1a3dbdbc8bc60d0a7}{{13.35.2.2}{198}{Data Fields}{section*.104}{}}
\newlabel{group__kl__neighborhood__mfe_a536525b98c1b633d4c5f2da4f8d78c18}{{13.35.2.2}{198}{Data Fields}{section*.104}{}}
\newlabel{group__kl__neighborhood__mfe_aa7abf73c3114cb5f0dc90e702fa9dd0f}{{13.35.2.2}{198}{Data Fields}{section*.104}{}}
\newlabel{group__kl__neighborhood__mfe_af1106e1a592e2dccc92b3452340549e0}{{13.35.2.2}{198}{Data Fields}{section*.104}{}}
\@writefile{toc}{\contentsline {subsection}{\numberline {13.35.3}Typedef Documentation}{198}{subsection.13.35.3}}
\@writefile{toc}{\contentsline {subsubsection}{\numberline {13.35.3.1}vrna\discretionary {\unhbox \voidb@x \hbox {\relax \fontsize  {7}{8}\selectfont  $\DOTSB \leftarrow \joinrel  \rhook $}}{}{}\_\discretionary {\unhbox \voidb@x \hbox {\relax \fontsize  {7}{8}\selectfont  $\DOTSB \leftarrow \joinrel  \rhook $}}{}{}sol\discretionary {\unhbox \voidb@x \hbox {\relax \fontsize  {7}{8}\selectfont  $\DOTSB \leftarrow \joinrel  \rhook $}}{}{}\_\discretionary {\unhbox \voidb@x \hbox {\relax \fontsize  {7}{8}\selectfont  $\DOTSB \leftarrow \joinrel  \rhook $}}{}{}\discretionary {\unhbox \voidb@x \hbox {\relax \fontsize  {7}{8}\selectfont  $\DOTSB \leftarrow \joinrel  \rhook $}}{}{}Two\discretionary {\unhbox \voidb@x \hbox {\relax \fontsize  {7}{8}\selectfont  $\DOTSB \leftarrow \joinrel  \rhook $}}{}{}D\discretionary {\unhbox \voidb@x \hbox {\relax \fontsize  {7}{8}\selectfont  $\DOTSB \leftarrow \joinrel  \rhook $}}{}{}\_\discretionary {\unhbox \voidb@x \hbox {\relax \fontsize  {7}{8}\selectfont  $\DOTSB \leftarrow \joinrel  \rhook $}}{}{}t}{198}{subsubsection.13.35.3.1}}
\newlabel{group__kl__neighborhood__mfe_ga6a81a58268d250309712549a3fa0aab2}{{13.35.3.1}{198}{vrna\+\_\+sol\+\_\+\+Two\+D\+\_\+t}{subsubsection.13.35.3.1}{}}
\gdef \PWST@clxiv{1}
\@writefile{toc}{\contentsline {subsubsection}{\numberline {13.35.3.2}Two\discretionary {\unhbox \voidb@x \hbox {\relax \fontsize  {7}{8}\selectfont  $\DOTSB \leftarrow \joinrel  \rhook $}}{}{}Dfold\discretionary {\unhbox \voidb@x \hbox {\relax \fontsize  {7}{8}\selectfont  $\DOTSB \leftarrow \joinrel  \rhook $}}{}{}\_\discretionary {\unhbox \voidb@x \hbox {\relax \fontsize  {7}{8}\selectfont  $\DOTSB \leftarrow \joinrel  \rhook $}}{}{}vars}{199}{subsubsection.13.35.3.2}}
\newlabel{group__kl__neighborhood__mfe_gaf4f514010a14f9d59d850742b3e96954}{{13.35.3.2}{199}{Two\+Dfold\+\_\+vars}{subsubsection.13.35.3.2}{}}
\@writefile{toc}{\contentsline {subsection}{\numberline {13.35.4}Function Documentation}{199}{subsection.13.35.4}}
\@writefile{toc}{\contentsline {subsubsection}{\numberline {13.35.4.1}vrna\discretionary {\unhbox \voidb@x \hbox {\relax \fontsize  {7}{8}\selectfont  $\DOTSB \leftarrow \joinrel  \rhook $}}{}{}\_\discretionary {\unhbox \voidb@x \hbox {\relax \fontsize  {7}{8}\selectfont  $\DOTSB \leftarrow \joinrel  \rhook $}}{}{}mfe\discretionary {\unhbox \voidb@x \hbox {\relax \fontsize  {7}{8}\selectfont  $\DOTSB \leftarrow \joinrel  \rhook $}}{}{}\_\discretionary {\unhbox \voidb@x \hbox {\relax \fontsize  {7}{8}\selectfont  $\DOTSB \leftarrow \joinrel  \rhook $}}{}{}\discretionary {\unhbox \voidb@x \hbox {\relax \fontsize  {7}{8}\selectfont  $\DOTSB \leftarrow \joinrel  \rhook $}}{}{}Two\discretionary {\unhbox \voidb@x \hbox {\relax \fontsize  {7}{8}\selectfont  $\DOTSB \leftarrow \joinrel  \rhook $}}{}{}D}{199}{subsubsection.13.35.4.1}}
\newlabel{group__kl__neighborhood__mfe_ga243c288b463147352829df04de6a2f77}{{13.35.4.1}{199}{vrna\+\_\+mfe\+\_\+\+Two\+D}{subsubsection.13.35.4.1}{}}
\@writefile{toc}{\contentsline {subsubsection}{\numberline {13.35.4.2}vrna\discretionary {\unhbox \voidb@x \hbox {\relax \fontsize  {7}{8}\selectfont  $\DOTSB \leftarrow \joinrel  \rhook $}}{}{}\_\discretionary {\unhbox \voidb@x \hbox {\relax \fontsize  {7}{8}\selectfont  $\DOTSB \leftarrow \joinrel  \rhook $}}{}{}backtrack5\discretionary {\unhbox \voidb@x \hbox {\relax \fontsize  {7}{8}\selectfont  $\DOTSB \leftarrow \joinrel  \rhook $}}{}{}\_\discretionary {\unhbox \voidb@x \hbox {\relax \fontsize  {7}{8}\selectfont  $\DOTSB \leftarrow \joinrel  \rhook $}}{}{}\discretionary {\unhbox \voidb@x \hbox {\relax \fontsize  {7}{8}\selectfont  $\DOTSB \leftarrow \joinrel  \rhook $}}{}{}Two\discretionary {\unhbox \voidb@x \hbox {\relax \fontsize  {7}{8}\selectfont  $\DOTSB \leftarrow \joinrel  \rhook $}}{}{}D}{199}{subsubsection.13.35.4.2}}
\newlabel{group__kl__neighborhood__mfe_ga15a96fc96f4f4c2e01a11b3e17d1ef43}{{13.35.4.2}{199}{vrna\+\_\+backtrack5\+\_\+\+Two\+D}{subsubsection.13.35.4.2}{}}
\gdef \PWST@clxv{1}
\gdef \PWST@clxvi{1}
\@writefile{toc}{\contentsline {subsubsection}{\numberline {13.35.4.3}get\discretionary {\unhbox \voidb@x \hbox {\relax \fontsize  {7}{8}\selectfont  $\DOTSB \leftarrow \joinrel  \rhook $}}{}{}\_\discretionary {\unhbox \voidb@x \hbox {\relax \fontsize  {7}{8}\selectfont  $\DOTSB \leftarrow \joinrel  \rhook $}}{}{}\discretionary {\unhbox \voidb@x \hbox {\relax \fontsize  {7}{8}\selectfont  $\DOTSB \leftarrow \joinrel  \rhook $}}{}{}Two\discretionary {\unhbox \voidb@x \hbox {\relax \fontsize  {7}{8}\selectfont  $\DOTSB \leftarrow \joinrel  \rhook $}}{}{}Dfold\discretionary {\unhbox \voidb@x \hbox {\relax \fontsize  {7}{8}\selectfont  $\DOTSB \leftarrow \joinrel  \rhook $}}{}{}\_\discretionary {\unhbox \voidb@x \hbox {\relax \fontsize  {7}{8}\selectfont  $\DOTSB \leftarrow \joinrel  \rhook $}}{}{}variables}{200}{subsubsection.13.35.4.3}}
\newlabel{group__kl__neighborhood__mfe_gac9284f132cf0eaa0a2f43590eda05488}{{13.35.4.3}{200}{get\+\_\+\+Two\+Dfold\+\_\+variables}{subsubsection.13.35.4.3}{}}
\@writefile{toc}{\contentsline {subsubsection}{\numberline {13.35.4.4}destroy\discretionary {\unhbox \voidb@x \hbox {\relax \fontsize  {7}{8}\selectfont  $\DOTSB \leftarrow \joinrel  \rhook $}}{}{}\_\discretionary {\unhbox \voidb@x \hbox {\relax \fontsize  {7}{8}\selectfont  $\DOTSB \leftarrow \joinrel  \rhook $}}{}{}\discretionary {\unhbox \voidb@x \hbox {\relax \fontsize  {7}{8}\selectfont  $\DOTSB \leftarrow \joinrel  \rhook $}}{}{}Two\discretionary {\unhbox \voidb@x \hbox {\relax \fontsize  {7}{8}\selectfont  $\DOTSB \leftarrow \joinrel  \rhook $}}{}{}Dfold\discretionary {\unhbox \voidb@x \hbox {\relax \fontsize  {7}{8}\selectfont  $\DOTSB \leftarrow \joinrel  \rhook $}}{}{}\_\discretionary {\unhbox \voidb@x \hbox {\relax \fontsize  {7}{8}\selectfont  $\DOTSB \leftarrow \joinrel  \rhook $}}{}{}variables}{200}{subsubsection.13.35.4.4}}
\newlabel{group__kl__neighborhood__mfe_ga05bf4f31d216b1b160fd2d3d68e9b487}{{13.35.4.4}{200}{destroy\+\_\+\+Two\+Dfold\+\_\+variables}{subsubsection.13.35.4.4}{}}
\gdef \PWST@clxvii{1}
\gdef \PWST@clxviii{1}
\@writefile{toc}{\contentsline {subsubsection}{\numberline {13.35.4.5}Two\discretionary {\unhbox \voidb@x \hbox {\relax \fontsize  {7}{8}\selectfont  $\DOTSB \leftarrow \joinrel  \rhook $}}{}{}Dfold\discretionary {\unhbox \voidb@x \hbox {\relax \fontsize  {7}{8}\selectfont  $\DOTSB \leftarrow \joinrel  \rhook $}}{}{}List}{201}{subsubsection.13.35.4.5}}
\newlabel{group__kl__neighborhood__mfe_ga7fc5e3e92fe97914ca4eccd33c01c2a7}{{13.35.4.5}{201}{Two\+Dfold\+List}{subsubsection.13.35.4.5}{}}
\@writefile{toc}{\contentsline {subsubsection}{\numberline {13.35.4.6}Two\discretionary {\unhbox \voidb@x \hbox {\relax \fontsize  {7}{8}\selectfont  $\DOTSB \leftarrow \joinrel  \rhook $}}{}{}Dfold\discretionary {\unhbox \voidb@x \hbox {\relax \fontsize  {7}{8}\selectfont  $\DOTSB \leftarrow \joinrel  \rhook $}}{}{}\_\discretionary {\unhbox \voidb@x \hbox {\relax \fontsize  {7}{8}\selectfont  $\DOTSB \leftarrow \joinrel  \rhook $}}{}{}backtrack\discretionary {\unhbox \voidb@x \hbox {\relax \fontsize  {7}{8}\selectfont  $\DOTSB \leftarrow \joinrel  \rhook $}}{}{}\_\discretionary {\unhbox \voidb@x \hbox {\relax \fontsize  {7}{8}\selectfont  $\DOTSB \leftarrow \joinrel  \rhook $}}{}{}f5}{201}{subsubsection.13.35.4.6}}
\newlabel{group__kl__neighborhood__mfe_gaf4dc05bf8fc1ea53acd7aeb798ba80c2}{{13.35.4.6}{201}{Two\+Dfold\+\_\+backtrack\+\_\+f5}{subsubsection.13.35.4.6}{}}
\gdef \PWST@clxix{2}
\@setckpt{group__kl__neighborhood__mfe}{
\setcounter{page}{203}
\setcounter{equation}{0}
\setcounter{enumi}{2}
\setcounter{enumii}{0}
\setcounter{enumiii}{0}
\setcounter{enumiv}{0}
\setcounter{footnote}{0}
\setcounter{mpfootnote}{0}
\setcounter{part}{0}
\setcounter{chapter}{13}
\setcounter{section}{35}
\setcounter{subsection}{4}
\setcounter{subsubsection}{6}
\setcounter{paragraph}{0}
\setcounter{subparagraph}{0}
\setcounter{figure}{0}
\setcounter{table}{0}
\setcounter{float@type}{4}
\setcounter{PWSTtable}{169}
\setcounter{NAT@ctr}{0}
\setcounter{lofdepth}{1}
\setcounter{lotdepth}{1}
\setcounter{parentequation}{0}
\setcounter{Item}{12}
\setcounter{Hfootnote}{0}
\setcounter{bookmark@seq@number}{478}
\setcounter{section@level}{3}
}
