\relax 
\providecommand\hyper@newdestlabel[2]{}
\@writefile{toc}{\contentsline {section}{\numberline {13.6}Energy Parameter Sets and Boltzmann Factors}{73}{section.13.6}}
\newlabel{group__energy__parameters}{{13.6}{73}{Energy Parameter Sets and Boltzmann Factors}{section.13.6}{}}
\newlabel{group__energy__parameters_ga8a69ca7d787e4fd6079914f5343a1f35}{{13.6}{73}{Typedefs}{section*.29}{}}
\newlabel{group__energy__parameters_ga01d8b92fe734df8d79a6169482c7d8d8}{{13.6}{73}{Typedefs}{section*.29}{}}
\@writefile{toc}{\contentsline {subsection}{\numberline {13.6.1}Detailed Description}{74}{subsection.13.6.1}}
\@writefile{toc}{\contentsline {subsection}{\numberline {13.6.2}Data Structure Documentation}{74}{subsection.13.6.2}}
\newlabel{structvrna__param__s}{{13.6.2}{74}{Data Structure Documentation}{subsection.13.6.2}{}}
\@writefile{toc}{\contentsline {subsubsection}{\numberline {13.6.2.1}struct vrna\discretionary {\unhbox \voidb@x \hbox {\relax \fontsize  {7}{8}\selectfont  $\DOTSB \leftarrow \joinrel  \rhook $}}{}{}\_\discretionary {\unhbox \voidb@x \hbox {\relax \fontsize  {7}{8}\selectfont  $\DOTSB \leftarrow \joinrel  \rhook $}}{}{}param\discretionary {\unhbox \voidb@x \hbox {\relax \fontsize  {7}{8}\selectfont  $\DOTSB \leftarrow \joinrel  \rhook $}}{}{}\_\discretionary {\unhbox \voidb@x \hbox {\relax \fontsize  {7}{8}\selectfont  $\DOTSB \leftarrow \joinrel  \rhook $}}{}{}s}{74}{subsubsection.13.6.2.1}}
\newlabel{group__energy__parameters_aeed2cd83713012bcb52e431041e037c8}{{13.6.2.1}{75}{Data Fields}{section*.31}{}}
\newlabel{group__energy__parameters_a7b84353eb9075c595bad4ceb871bcae7}{{13.6.2.1}{75}{Data Fields}{section*.31}{}}
\newlabel{structvrna__exp__param__s}{{13.6.2.1}{75}{Data Fields}{section*.31}{}}
\@writefile{toc}{\contentsline {subsubsection}{\numberline {13.6.2.2}struct vrna\discretionary {\unhbox \voidb@x \hbox {\relax \fontsize  {7}{8}\selectfont  $\DOTSB \leftarrow \joinrel  \rhook $}}{}{}\_\discretionary {\unhbox \voidb@x \hbox {\relax \fontsize  {7}{8}\selectfont  $\DOTSB \leftarrow \joinrel  \rhook $}}{}{}exp\discretionary {\unhbox \voidb@x \hbox {\relax \fontsize  {7}{8}\selectfont  $\DOTSB \leftarrow \joinrel  \rhook $}}{}{}\_\discretionary {\unhbox \voidb@x \hbox {\relax \fontsize  {7}{8}\selectfont  $\DOTSB \leftarrow \joinrel  \rhook $}}{}{}param\discretionary {\unhbox \voidb@x \hbox {\relax \fontsize  {7}{8}\selectfont  $\DOTSB \leftarrow \joinrel  \rhook $}}{}{}\_\discretionary {\unhbox \voidb@x \hbox {\relax \fontsize  {7}{8}\selectfont  $\DOTSB \leftarrow \joinrel  \rhook $}}{}{}s}{75}{subsubsection.13.6.2.2}}
\newlabel{group__energy__parameters_a53c12f0d74f94ce371e0471a8ab5a377}{{13.6.2.2}{75}{Data Fields}{section*.32}{}}
\newlabel{group__energy__parameters_a674656d65ea957ddbeff8bd146b7fc16}{{13.6.2.2}{75}{Data Fields}{section*.32}{}}
\newlabel{group__energy__parameters_ac18055127bccc27c1223f1d2f3b01b53}{{13.6.2.2}{76}{Data Fields}{section*.32}{}}
\@writefile{toc}{\contentsline {paragraph}{\numberline {13.6.2.2.1}Field Documentation}{76}{paragraph.13.6.2.2.1}}
\@writefile{toc}{\contentsline {subparagraph}{\numberline {13.6.2.2.1.1}id}{76}{subparagraph.13.6.2.2.1.1}}
\newlabel{group__energy__parameters_a378d5bcf2bae1f3ec84c912c7d3908d2}{{13.6.2.2.1.1}{76}{id}{subparagraph.13.6.2.2.1.1}{}}
\@writefile{toc}{\contentsline {subparagraph}{\numberline {13.6.2.2.1.2}alpha}{76}{subparagraph.13.6.2.2.1.2}}
\newlabel{group__energy__parameters_a77145830b7bb01b36c3217b363310ef0}{{13.6.2.2.1.2}{76}{alpha}{subparagraph.13.6.2.2.1.2}{}}
\@writefile{toc}{\contentsline {subsection}{\numberline {13.6.3}Typedef Documentation}{76}{subsection.13.6.3}}
\@writefile{toc}{\contentsline {subsubsection}{\numberline {13.6.3.1}param\discretionary {\unhbox \voidb@x \hbox {\relax \fontsize  {7}{8}\selectfont  $\DOTSB \leftarrow \joinrel  \rhook $}}{}{}T}{76}{subsubsection.13.6.3.1}}
\newlabel{group__energy__parameters_ga857dde86357d306cc902f0d8b2797659}{{13.6.3.1}{76}{param\+T}{subsubsection.13.6.3.1}{}}
\@writefile{toc}{\contentsline {subsubsection}{\numberline {13.6.3.2}pf\discretionary {\unhbox \voidb@x \hbox {\relax \fontsize  {7}{8}\selectfont  $\DOTSB \leftarrow \joinrel  \rhook $}}{}{}\_\discretionary {\unhbox \voidb@x \hbox {\relax \fontsize  {7}{8}\selectfont  $\DOTSB \leftarrow \joinrel  \rhook $}}{}{}param\discretionary {\unhbox \voidb@x \hbox {\relax \fontsize  {7}{8}\selectfont  $\DOTSB \leftarrow \joinrel  \rhook $}}{}{}T}{76}{subsubsection.13.6.3.2}}
\newlabel{group__energy__parameters_ga8bffe1828e2cbec101769f5cc0b1535b}{{13.6.3.2}{76}{pf\+\_\+param\+T}{subsubsection.13.6.3.2}{}}
\@writefile{toc}{\contentsline {subsection}{\numberline {13.6.4}Function Documentation}{76}{subsection.13.6.4}}
\@writefile{toc}{\contentsline {subsubsection}{\numberline {13.6.4.1}vrna\discretionary {\unhbox \voidb@x \hbox {\relax \fontsize  {7}{8}\selectfont  $\DOTSB \leftarrow \joinrel  \rhook $}}{}{}\_\discretionary {\unhbox \voidb@x \hbox {\relax \fontsize  {7}{8}\selectfont  $\DOTSB \leftarrow \joinrel  \rhook $}}{}{}params}{76}{subsubsection.13.6.4.1}}
\newlabel{group__energy__parameters_gad0e3e7e74bdc50d1709d40c92993185e}{{13.6.4.1}{76}{vrna\+\_\+params}{subsubsection.13.6.4.1}{}}
\gdef \PWST@xliii{1}
\gdef \PWST@xliv{1}
\gdef \PWST@xlv{1}
\@writefile{toc}{\contentsline {subsubsection}{\numberline {13.6.4.2}vrna\discretionary {\unhbox \voidb@x \hbox {\relax \fontsize  {7}{8}\selectfont  $\DOTSB \leftarrow \joinrel  \rhook $}}{}{}\_\discretionary {\unhbox \voidb@x \hbox {\relax \fontsize  {7}{8}\selectfont  $\DOTSB \leftarrow \joinrel  \rhook $}}{}{}params\discretionary {\unhbox \voidb@x \hbox {\relax \fontsize  {7}{8}\selectfont  $\DOTSB \leftarrow \joinrel  \rhook $}}{}{}\_\discretionary {\unhbox \voidb@x \hbox {\relax \fontsize  {7}{8}\selectfont  $\DOTSB \leftarrow \joinrel  \rhook $}}{}{}copy}{77}{subsubsection.13.6.4.2}}
\newlabel{group__energy__parameters_ga4bffa39f26e7746148444dd8a8426eca}{{13.6.4.2}{77}{vrna\+\_\+params\+\_\+copy}{subsubsection.13.6.4.2}{}}
\@writefile{toc}{\contentsline {subsubsection}{\numberline {13.6.4.3}vrna\discretionary {\unhbox \voidb@x \hbox {\relax \fontsize  {7}{8}\selectfont  $\DOTSB \leftarrow \joinrel  \rhook $}}{}{}\_\discretionary {\unhbox \voidb@x \hbox {\relax \fontsize  {7}{8}\selectfont  $\DOTSB \leftarrow \joinrel  \rhook $}}{}{}exp\discretionary {\unhbox \voidb@x \hbox {\relax \fontsize  {7}{8}\selectfont  $\DOTSB \leftarrow \joinrel  \rhook $}}{}{}\_\discretionary {\unhbox \voidb@x \hbox {\relax \fontsize  {7}{8}\selectfont  $\DOTSB \leftarrow \joinrel  \rhook $}}{}{}params}{77}{subsubsection.13.6.4.3}}
\newlabel{group__energy__parameters_gab1f3016f96aa96bff020cdd904605afa}{{13.6.4.3}{77}{vrna\+\_\+exp\+\_\+params}{subsubsection.13.6.4.3}{}}
\gdef \PWST@xlvi{1}
\gdef \PWST@xlvii{1}
\@writefile{toc}{\contentsline {subsubsection}{\numberline {13.6.4.4}vrna\discretionary {\unhbox \voidb@x \hbox {\relax \fontsize  {7}{8}\selectfont  $\DOTSB \leftarrow \joinrel  \rhook $}}{}{}\_\discretionary {\unhbox \voidb@x \hbox {\relax \fontsize  {7}{8}\selectfont  $\DOTSB \leftarrow \joinrel  \rhook $}}{}{}exp\discretionary {\unhbox \voidb@x \hbox {\relax \fontsize  {7}{8}\selectfont  $\DOTSB \leftarrow \joinrel  \rhook $}}{}{}\_\discretionary {\unhbox \voidb@x \hbox {\relax \fontsize  {7}{8}\selectfont  $\DOTSB \leftarrow \joinrel  \rhook $}}{}{}params\discretionary {\unhbox \voidb@x \hbox {\relax \fontsize  {7}{8}\selectfont  $\DOTSB \leftarrow \joinrel  \rhook $}}{}{}\_\discretionary {\unhbox \voidb@x \hbox {\relax \fontsize  {7}{8}\selectfont  $\DOTSB \leftarrow \joinrel  \rhook $}}{}{}comparative}{78}{subsubsection.13.6.4.4}}
\newlabel{group__energy__parameters_gaf78c09e685e6eef4100b1a41d4042550}{{13.6.4.4}{78}{vrna\+\_\+exp\+\_\+params\+\_\+comparative}{subsubsection.13.6.4.4}{}}
\@writefile{toc}{\contentsline {subsubsection}{\numberline {13.6.4.5}vrna\discretionary {\unhbox \voidb@x \hbox {\relax \fontsize  {7}{8}\selectfont  $\DOTSB \leftarrow \joinrel  \rhook $}}{}{}\_\discretionary {\unhbox \voidb@x \hbox {\relax \fontsize  {7}{8}\selectfont  $\DOTSB \leftarrow \joinrel  \rhook $}}{}{}exp\discretionary {\unhbox \voidb@x \hbox {\relax \fontsize  {7}{8}\selectfont  $\DOTSB \leftarrow \joinrel  \rhook $}}{}{}\_\discretionary {\unhbox \voidb@x \hbox {\relax \fontsize  {7}{8}\selectfont  $\DOTSB \leftarrow \joinrel  \rhook $}}{}{}params\discretionary {\unhbox \voidb@x \hbox {\relax \fontsize  {7}{8}\selectfont  $\DOTSB \leftarrow \joinrel  \rhook $}}{}{}\_\discretionary {\unhbox \voidb@x \hbox {\relax \fontsize  {7}{8}\selectfont  $\DOTSB \leftarrow \joinrel  \rhook $}}{}{}copy}{78}{subsubsection.13.6.4.5}}
\newlabel{group__energy__parameters_ga70bc46be7cfa5434a71efe241c4f0609}{{13.6.4.5}{78}{vrna\+\_\+exp\+\_\+params\+\_\+copy}{subsubsection.13.6.4.5}{}}
\@writefile{toc}{\contentsline {subsubsection}{\numberline {13.6.4.6}vrna\discretionary {\unhbox \voidb@x \hbox {\relax \fontsize  {7}{8}\selectfont  $\DOTSB \leftarrow \joinrel  \rhook $}}{}{}\_\discretionary {\unhbox \voidb@x \hbox {\relax \fontsize  {7}{8}\selectfont  $\DOTSB \leftarrow \joinrel  \rhook $}}{}{}params\discretionary {\unhbox \voidb@x \hbox {\relax \fontsize  {7}{8}\selectfont  $\DOTSB \leftarrow \joinrel  \rhook $}}{}{}\_\discretionary {\unhbox \voidb@x \hbox {\relax \fontsize  {7}{8}\selectfont  $\DOTSB \leftarrow \joinrel  \rhook $}}{}{}subst}{78}{subsubsection.13.6.4.6}}
\newlabel{group__energy__parameters_ga5d1909208f7ea3baa98b75afaa1f62ca}{{13.6.4.6}{78}{vrna\+\_\+params\+\_\+subst}{subsubsection.13.6.4.6}{}}
\gdef \PWST@xlviii{1}
\gdef \PWST@xlix{1}
\@writefile{toc}{\contentsline {subsubsection}{\numberline {13.6.4.7}vrna\discretionary {\unhbox \voidb@x \hbox {\relax \fontsize  {7}{8}\selectfont  $\DOTSB \leftarrow \joinrel  \rhook $}}{}{}\_\discretionary {\unhbox \voidb@x \hbox {\relax \fontsize  {7}{8}\selectfont  $\DOTSB \leftarrow \joinrel  \rhook $}}{}{}exp\discretionary {\unhbox \voidb@x \hbox {\relax \fontsize  {7}{8}\selectfont  $\DOTSB \leftarrow \joinrel  \rhook $}}{}{}\_\discretionary {\unhbox \voidb@x \hbox {\relax \fontsize  {7}{8}\selectfont  $\DOTSB \leftarrow \joinrel  \rhook $}}{}{}params\discretionary {\unhbox \voidb@x \hbox {\relax \fontsize  {7}{8}\selectfont  $\DOTSB \leftarrow \joinrel  \rhook $}}{}{}\_\discretionary {\unhbox \voidb@x \hbox {\relax \fontsize  {7}{8}\selectfont  $\DOTSB \leftarrow \joinrel  \rhook $}}{}{}subst}{79}{subsubsection.13.6.4.7}}
\newlabel{group__energy__parameters_ga8e7ac4fab3b0cc03afbc134eaafb3525}{{13.6.4.7}{79}{vrna\+\_\+exp\+\_\+params\+\_\+subst}{subsubsection.13.6.4.7}{}}
\@writefile{toc}{\contentsline {subsubsection}{\numberline {13.6.4.8}vrna\discretionary {\unhbox \voidb@x \hbox {\relax \fontsize  {7}{8}\selectfont  $\DOTSB \leftarrow \joinrel  \rhook $}}{}{}\_\discretionary {\unhbox \voidb@x \hbox {\relax \fontsize  {7}{8}\selectfont  $\DOTSB \leftarrow \joinrel  \rhook $}}{}{}exp\discretionary {\unhbox \voidb@x \hbox {\relax \fontsize  {7}{8}\selectfont  $\DOTSB \leftarrow \joinrel  \rhook $}}{}{}\_\discretionary {\unhbox \voidb@x \hbox {\relax \fontsize  {7}{8}\selectfont  $\DOTSB \leftarrow \joinrel  \rhook $}}{}{}params\discretionary {\unhbox \voidb@x \hbox {\relax \fontsize  {7}{8}\selectfont  $\DOTSB \leftarrow \joinrel  \rhook $}}{}{}\_\discretionary {\unhbox \voidb@x \hbox {\relax \fontsize  {7}{8}\selectfont  $\DOTSB \leftarrow \joinrel  \rhook $}}{}{}rescale}{79}{subsubsection.13.6.4.8}}
\newlabel{group__energy__parameters_gad607bc3a5b5da16400e2ca4ea5560233}{{13.6.4.8}{79}{vrna\+\_\+exp\+\_\+params\+\_\+rescale}{subsubsection.13.6.4.8}{}}
\gdef \PWST@l{1}
\gdef \PWST@li{1}
\gdef \PWST@lii{1}
\@writefile{toc}{\contentsline {subsubsection}{\numberline {13.6.4.9}vrna\discretionary {\unhbox \voidb@x \hbox {\relax \fontsize  {7}{8}\selectfont  $\DOTSB \leftarrow \joinrel  \rhook $}}{}{}\_\discretionary {\unhbox \voidb@x \hbox {\relax \fontsize  {7}{8}\selectfont  $\DOTSB \leftarrow \joinrel  \rhook $}}{}{}params\discretionary {\unhbox \voidb@x \hbox {\relax \fontsize  {7}{8}\selectfont  $\DOTSB \leftarrow \joinrel  \rhook $}}{}{}\_\discretionary {\unhbox \voidb@x \hbox {\relax \fontsize  {7}{8}\selectfont  $\DOTSB \leftarrow \joinrel  \rhook $}}{}{}reset}{80}{subsubsection.13.6.4.9}}
\newlabel{group__energy__parameters_gac40dc82e48a72a97cfc58b9da08a7792}{{13.6.4.9}{80}{vrna\+\_\+params\+\_\+reset}{subsubsection.13.6.4.9}{}}
\@writefile{toc}{\contentsline {subsubsection}{\numberline {13.6.4.10}vrna\discretionary {\unhbox \voidb@x \hbox {\relax \fontsize  {7}{8}\selectfont  $\DOTSB \leftarrow \joinrel  \rhook $}}{}{}\_\discretionary {\unhbox \voidb@x \hbox {\relax \fontsize  {7}{8}\selectfont  $\DOTSB \leftarrow \joinrel  \rhook $}}{}{}exp\discretionary {\unhbox \voidb@x \hbox {\relax \fontsize  {7}{8}\selectfont  $\DOTSB \leftarrow \joinrel  \rhook $}}{}{}\_\discretionary {\unhbox \voidb@x \hbox {\relax \fontsize  {7}{8}\selectfont  $\DOTSB \leftarrow \joinrel  \rhook $}}{}{}params\discretionary {\unhbox \voidb@x \hbox {\relax \fontsize  {7}{8}\selectfont  $\DOTSB \leftarrow \joinrel  \rhook $}}{}{}\_\discretionary {\unhbox \voidb@x \hbox {\relax \fontsize  {7}{8}\selectfont  $\DOTSB \leftarrow \joinrel  \rhook $}}{}{}reset}{80}{subsubsection.13.6.4.10}}
\newlabel{group__energy__parameters_gae3c6f8897fb1f824e7fa55ab179aa3e8}{{13.6.4.10}{80}{vrna\+\_\+exp\+\_\+params\+\_\+reset}{subsubsection.13.6.4.10}{}}
\@writefile{toc}{\contentsline {subsubsection}{\numberline {13.6.4.11}get\discretionary {\unhbox \voidb@x \hbox {\relax \fontsize  {7}{8}\selectfont  $\DOTSB \leftarrow \joinrel  \rhook $}}{}{}\_\discretionary {\unhbox \voidb@x \hbox {\relax \fontsize  {7}{8}\selectfont  $\DOTSB \leftarrow \joinrel  \rhook $}}{}{}scaled\discretionary {\unhbox \voidb@x \hbox {\relax \fontsize  {7}{8}\selectfont  $\DOTSB \leftarrow \joinrel  \rhook $}}{}{}\_\discretionary {\unhbox \voidb@x \hbox {\relax \fontsize  {7}{8}\selectfont  $\DOTSB \leftarrow \joinrel  \rhook $}}{}{}pf\discretionary {\unhbox \voidb@x \hbox {\relax \fontsize  {7}{8}\selectfont  $\DOTSB \leftarrow \joinrel  \rhook $}}{}{}\_\discretionary {\unhbox \voidb@x \hbox {\relax \fontsize  {7}{8}\selectfont  $\DOTSB \leftarrow \joinrel  \rhook $}}{}{}parameters}{80}{subsubsection.13.6.4.11}}
\newlabel{group__energy__parameters_gabf3b9271c41dd3fac02d56e0b02b3344}{{13.6.4.11}{80}{get\+\_\+scaled\+\_\+pf\+\_\+parameters}{subsubsection.13.6.4.11}{}}
\gdef \PWST@liii{1}
\gdef \PWST@liv{1}
\@writefile{toc}{\contentsline {subsubsection}{\numberline {13.6.4.12}get\discretionary {\unhbox \voidb@x \hbox {\relax \fontsize  {7}{8}\selectfont  $\DOTSB \leftarrow \joinrel  \rhook $}}{}{}\_\discretionary {\unhbox \voidb@x \hbox {\relax \fontsize  {7}{8}\selectfont  $\DOTSB \leftarrow \joinrel  \rhook $}}{}{}boltzmann\discretionary {\unhbox \voidb@x \hbox {\relax \fontsize  {7}{8}\selectfont  $\DOTSB \leftarrow \joinrel  \rhook $}}{}{}\_\discretionary {\unhbox \voidb@x \hbox {\relax \fontsize  {7}{8}\selectfont  $\DOTSB \leftarrow \joinrel  \rhook $}}{}{}factors}{81}{subsubsection.13.6.4.12}}
\newlabel{group__energy__parameters_gaef2b931c7e9d4ffb0a5c33df50ec2068}{{13.6.4.12}{81}{get\+\_\+boltzmann\+\_\+factors}{subsubsection.13.6.4.12}{}}
\@writefile{toc}{\contentsline {subsubsection}{\numberline {13.6.4.13}get\discretionary {\unhbox \voidb@x \hbox {\relax \fontsize  {7}{8}\selectfont  $\DOTSB \leftarrow \joinrel  \rhook $}}{}{}\_\discretionary {\unhbox \voidb@x \hbox {\relax \fontsize  {7}{8}\selectfont  $\DOTSB \leftarrow \joinrel  \rhook $}}{}{}boltzmann\discretionary {\unhbox \voidb@x \hbox {\relax \fontsize  {7}{8}\selectfont  $\DOTSB \leftarrow \joinrel  \rhook $}}{}{}\_\discretionary {\unhbox \voidb@x \hbox {\relax \fontsize  {7}{8}\selectfont  $\DOTSB \leftarrow \joinrel  \rhook $}}{}{}factor\discretionary {\unhbox \voidb@x \hbox {\relax \fontsize  {7}{8}\selectfont  $\DOTSB \leftarrow \joinrel  \rhook $}}{}{}\_\discretionary {\unhbox \voidb@x \hbox {\relax \fontsize  {7}{8}\selectfont  $\DOTSB \leftarrow \joinrel  \rhook $}}{}{}copy}{81}{subsubsection.13.6.4.13}}
\newlabel{group__energy__parameters_ga665a446ba8ff211e551297a8fa36ec27}{{13.6.4.13}{81}{get\+\_\+boltzmann\+\_\+factor\+\_\+copy}{subsubsection.13.6.4.13}{}}
\@writefile{toc}{\contentsline {subsubsection}{\numberline {13.6.4.14}get\discretionary {\unhbox \voidb@x \hbox {\relax \fontsize  {7}{8}\selectfont  $\DOTSB \leftarrow \joinrel  \rhook $}}{}{}\_\discretionary {\unhbox \voidb@x \hbox {\relax \fontsize  {7}{8}\selectfont  $\DOTSB \leftarrow \joinrel  \rhook $}}{}{}scaled\discretionary {\unhbox \voidb@x \hbox {\relax \fontsize  {7}{8}\selectfont  $\DOTSB \leftarrow \joinrel  \rhook $}}{}{}\_\discretionary {\unhbox \voidb@x \hbox {\relax \fontsize  {7}{8}\selectfont  $\DOTSB \leftarrow \joinrel  \rhook $}}{}{}alipf\discretionary {\unhbox \voidb@x \hbox {\relax \fontsize  {7}{8}\selectfont  $\DOTSB \leftarrow \joinrel  \rhook $}}{}{}\_\discretionary {\unhbox \voidb@x \hbox {\relax \fontsize  {7}{8}\selectfont  $\DOTSB \leftarrow \joinrel  \rhook $}}{}{}parameters}{81}{subsubsection.13.6.4.14}}
\newlabel{group__energy__parameters_ga0ccf4e1be085a573533fd6b9da2d8cf9}{{13.6.4.14}{81}{get\+\_\+scaled\+\_\+alipf\+\_\+parameters}{subsubsection.13.6.4.14}{}}
\gdef \PWST@lv{1}
\@writefile{toc}{\contentsline {subsubsection}{\numberline {13.6.4.15}get\discretionary {\unhbox \voidb@x \hbox {\relax \fontsize  {7}{8}\selectfont  $\DOTSB \leftarrow \joinrel  \rhook $}}{}{}\_\discretionary {\unhbox \voidb@x \hbox {\relax \fontsize  {7}{8}\selectfont  $\DOTSB \leftarrow \joinrel  \rhook $}}{}{}boltzmann\discretionary {\unhbox \voidb@x \hbox {\relax \fontsize  {7}{8}\selectfont  $\DOTSB \leftarrow \joinrel  \rhook $}}{}{}\_\discretionary {\unhbox \voidb@x \hbox {\relax \fontsize  {7}{8}\selectfont  $\DOTSB \leftarrow \joinrel  \rhook $}}{}{}factors\discretionary {\unhbox \voidb@x \hbox {\relax \fontsize  {7}{8}\selectfont  $\DOTSB \leftarrow \joinrel  \rhook $}}{}{}\_\discretionary {\unhbox \voidb@x \hbox {\relax \fontsize  {7}{8}\selectfont  $\DOTSB \leftarrow \joinrel  \rhook $}}{}{}ali}{82}{subsubsection.13.6.4.15}}
\newlabel{group__energy__parameters_ga2aa1d87c97f35d2e4121634a17556829}{{13.6.4.15}{82}{get\+\_\+boltzmann\+\_\+factors\+\_\+ali}{subsubsection.13.6.4.15}{}}
\@writefile{toc}{\contentsline {subsubsection}{\numberline {13.6.4.16}scale\discretionary {\unhbox \voidb@x \hbox {\relax \fontsize  {7}{8}\selectfont  $\DOTSB \leftarrow \joinrel  \rhook $}}{}{}\_\discretionary {\unhbox \voidb@x \hbox {\relax \fontsize  {7}{8}\selectfont  $\DOTSB \leftarrow \joinrel  \rhook $}}{}{}parameters}{82}{subsubsection.13.6.4.16}}
\newlabel{group__energy__parameters_ga541f2cf7436e9bc939b0a49b24baf987}{{13.6.4.16}{82}{scale\+\_\+parameters}{subsubsection.13.6.4.16}{}}
\@writefile{toc}{\contentsline {subsubsection}{\numberline {13.6.4.17}get\discretionary {\unhbox \voidb@x \hbox {\relax \fontsize  {7}{8}\selectfont  $\DOTSB \leftarrow \joinrel  \rhook $}}{}{}\_\discretionary {\unhbox \voidb@x \hbox {\relax \fontsize  {7}{8}\selectfont  $\DOTSB \leftarrow \joinrel  \rhook $}}{}{}scaled\discretionary {\unhbox \voidb@x \hbox {\relax \fontsize  {7}{8}\selectfont  $\DOTSB \leftarrow \joinrel  \rhook $}}{}{}\_\discretionary {\unhbox \voidb@x \hbox {\relax \fontsize  {7}{8}\selectfont  $\DOTSB \leftarrow \joinrel  \rhook $}}{}{}parameters}{82}{subsubsection.13.6.4.17}}
\newlabel{group__energy__parameters_ga7fa6a000d7c16feab939f2c4ee626197}{{13.6.4.17}{82}{get\+\_\+scaled\+\_\+parameters}{subsubsection.13.6.4.17}{}}
\@setckpt{group__energy__parameters}{
\setcounter{page}{83}
\setcounter{equation}{0}
\setcounter{enumi}{2}
\setcounter{enumii}{0}
\setcounter{enumiii}{0}
\setcounter{enumiv}{0}
\setcounter{footnote}{0}
\setcounter{mpfootnote}{0}
\setcounter{part}{0}
\setcounter{chapter}{13}
\setcounter{section}{6}
\setcounter{subsection}{4}
\setcounter{subsubsection}{17}
\setcounter{paragraph}{0}
\setcounter{subparagraph}{0}
\setcounter{figure}{0}
\setcounter{table}{0}
\setcounter{float@type}{4}
\setcounter{PWSTtable}{55}
\setcounter{NAT@ctr}{0}
\setcounter{lofdepth}{1}
\setcounter{lotdepth}{1}
\setcounter{parentequation}{0}
\setcounter{Item}{12}
\setcounter{Hfootnote}{0}
\setcounter{bookmark@seq@number}{130}
\setcounter{section@level}{3}
}
