\relax 
\providecommand\hyper@newdestlabel[2]{}
\citation{zuker:1989}
\@writefile{toc}{\contentsline {section}{\numberline {13.15}Suboptimal structures according to Zuker et al. 1989}{140}{section.13.15}}
\newlabel{group__subopt__zuker}{{13.15}{140}{Suboptimal structures according to Zuker et al. 1989}{section.13.15}{}}
\@writefile{toc}{\contentsline {subsection}{\numberline {13.15.1}Detailed Description}{140}{subsection.13.15.1}}
\@writefile{toc}{\contentsline {subsection}{\numberline {13.15.2}Function Documentation}{140}{subsection.13.15.2}}
\@writefile{toc}{\contentsline {subsubsection}{\numberline {13.15.2.1}vrna\discretionary {\unhbox \voidb@x \hbox {\relax \fontsize  {7}{8}\selectfont  $\DOTSB \leftarrow \joinrel  \rhook $}}{}{}\_\discretionary {\unhbox \voidb@x \hbox {\relax \fontsize  {7}{8}\selectfont  $\DOTSB \leftarrow \joinrel  \rhook $}}{}{}subopt\discretionary {\unhbox \voidb@x \hbox {\relax \fontsize  {7}{8}\selectfont  $\DOTSB \leftarrow \joinrel  \rhook $}}{}{}\_\discretionary {\unhbox \voidb@x \hbox {\relax \fontsize  {7}{8}\selectfont  $\DOTSB \leftarrow \joinrel  \rhook $}}{}{}zuker}{140}{subsubsection.13.15.2.1}}
\newlabel{group__subopt__zuker_gac0df98085abd242c7a6b1c868b3a35c8}{{13.15.2.1}{140}{vrna\+\_\+subopt\+\_\+zuker}{subsubsection.13.15.2.1}{}}
\@writefile{brf}{\backcite{zuker:1989}{{140}{13.15.2.1}{subsubsection.13.15.2.1}}}
\gdef \PWST@cx{1}
\gdef \PWST@cxi{1}
\@writefile{toc}{\contentsline {subsubsection}{\numberline {13.15.2.2}zukersubopt}{141}{subsubsection.13.15.2.2}}
\newlabel{group__subopt__zuker_ga0d5104e3ecf119d8eabd40aa5fe47f90}{{13.15.2.2}{141}{zukersubopt}{subsubsection.13.15.2.2}{}}
\@writefile{toc}{\contentsline {subsubsection}{\numberline {13.15.2.3}zukersubopt\discretionary {\unhbox \voidb@x \hbox {\relax \fontsize  {7}{8}\selectfont  $\DOTSB \leftarrow \joinrel  \rhook $}}{}{}\_\discretionary {\unhbox \voidb@x \hbox {\relax \fontsize  {7}{8}\selectfont  $\DOTSB \leftarrow \joinrel  \rhook $}}{}{}par}{141}{subsubsection.13.15.2.3}}
\newlabel{group__subopt__zuker_gab6d0ea8cc1d02f6dd831ca81043c9eb8}{{13.15.2.3}{141}{zukersubopt\+\_\+par}{subsubsection.13.15.2.3}{}}
\@setckpt{group__subopt__zuker}{
\setcounter{page}{142}
\setcounter{equation}{0}
\setcounter{enumi}{2}
\setcounter{enumii}{0}
\setcounter{enumiii}{0}
\setcounter{enumiv}{0}
\setcounter{footnote}{0}
\setcounter{mpfootnote}{0}
\setcounter{part}{0}
\setcounter{chapter}{13}
\setcounter{section}{15}
\setcounter{subsection}{2}
\setcounter{subsubsection}{3}
\setcounter{paragraph}{0}
\setcounter{subparagraph}{0}
\setcounter{figure}{0}
\setcounter{table}{0}
\setcounter{float@type}{4}
\setcounter{PWSTtable}{111}
\setcounter{NAT@ctr}{0}
\setcounter{lofdepth}{1}
\setcounter{lotdepth}{1}
\setcounter{parentequation}{0}
\setcounter{Item}{12}
\setcounter{Hfootnote}{0}
\setcounter{bookmark@seq@number}{306}
\setcounter{section@level}{3}
}
