\relax 
\providecommand\hyper@newdestlabel[2]{}
\@writefile{toc}{\contentsline {section}{\numberline {13.47}Parsing, Converting, and Comparing -\/ Functions to Manipulate Secondary Structures}{263}{section.13.47}}
\newlabel{group__struct__utils}{{13.47}{263}{Parsing, Converting, and Comparing -\/ Functions to Manipulate Secondary Structures}{section.13.47}{}}
\newlabel{group__struct__utils_ga1ee4cdcda1f57d32dcb38032116d335d}{{13.47}{264}{Functions}{section*.152}{}}
\newlabel{group__struct__utils_ga03e15af299be0866ff21da880c74b92e}{{13.47}{264}{Functions}{section*.152}{}}
\newlabel{group__struct__utils_ga0c28c410a5ab22d6ab9c77a84e8d5b44}{{13.47}{264}{Functions}{section*.152}{}}
\newlabel{group__struct__utils_ga025bff1b27fa46534c8fae6980f64bb5}{{13.47}{264}{Functions}{section*.152}{}}
\gdef \PWST@ccxxii{1}
\newlabel{group__struct__utils_ga3f31e0e48125601bfa57b52f8b038e8e}{{13.47}{265}{Variables}{section*.153}{}}
\newlabel{group__struct__utils_ga8218c0d581a3fba2a1a56a196abe19a5}{{13.47}{265}{Variables}{section*.153}{}}
\newlabel{group__struct__utils_gaef14e2f8ab3f61e8e659ba6b9003b08a}{{13.47}{265}{Variables}{section*.153}{}}
\newlabel{group__struct__utils_ga439fcb9f8d4f9f4d2227fde5fbfecb30}{{13.47}{265}{Variables}{section*.153}{}}
\newlabel{group__struct__utils_gadd2f952597e02d66e1116a9d11d252d6}{{13.47}{265}{Variables}{section*.153}{}}
\newlabel{group__struct__utils_ga6341cbb704924824e0236c1dce791032}{{13.47}{265}{Variables}{section*.153}{}}
\@writefile{toc}{\contentsline {subsection}{\numberline {13.47.1}Detailed Description}{265}{subsection.13.47.1}}
\@writefile{toc}{\contentsline {subsection}{\numberline {13.47.2}Data Structure Documentation}{265}{subsection.13.47.2}}
\newlabel{structvrna__hx__s}{{13.47.2}{265}{Data Structure Documentation}{subsection.13.47.2}{}}
\@writefile{toc}{\contentsline {subsubsection}{\numberline {13.47.2.1}struct vrna\discretionary {\unhbox \voidb@x \hbox {\relax \fontsize  {7}{8}\selectfont  $\DOTSB \leftarrow \joinrel  \rhook $}}{}{}\_\discretionary {\unhbox \voidb@x \hbox {\relax \fontsize  {7}{8}\selectfont  $\DOTSB \leftarrow \joinrel  \rhook $}}{}{}hx\discretionary {\unhbox \voidb@x \hbox {\relax \fontsize  {7}{8}\selectfont  $\DOTSB \leftarrow \joinrel  \rhook $}}{}{}\_\discretionary {\unhbox \voidb@x \hbox {\relax \fontsize  {7}{8}\selectfont  $\DOTSB \leftarrow \joinrel  \rhook $}}{}{}s}{265}{subsubsection.13.47.2.1}}
\@writefile{toc}{\contentsline {subsection}{\numberline {13.47.3}Function Documentation}{265}{subsection.13.47.3}}
\@writefile{toc}{\contentsline {subsubsection}{\numberline {13.47.3.1}b2\discretionary {\unhbox \voidb@x \hbox {\relax \fontsize  {7}{8}\selectfont  $\DOTSB \leftarrow \joinrel  \rhook $}}{}{}H\discretionary {\unhbox \voidb@x \hbox {\relax \fontsize  {7}{8}\selectfont  $\DOTSB \leftarrow \joinrel  \rhook $}}{}{}I\discretionary {\unhbox \voidb@x \hbox {\relax \fontsize  {7}{8}\selectfont  $\DOTSB \leftarrow \joinrel  \rhook $}}{}{}T}{265}{subsubsection.13.47.3.1}}
\newlabel{group__struct__utils_ga07b7e90e712559a1992fba3ac6d21bbd}{{13.47.3.1}{265}{b2\+H\+I\+T}{subsubsection.13.47.3.1}{}}
\@writefile{toc}{\contentsline {subsubsection}{\numberline {13.47.3.2}b2\discretionary {\unhbox \voidb@x \hbox {\relax \fontsize  {7}{8}\selectfont  $\DOTSB \leftarrow \joinrel  \rhook $}}{}{}C}{265}{subsubsection.13.47.3.2}}
\newlabel{group__struct__utils_ga9c80d92391f2833549a8b6dac92233f0}{{13.47.3.2}{265}{b2\+C}{subsubsection.13.47.3.2}{}}
\gdef \PWST@ccxxiii{1}
\gdef \PWST@ccxxiv{1}
\gdef \PWST@ccxxv{1}
\gdef \PWST@ccxxvi{1}
\@writefile{toc}{\contentsline {subsubsection}{\numberline {13.47.3.3}b2\discretionary {\unhbox \voidb@x \hbox {\relax \fontsize  {7}{8}\selectfont  $\DOTSB \leftarrow \joinrel  \rhook $}}{}{}Shapiro}{266}{subsubsection.13.47.3.3}}
\newlabel{group__struct__utils_ga5cd2feb367feeacad0c03cb7ddba5f10}{{13.47.3.3}{266}{b2\+Shapiro}{subsubsection.13.47.3.3}{}}
\@writefile{toc}{\contentsline {subsubsection}{\numberline {13.47.3.4}add\discretionary {\unhbox \voidb@x \hbox {\relax \fontsize  {7}{8}\selectfont  $\DOTSB \leftarrow \joinrel  \rhook $}}{}{}\_\discretionary {\unhbox \voidb@x \hbox {\relax \fontsize  {7}{8}\selectfont  $\DOTSB \leftarrow \joinrel  \rhook $}}{}{}root}{266}{subsubsection.13.47.3.4}}
\newlabel{group__struct__utils_ga880d33066dd95441e5fbb73c57ed1c3e}{{13.47.3.4}{266}{add\+\_\+root}{subsubsection.13.47.3.4}{}}
\@writefile{toc}{\contentsline {subsubsection}{\numberline {13.47.3.5}expand\discretionary {\unhbox \voidb@x \hbox {\relax \fontsize  {7}{8}\selectfont  $\DOTSB \leftarrow \joinrel  \rhook $}}{}{}\_\discretionary {\unhbox \voidb@x \hbox {\relax \fontsize  {7}{8}\selectfont  $\DOTSB \leftarrow \joinrel  \rhook $}}{}{}\discretionary {\unhbox \voidb@x \hbox {\relax \fontsize  {7}{8}\selectfont  $\DOTSB \leftarrow \joinrel  \rhook $}}{}{}Shapiro}{266}{subsubsection.13.47.3.5}}
\newlabel{group__struct__utils_gabe3d815b420dc4553bfb23511198b4c6}{{13.47.3.5}{266}{expand\+\_\+\+Shapiro}{subsubsection.13.47.3.5}{}}
\@writefile{toc}{\contentsline {subsubsection}{\numberline {13.47.3.6}expand\discretionary {\unhbox \voidb@x \hbox {\relax \fontsize  {7}{8}\selectfont  $\DOTSB \leftarrow \joinrel  \rhook $}}{}{}\_\discretionary {\unhbox \voidb@x \hbox {\relax \fontsize  {7}{8}\selectfont  $\DOTSB \leftarrow \joinrel  \rhook $}}{}{}\discretionary {\unhbox \voidb@x \hbox {\relax \fontsize  {7}{8}\selectfont  $\DOTSB \leftarrow \joinrel  \rhook $}}{}{}Full}{266}{subsubsection.13.47.3.6}}
\newlabel{group__struct__utils_ga78d73cd54a068ef2812812771cdddc6f}{{13.47.3.6}{266}{expand\+\_\+\+Full}{subsubsection.13.47.3.6}{}}
\gdef \PWST@ccxxvii{1}
\gdef \PWST@ccxxviii{1}
\gdef \PWST@ccxxix{1}
\gdef \PWST@ccxxx{1}
\@writefile{toc}{\contentsline {subsubsection}{\numberline {13.47.3.7}unexpand\discretionary {\unhbox \voidb@x \hbox {\relax \fontsize  {7}{8}\selectfont  $\DOTSB \leftarrow \joinrel  \rhook $}}{}{}\_\discretionary {\unhbox \voidb@x \hbox {\relax \fontsize  {7}{8}\selectfont  $\DOTSB \leftarrow \joinrel  \rhook $}}{}{}\discretionary {\unhbox \voidb@x \hbox {\relax \fontsize  {7}{8}\selectfont  $\DOTSB \leftarrow \joinrel  \rhook $}}{}{}Full}{267}{subsubsection.13.47.3.7}}
\newlabel{group__struct__utils_ga260c4b622093b76a883bf96628280de1}{{13.47.3.7}{267}{unexpand\+\_\+\+Full}{subsubsection.13.47.3.7}{}}
\@writefile{toc}{\contentsline {subsubsection}{\numberline {13.47.3.8}unweight}{267}{subsubsection.13.47.3.8}}
\newlabel{group__struct__utils_ga09a80253ac7b6bae606871ba7c6e5136}{{13.47.3.8}{267}{unweight}{subsubsection.13.47.3.8}{}}
\@writefile{toc}{\contentsline {subsubsection}{\numberline {13.47.3.9}unexpand\discretionary {\unhbox \voidb@x \hbox {\relax \fontsize  {7}{8}\selectfont  $\DOTSB \leftarrow \joinrel  \rhook $}}{}{}\_\discretionary {\unhbox \voidb@x \hbox {\relax \fontsize  {7}{8}\selectfont  $\DOTSB \leftarrow \joinrel  \rhook $}}{}{}aligned\discretionary {\unhbox \voidb@x \hbox {\relax \fontsize  {7}{8}\selectfont  $\DOTSB \leftarrow \joinrel  \rhook $}}{}{}\_\discretionary {\unhbox \voidb@x \hbox {\relax \fontsize  {7}{8}\selectfont  $\DOTSB \leftarrow \joinrel  \rhook $}}{}{}\discretionary {\unhbox \voidb@x \hbox {\relax \fontsize  {7}{8}\selectfont  $\DOTSB \leftarrow \joinrel  \rhook $}}{}{}F}{267}{subsubsection.13.47.3.9}}
\newlabel{group__struct__utils_ga1054c4477d53b31d79d4cb132100e87a}{{13.47.3.9}{267}{unexpand\+\_\+aligned\+\_\+\+F}{subsubsection.13.47.3.9}{}}
\@writefile{toc}{\contentsline {subsubsection}{\numberline {13.47.3.10}parse\discretionary {\unhbox \voidb@x \hbox {\relax \fontsize  {7}{8}\selectfont  $\DOTSB \leftarrow \joinrel  \rhook $}}{}{}\_\discretionary {\unhbox \voidb@x \hbox {\relax \fontsize  {7}{8}\selectfont  $\DOTSB \leftarrow \joinrel  \rhook $}}{}{}structure}{267}{subsubsection.13.47.3.10}}
\newlabel{group__struct__utils_ga3c79042e6bf6f01706bf30ec9e69e8ac}{{13.47.3.10}{267}{parse\+\_\+structure}{subsubsection.13.47.3.10}{}}
\gdef \PWST@ccxxxi{1}
\gdef \PWST@ccxxxii{1}
\gdef \PWST@ccxxxiii{1}
\@writefile{toc}{\contentsline {subsubsection}{\numberline {13.47.3.11}vrna\discretionary {\unhbox \voidb@x \hbox {\relax \fontsize  {7}{8}\selectfont  $\DOTSB \leftarrow \joinrel  \rhook $}}{}{}\_\discretionary {\unhbox \voidb@x \hbox {\relax \fontsize  {7}{8}\selectfont  $\DOTSB \leftarrow \joinrel  \rhook $}}{}{}db\discretionary {\unhbox \voidb@x \hbox {\relax \fontsize  {7}{8}\selectfont  $\DOTSB \leftarrow \joinrel  \rhook $}}{}{}\_\discretionary {\unhbox \voidb@x \hbox {\relax \fontsize  {7}{8}\selectfont  $\DOTSB \leftarrow \joinrel  \rhook $}}{}{}pack}{268}{subsubsection.13.47.3.11}}
\newlabel{group__struct__utils_ga55c4783060a1464f862f858d5599c9e1}{{13.47.3.11}{268}{vrna\+\_\+db\+\_\+pack}{subsubsection.13.47.3.11}{}}
\@writefile{toc}{\contentsline {subsubsection}{\numberline {13.47.3.12}vrna\discretionary {\unhbox \voidb@x \hbox {\relax \fontsize  {7}{8}\selectfont  $\DOTSB \leftarrow \joinrel  \rhook $}}{}{}\_\discretionary {\unhbox \voidb@x \hbox {\relax \fontsize  {7}{8}\selectfont  $\DOTSB \leftarrow \joinrel  \rhook $}}{}{}db\discretionary {\unhbox \voidb@x \hbox {\relax \fontsize  {7}{8}\selectfont  $\DOTSB \leftarrow \joinrel  \rhook $}}{}{}\_\discretionary {\unhbox \voidb@x \hbox {\relax \fontsize  {7}{8}\selectfont  $\DOTSB \leftarrow \joinrel  \rhook $}}{}{}unpack}{268}{subsubsection.13.47.3.12}}
\newlabel{group__struct__utils_ga6490adff857d84ce06e6f379ae3a4512}{{13.47.3.12}{268}{vrna\+\_\+db\+\_\+unpack}{subsubsection.13.47.3.12}{}}
\@writefile{toc}{\contentsline {subsubsection}{\numberline {13.47.3.13}vrna\discretionary {\unhbox \voidb@x \hbox {\relax \fontsize  {7}{8}\selectfont  $\DOTSB \leftarrow \joinrel  \rhook $}}{}{}\_\discretionary {\unhbox \voidb@x \hbox {\relax \fontsize  {7}{8}\selectfont  $\DOTSB \leftarrow \joinrel  \rhook $}}{}{}ptable}{268}{subsubsection.13.47.3.13}}
\newlabel{group__struct__utils_gae829fb8bb7f694c12a9c0bbc34c77c60}{{13.47.3.13}{268}{vrna\+\_\+ptable}{subsubsection.13.47.3.13}{}}
\gdef \PWST@ccxxxiv{1}
\gdef \PWST@ccxxxv{1}
\gdef \PWST@ccxxxvi{1}
\@writefile{toc}{\contentsline {subsubsection}{\numberline {13.47.3.14}vrna\discretionary {\unhbox \voidb@x \hbox {\relax \fontsize  {7}{8}\selectfont  $\DOTSB \leftarrow \joinrel  \rhook $}}{}{}\_\discretionary {\unhbox \voidb@x \hbox {\relax \fontsize  {7}{8}\selectfont  $\DOTSB \leftarrow \joinrel  \rhook $}}{}{}pt\discretionary {\unhbox \voidb@x \hbox {\relax \fontsize  {7}{8}\selectfont  $\DOTSB \leftarrow \joinrel  \rhook $}}{}{}\_\discretionary {\unhbox \voidb@x \hbox {\relax \fontsize  {7}{8}\selectfont  $\DOTSB \leftarrow \joinrel  \rhook $}}{}{}pk\discretionary {\unhbox \voidb@x \hbox {\relax \fontsize  {7}{8}\selectfont  $\DOTSB \leftarrow \joinrel  \rhook $}}{}{}\_\discretionary {\unhbox \voidb@x \hbox {\relax \fontsize  {7}{8}\selectfont  $\DOTSB \leftarrow \joinrel  \rhook $}}{}{}get}{269}{subsubsection.13.47.3.14}}
\newlabel{group__struct__utils_gacca520048b24ec5a8978f4dafb4e4bf8}{{13.47.3.14}{269}{vrna\+\_\+pt\+\_\+pk\+\_\+get}{subsubsection.13.47.3.14}{}}
\@writefile{toc}{\contentsline {subsubsection}{\numberline {13.47.3.15}vrna\discretionary {\unhbox \voidb@x \hbox {\relax \fontsize  {7}{8}\selectfont  $\DOTSB \leftarrow \joinrel  \rhook $}}{}{}\_\discretionary {\unhbox \voidb@x \hbox {\relax \fontsize  {7}{8}\selectfont  $\DOTSB \leftarrow \joinrel  \rhook $}}{}{}ptable\discretionary {\unhbox \voidb@x \hbox {\relax \fontsize  {7}{8}\selectfont  $\DOTSB \leftarrow \joinrel  \rhook $}}{}{}\_\discretionary {\unhbox \voidb@x \hbox {\relax \fontsize  {7}{8}\selectfont  $\DOTSB \leftarrow \joinrel  \rhook $}}{}{}copy}{269}{subsubsection.13.47.3.15}}
\newlabel{group__struct__utils_ga2daefbbd6d9f8803731651882f54332d}{{13.47.3.15}{269}{vrna\+\_\+ptable\+\_\+copy}{subsubsection.13.47.3.15}{}}
\@writefile{toc}{\contentsline {subsubsection}{\numberline {13.47.3.16}vrna\discretionary {\unhbox \voidb@x \hbox {\relax \fontsize  {7}{8}\selectfont  $\DOTSB \leftarrow \joinrel  \rhook $}}{}{}\_\discretionary {\unhbox \voidb@x \hbox {\relax \fontsize  {7}{8}\selectfont  $\DOTSB \leftarrow \joinrel  \rhook $}}{}{}pt\discretionary {\unhbox \voidb@x \hbox {\relax \fontsize  {7}{8}\selectfont  $\DOTSB \leftarrow \joinrel  \rhook $}}{}{}\_\discretionary {\unhbox \voidb@x \hbox {\relax \fontsize  {7}{8}\selectfont  $\DOTSB \leftarrow \joinrel  \rhook $}}{}{}snoop\discretionary {\unhbox \voidb@x \hbox {\relax \fontsize  {7}{8}\selectfont  $\DOTSB \leftarrow \joinrel  \rhook $}}{}{}\_\discretionary {\unhbox \voidb@x \hbox {\relax \fontsize  {7}{8}\selectfont  $\DOTSB \leftarrow \joinrel  \rhook $}}{}{}get}{269}{subsubsection.13.47.3.16}}
\newlabel{group__struct__utils_gaef0f7e1a6c00c81a349973de53039dda}{{13.47.3.16}{269}{vrna\+\_\+pt\+\_\+snoop\+\_\+get}{subsubsection.13.47.3.16}{}}
\@writefile{toc}{\contentsline {subsubsection}{\numberline {13.47.3.17}vrna\discretionary {\unhbox \voidb@x \hbox {\relax \fontsize  {7}{8}\selectfont  $\DOTSB \leftarrow \joinrel  \rhook $}}{}{}\_\discretionary {\unhbox \voidb@x \hbox {\relax \fontsize  {7}{8}\selectfont  $\DOTSB \leftarrow \joinrel  \rhook $}}{}{}db\discretionary {\unhbox \voidb@x \hbox {\relax \fontsize  {7}{8}\selectfont  $\DOTSB \leftarrow \joinrel  \rhook $}}{}{}\_\discretionary {\unhbox \voidb@x \hbox {\relax \fontsize  {7}{8}\selectfont  $\DOTSB \leftarrow \joinrel  \rhook $}}{}{}from\discretionary {\unhbox \voidb@x \hbox {\relax \fontsize  {7}{8}\selectfont  $\DOTSB \leftarrow \joinrel  \rhook $}}{}{}\_\discretionary {\unhbox \voidb@x \hbox {\relax \fontsize  {7}{8}\selectfont  $\DOTSB \leftarrow \joinrel  \rhook $}}{}{}ptable}{269}{subsubsection.13.47.3.17}}
\newlabel{group__struct__utils_gaf9ecd0d7877fecdbb0292e24f40283d5}{{13.47.3.17}{269}{vrna\+\_\+db\+\_\+from\+\_\+ptable}{subsubsection.13.47.3.17}{}}
\gdef \PWST@ccxxxvii{1}
\gdef \PWST@ccxxxviii{1}
\gdef \PWST@ccxxxix{1}
\@writefile{toc}{\contentsline {subsubsection}{\numberline {13.47.3.18}vrna\discretionary {\unhbox \voidb@x \hbox {\relax \fontsize  {7}{8}\selectfont  $\DOTSB \leftarrow \joinrel  \rhook $}}{}{}\_\discretionary {\unhbox \voidb@x \hbox {\relax \fontsize  {7}{8}\selectfont  $\DOTSB \leftarrow \joinrel  \rhook $}}{}{}bp\discretionary {\unhbox \voidb@x \hbox {\relax \fontsize  {7}{8}\selectfont  $\DOTSB \leftarrow \joinrel  \rhook $}}{}{}\_\discretionary {\unhbox \voidb@x \hbox {\relax \fontsize  {7}{8}\selectfont  $\DOTSB \leftarrow \joinrel  \rhook $}}{}{}distance}{270}{subsubsection.13.47.3.18}}
\newlabel{group__struct__utils_ga65bdfbac6a16bf30286e8a3f7d15f60a}{{13.47.3.18}{270}{vrna\+\_\+bp\+\_\+distance}{subsubsection.13.47.3.18}{}}
\@writefile{toc}{\contentsline {subsubsection}{\numberline {13.47.3.19}vrna\discretionary {\unhbox \voidb@x \hbox {\relax \fontsize  {7}{8}\selectfont  $\DOTSB \leftarrow \joinrel  \rhook $}}{}{}\_\discretionary {\unhbox \voidb@x \hbox {\relax \fontsize  {7}{8}\selectfont  $\DOTSB \leftarrow \joinrel  \rhook $}}{}{}ref\discretionary {\unhbox \voidb@x \hbox {\relax \fontsize  {7}{8}\selectfont  $\DOTSB \leftarrow \joinrel  \rhook $}}{}{}B\discretionary {\unhbox \voidb@x \hbox {\relax \fontsize  {7}{8}\selectfont  $\DOTSB \leftarrow \joinrel  \rhook $}}{}{}Pcnt\discretionary {\unhbox \voidb@x \hbox {\relax \fontsize  {7}{8}\selectfont  $\DOTSB \leftarrow \joinrel  \rhook $}}{}{}\_\discretionary {\unhbox \voidb@x \hbox {\relax \fontsize  {7}{8}\selectfont  $\DOTSB \leftarrow \joinrel  \rhook $}}{}{}matrix}{270}{subsubsection.13.47.3.19}}
\newlabel{group__struct__utils_gab4c2a00c99ce1d612ffa5bde114eb96d}{{13.47.3.19}{270}{vrna\+\_\+ref\+B\+Pcnt\+\_\+matrix}{subsubsection.13.47.3.19}{}}
\@writefile{toc}{\contentsline {subsubsection}{\numberline {13.47.3.20}vrna\discretionary {\unhbox \voidb@x \hbox {\relax \fontsize  {7}{8}\selectfont  $\DOTSB \leftarrow \joinrel  \rhook $}}{}{}\_\discretionary {\unhbox \voidb@x \hbox {\relax \fontsize  {7}{8}\selectfont  $\DOTSB \leftarrow \joinrel  \rhook $}}{}{}ref\discretionary {\unhbox \voidb@x \hbox {\relax \fontsize  {7}{8}\selectfont  $\DOTSB \leftarrow \joinrel  \rhook $}}{}{}B\discretionary {\unhbox \voidb@x \hbox {\relax \fontsize  {7}{8}\selectfont  $\DOTSB \leftarrow \joinrel  \rhook $}}{}{}Pdist\discretionary {\unhbox \voidb@x \hbox {\relax \fontsize  {7}{8}\selectfont  $\DOTSB \leftarrow \joinrel  \rhook $}}{}{}\_\discretionary {\unhbox \voidb@x \hbox {\relax \fontsize  {7}{8}\selectfont  $\DOTSB \leftarrow \joinrel  \rhook $}}{}{}matrix}{270}{subsubsection.13.47.3.20}}
\newlabel{group__struct__utils_ga5a27bd058183170afd4716f5b8ff511a}{{13.47.3.20}{270}{vrna\+\_\+ref\+B\+Pdist\+\_\+matrix}{subsubsection.13.47.3.20}{}}
\@writefile{toc}{\contentsline {subsubsection}{\numberline {13.47.3.21}vrna\discretionary {\unhbox \voidb@x \hbox {\relax \fontsize  {7}{8}\selectfont  $\DOTSB \leftarrow \joinrel  \rhook $}}{}{}\_\discretionary {\unhbox \voidb@x \hbox {\relax \fontsize  {7}{8}\selectfont  $\DOTSB \leftarrow \joinrel  \rhook $}}{}{}db\discretionary {\unhbox \voidb@x \hbox {\relax \fontsize  {7}{8}\selectfont  $\DOTSB \leftarrow \joinrel  \rhook $}}{}{}\_\discretionary {\unhbox \voidb@x \hbox {\relax \fontsize  {7}{8}\selectfont  $\DOTSB \leftarrow \joinrel  \rhook $}}{}{}from\discretionary {\unhbox \voidb@x \hbox {\relax \fontsize  {7}{8}\selectfont  $\DOTSB \leftarrow \joinrel  \rhook $}}{}{}\_\discretionary {\unhbox \voidb@x \hbox {\relax \fontsize  {7}{8}\selectfont  $\DOTSB \leftarrow \joinrel  \rhook $}}{}{}bp\discretionary {\unhbox \voidb@x \hbox {\relax \fontsize  {7}{8}\selectfont  $\DOTSB \leftarrow \joinrel  \rhook $}}{}{}\_\discretionary {\unhbox \voidb@x \hbox {\relax \fontsize  {7}{8}\selectfont  $\DOTSB \leftarrow \joinrel  \rhook $}}{}{}stack}{270}{subsubsection.13.47.3.21}}
\newlabel{group__struct__utils_ga27bea2c241564af53a065982183389df}{{13.47.3.21}{270}{vrna\+\_\+db\+\_\+from\+\_\+bp\+\_\+stack}{subsubsection.13.47.3.21}{}}
\gdef \PWST@ccxl{1}
\gdef \PWST@ccxli{1}
\@writefile{toc}{\contentsline {subsubsection}{\numberline {13.47.3.22}vrna\discretionary {\unhbox \voidb@x \hbox {\relax \fontsize  {7}{8}\selectfont  $\DOTSB \leftarrow \joinrel  \rhook $}}{}{}\_\discretionary {\unhbox \voidb@x \hbox {\relax \fontsize  {7}{8}\selectfont  $\DOTSB \leftarrow \joinrel  \rhook $}}{}{}plist}{271}{subsubsection.13.47.3.22}}
\newlabel{group__struct__utils_gad4448f5d2c2da0e4ab1731a3586b2542}{{13.47.3.22}{271}{vrna\+\_\+plist}{subsubsection.13.47.3.22}{}}
\@writefile{toc}{\contentsline {subsubsection}{\numberline {13.47.3.23}vrna\discretionary {\unhbox \voidb@x \hbox {\relax \fontsize  {7}{8}\selectfont  $\DOTSB \leftarrow \joinrel  \rhook $}}{}{}\_\discretionary {\unhbox \voidb@x \hbox {\relax \fontsize  {7}{8}\selectfont  $\DOTSB \leftarrow \joinrel  \rhook $}}{}{}db\discretionary {\unhbox \voidb@x \hbox {\relax \fontsize  {7}{8}\selectfont  $\DOTSB \leftarrow \joinrel  \rhook $}}{}{}\_\discretionary {\unhbox \voidb@x \hbox {\relax \fontsize  {7}{8}\selectfont  $\DOTSB \leftarrow \joinrel  \rhook $}}{}{}from\discretionary {\unhbox \voidb@x \hbox {\relax \fontsize  {7}{8}\selectfont  $\DOTSB \leftarrow \joinrel  \rhook $}}{}{}\_\discretionary {\unhbox \voidb@x \hbox {\relax \fontsize  {7}{8}\selectfont  $\DOTSB \leftarrow \joinrel  \rhook $}}{}{}plist}{271}{subsubsection.13.47.3.23}}
\newlabel{group__struct__utils_gab6a7a36c90836880f7ab09b9f6baf1af}{{13.47.3.23}{271}{vrna\+\_\+db\+\_\+from\+\_\+plist}{subsubsection.13.47.3.23}{}}
\@writefile{toc}{\contentsline {subsubsection}{\numberline {13.47.3.24}assign\discretionary {\unhbox \voidb@x \hbox {\relax \fontsize  {7}{8}\selectfont  $\DOTSB \leftarrow \joinrel  \rhook $}}{}{}\_\discretionary {\unhbox \voidb@x \hbox {\relax \fontsize  {7}{8}\selectfont  $\DOTSB \leftarrow \joinrel  \rhook $}}{}{}plist\discretionary {\unhbox \voidb@x \hbox {\relax \fontsize  {7}{8}\selectfont  $\DOTSB \leftarrow \joinrel  \rhook $}}{}{}\_\discretionary {\unhbox \voidb@x \hbox {\relax \fontsize  {7}{8}\selectfont  $\DOTSB \leftarrow \joinrel  \rhook $}}{}{}from\discretionary {\unhbox \voidb@x \hbox {\relax \fontsize  {7}{8}\selectfont  $\DOTSB \leftarrow \joinrel  \rhook $}}{}{}\_\discretionary {\unhbox \voidb@x \hbox {\relax \fontsize  {7}{8}\selectfont  $\DOTSB \leftarrow \joinrel  \rhook $}}{}{}db}{271}{subsubsection.13.47.3.24}}
\newlabel{group__struct__utils_ga6f3031d77de925a7b4ca72e1d52dec2f}{{13.47.3.24}{271}{assign\+\_\+plist\+\_\+from\+\_\+db}{subsubsection.13.47.3.24}{}}
\gdef \PWST@ccxlii{2}
\gdef \PWST@ccxliii{1}
\gdef \PWST@ccxliv{1}
\@writefile{toc}{\contentsline {subsubsection}{\numberline {13.47.3.25}pack\discretionary {\unhbox \voidb@x \hbox {\relax \fontsize  {7}{8}\selectfont  $\DOTSB \leftarrow \joinrel  \rhook $}}{}{}\_\discretionary {\unhbox \voidb@x \hbox {\relax \fontsize  {7}{8}\selectfont  $\DOTSB \leftarrow \joinrel  \rhook $}}{}{}structure}{272}{subsubsection.13.47.3.25}}
\newlabel{group__struct__utils_gac6dfa5e22928c087c6e09ff0054a7ced}{{13.47.3.25}{272}{pack\+\_\+structure}{subsubsection.13.47.3.25}{}}
\@writefile{toc}{\contentsline {subsubsection}{\numberline {13.47.3.26}unpack\discretionary {\unhbox \voidb@x \hbox {\relax \fontsize  {7}{8}\selectfont  $\DOTSB \leftarrow \joinrel  \rhook $}}{}{}\_\discretionary {\unhbox \voidb@x \hbox {\relax \fontsize  {7}{8}\selectfont  $\DOTSB \leftarrow \joinrel  \rhook $}}{}{}structure}{272}{subsubsection.13.47.3.26}}
\newlabel{group__struct__utils_ga071c6921efe1eb974f115ee6fefa3c39}{{13.47.3.26}{272}{unpack\+\_\+structure}{subsubsection.13.47.3.26}{}}
\@writefile{toc}{\contentsline {subsubsection}{\numberline {13.47.3.27}make\discretionary {\unhbox \voidb@x \hbox {\relax \fontsize  {7}{8}\selectfont  $\DOTSB \leftarrow \joinrel  \rhook $}}{}{}\_\discretionary {\unhbox \voidb@x \hbox {\relax \fontsize  {7}{8}\selectfont  $\DOTSB \leftarrow \joinrel  \rhook $}}{}{}pair\discretionary {\unhbox \voidb@x \hbox {\relax \fontsize  {7}{8}\selectfont  $\DOTSB \leftarrow \joinrel  \rhook $}}{}{}\_\discretionary {\unhbox \voidb@x \hbox {\relax \fontsize  {7}{8}\selectfont  $\DOTSB \leftarrow \joinrel  \rhook $}}{}{}table}{272}{subsubsection.13.47.3.27}}
\newlabel{group__struct__utils_ga89c32307ee50a0026f4a3131fac0845a}{{13.47.3.27}{272}{make\+\_\+pair\+\_\+table}{subsubsection.13.47.3.27}{}}
\gdef \PWST@ccxlv{2}
\gdef \PWST@ccxlvi{1}
\@writefile{toc}{\contentsline {subsubsection}{\numberline {13.47.3.28}copy\discretionary {\unhbox \voidb@x \hbox {\relax \fontsize  {7}{8}\selectfont  $\DOTSB \leftarrow \joinrel  \rhook $}}{}{}\_\discretionary {\unhbox \voidb@x \hbox {\relax \fontsize  {7}{8}\selectfont  $\DOTSB \leftarrow \joinrel  \rhook $}}{}{}pair\discretionary {\unhbox \voidb@x \hbox {\relax \fontsize  {7}{8}\selectfont  $\DOTSB \leftarrow \joinrel  \rhook $}}{}{}\_\discretionary {\unhbox \voidb@x \hbox {\relax \fontsize  {7}{8}\selectfont  $\DOTSB \leftarrow \joinrel  \rhook $}}{}{}table}{273}{subsubsection.13.47.3.28}}
\newlabel{group__struct__utils_gafeaa6d68eef3a99d0a7aa08aa91c6601}{{13.47.3.28}{273}{copy\+\_\+pair\+\_\+table}{subsubsection.13.47.3.28}{}}
\@writefile{toc}{\contentsline {subsubsection}{\numberline {13.47.3.29}alimake\discretionary {\unhbox \voidb@x \hbox {\relax \fontsize  {7}{8}\selectfont  $\DOTSB \leftarrow \joinrel  \rhook $}}{}{}\_\discretionary {\unhbox \voidb@x \hbox {\relax \fontsize  {7}{8}\selectfont  $\DOTSB \leftarrow \joinrel  \rhook $}}{}{}pair\discretionary {\unhbox \voidb@x \hbox {\relax \fontsize  {7}{8}\selectfont  $\DOTSB \leftarrow \joinrel  \rhook $}}{}{}\_\discretionary {\unhbox \voidb@x \hbox {\relax \fontsize  {7}{8}\selectfont  $\DOTSB \leftarrow \joinrel  \rhook $}}{}{}table}{273}{subsubsection.13.47.3.29}}
\newlabel{group__struct__utils_ga3c81b3967056c3888b8472b65fbb16f5}{{13.47.3.29}{273}{alimake\+\_\+pair\+\_\+table}{subsubsection.13.47.3.29}{}}
\@writefile{toc}{\contentsline {subsubsection}{\numberline {13.47.3.30}make\discretionary {\unhbox \voidb@x \hbox {\relax \fontsize  {7}{8}\selectfont  $\DOTSB \leftarrow \joinrel  \rhook $}}{}{}\_\discretionary {\unhbox \voidb@x \hbox {\relax \fontsize  {7}{8}\selectfont  $\DOTSB \leftarrow \joinrel  \rhook $}}{}{}pair\discretionary {\unhbox \voidb@x \hbox {\relax \fontsize  {7}{8}\selectfont  $\DOTSB \leftarrow \joinrel  \rhook $}}{}{}\_\discretionary {\unhbox \voidb@x \hbox {\relax \fontsize  {7}{8}\selectfont  $\DOTSB \leftarrow \joinrel  \rhook $}}{}{}table\discretionary {\unhbox \voidb@x \hbox {\relax \fontsize  {7}{8}\selectfont  $\DOTSB \leftarrow \joinrel  \rhook $}}{}{}\_\discretionary {\unhbox \voidb@x \hbox {\relax \fontsize  {7}{8}\selectfont  $\DOTSB \leftarrow \joinrel  \rhook $}}{}{}snoop}{273}{subsubsection.13.47.3.30}}
\newlabel{group__struct__utils_ga9aa3bf3b4346bb7fb88efc154dd07a79}{{13.47.3.30}{273}{make\+\_\+pair\+\_\+table\+\_\+snoop}{subsubsection.13.47.3.30}{}}
\@writefile{toc}{\contentsline {subsubsection}{\numberline {13.47.3.31}bp\discretionary {\unhbox \voidb@x \hbox {\relax \fontsize  {7}{8}\selectfont  $\DOTSB \leftarrow \joinrel  \rhook $}}{}{}\_\discretionary {\unhbox \voidb@x \hbox {\relax \fontsize  {7}{8}\selectfont  $\DOTSB \leftarrow \joinrel  \rhook $}}{}{}distance}{273}{subsubsection.13.47.3.31}}
\newlabel{group__struct__utils_ga6ebbcd29a754f0e4f1a66d1fd84184db}{{13.47.3.31}{273}{bp\+\_\+distance}{subsubsection.13.47.3.31}{}}
\gdef \PWST@ccxlvii{1}
\@writefile{toc}{\contentsline {subsubsection}{\numberline {13.47.3.32}make\discretionary {\unhbox \voidb@x \hbox {\relax \fontsize  {7}{8}\selectfont  $\DOTSB \leftarrow \joinrel  \rhook $}}{}{}\_\discretionary {\unhbox \voidb@x \hbox {\relax \fontsize  {7}{8}\selectfont  $\DOTSB \leftarrow \joinrel  \rhook $}}{}{}reference\discretionary {\unhbox \voidb@x \hbox {\relax \fontsize  {7}{8}\selectfont  $\DOTSB \leftarrow \joinrel  \rhook $}}{}{}B\discretionary {\unhbox \voidb@x \hbox {\relax \fontsize  {7}{8}\selectfont  $\DOTSB \leftarrow \joinrel  \rhook $}}{}{}P\discretionary {\unhbox \voidb@x \hbox {\relax \fontsize  {7}{8}\selectfont  $\DOTSB \leftarrow \joinrel  \rhook $}}{}{}\_\discretionary {\unhbox \voidb@x \hbox {\relax \fontsize  {7}{8}\selectfont  $\DOTSB \leftarrow \joinrel  \rhook $}}{}{}array}{274}{subsubsection.13.47.3.32}}
\newlabel{group__struct__utils_ga578cd9712dee812fb1c58aa3cc489864}{{13.47.3.32}{274}{make\+\_\+reference\+B\+P\+\_\+array}{subsubsection.13.47.3.32}{}}
\@writefile{toc}{\contentsline {subsubsection}{\numberline {13.47.3.33}compute\discretionary {\unhbox \voidb@x \hbox {\relax \fontsize  {7}{8}\selectfont  $\DOTSB \leftarrow \joinrel  \rhook $}}{}{}\_\discretionary {\unhbox \voidb@x \hbox {\relax \fontsize  {7}{8}\selectfont  $\DOTSB \leftarrow \joinrel  \rhook $}}{}{}\discretionary {\unhbox \voidb@x \hbox {\relax \fontsize  {7}{8}\selectfont  $\DOTSB \leftarrow \joinrel  \rhook $}}{}{}B\discretionary {\unhbox \voidb@x \hbox {\relax \fontsize  {7}{8}\selectfont  $\DOTSB \leftarrow \joinrel  \rhook $}}{}{}Pdifferences}{274}{subsubsection.13.47.3.33}}
\newlabel{group__struct__utils_gadd463184355d0803b6ee6e09f29182f2}{{13.47.3.33}{274}{compute\+\_\+\+B\+Pdifferences}{subsubsection.13.47.3.33}{}}
\@writefile{toc}{\contentsline {subsubsection}{\numberline {13.47.3.34}parenthesis\discretionary {\unhbox \voidb@x \hbox {\relax \fontsize  {7}{8}\selectfont  $\DOTSB \leftarrow \joinrel  \rhook $}}{}{}\_\discretionary {\unhbox \voidb@x \hbox {\relax \fontsize  {7}{8}\selectfont  $\DOTSB \leftarrow \joinrel  \rhook $}}{}{}structure}{274}{subsubsection.13.47.3.34}}
\newlabel{group__struct__utils_gadf0ad2d46c9ca7b850437d1b79627a7e}{{13.47.3.34}{274}{parenthesis\+\_\+structure}{subsubsection.13.47.3.34}{}}
\@writefile{toc}{\contentsline {subsubsection}{\numberline {13.47.3.35}parenthesis\discretionary {\unhbox \voidb@x \hbox {\relax \fontsize  {7}{8}\selectfont  $\DOTSB \leftarrow \joinrel  \rhook $}}{}{}\_\discretionary {\unhbox \voidb@x \hbox {\relax \fontsize  {7}{8}\selectfont  $\DOTSB \leftarrow \joinrel  \rhook $}}{}{}zuker}{274}{subsubsection.13.47.3.35}}
\newlabel{group__struct__utils_gab9c5c8311bd5120900585d4fa50c2df0}{{13.47.3.35}{274}{parenthesis\+\_\+zuker}{subsubsection.13.47.3.35}{}}
\@writefile{toc}{\contentsline {subsubsection}{\numberline {13.47.3.36}bppm\discretionary {\unhbox \voidb@x \hbox {\relax \fontsize  {7}{8}\selectfont  $\DOTSB \leftarrow \joinrel  \rhook $}}{}{}\_\discretionary {\unhbox \voidb@x \hbox {\relax \fontsize  {7}{8}\selectfont  $\DOTSB \leftarrow \joinrel  \rhook $}}{}{}to\discretionary {\unhbox \voidb@x \hbox {\relax \fontsize  {7}{8}\selectfont  $\DOTSB \leftarrow \joinrel  \rhook $}}{}{}\_\discretionary {\unhbox \voidb@x \hbox {\relax \fontsize  {7}{8}\selectfont  $\DOTSB \leftarrow \joinrel  \rhook $}}{}{}structure}{275}{subsubsection.13.47.3.36}}
\newlabel{group__struct__utils_ga129d81c4a1ead793c5b2311333e03dfa}{{13.47.3.36}{275}{bppm\+\_\+to\+\_\+structure}{subsubsection.13.47.3.36}{}}
\@writefile{toc}{\contentsline {subsubsection}{\numberline {13.47.3.37}bppm\discretionary {\unhbox \voidb@x \hbox {\relax \fontsize  {7}{8}\selectfont  $\DOTSB \leftarrow \joinrel  \rhook $}}{}{}\_\discretionary {\unhbox \voidb@x \hbox {\relax \fontsize  {7}{8}\selectfont  $\DOTSB \leftarrow \joinrel  \rhook $}}{}{}symbol}{275}{subsubsection.13.47.3.37}}
\newlabel{group__struct__utils_ga49962ad6242b8c628de6ca16bb831c1d}{{13.47.3.37}{275}{bppm\+\_\+symbol}{subsubsection.13.47.3.37}{}}
\@setckpt{group__struct__utils}{
\setcounter{page}{276}
\setcounter{equation}{0}
\setcounter{enumi}{2}
\setcounter{enumii}{0}
\setcounter{enumiii}{0}
\setcounter{enumiv}{0}
\setcounter{footnote}{0}
\setcounter{mpfootnote}{0}
\setcounter{part}{0}
\setcounter{chapter}{13}
\setcounter{section}{47}
\setcounter{subsection}{3}
\setcounter{subsubsection}{37}
\setcounter{paragraph}{0}
\setcounter{subparagraph}{0}
\setcounter{figure}{0}
\setcounter{table}{0}
\setcounter{float@type}{4}
\setcounter{PWSTtable}{247}
\setcounter{NAT@ctr}{0}
\setcounter{lofdepth}{1}
\setcounter{lotdepth}{1}
\setcounter{parentequation}{0}
\setcounter{Item}{12}
\setcounter{Hfootnote}{0}
\setcounter{bookmark@seq@number}{664}
\setcounter{section@level}{3}
}
