\relax 
\providecommand\hyper@newdestlabel[2]{}
\@writefile{toc}{\contentsline {section}{\numberline {13.21}Partition Function for two hybridized Sequences}{159}{section.13.21}}
\newlabel{group__pf__cofold}{{13.21}{159}{Partition Function for two hybridized Sequences}{section.13.21}{}}
\newlabel{group__pf__cofold_ga444df1587c9a2ca15b8eb25188f629c3}{{13.21}{159}{Typedefs}{section*.71}{}}
\newlabel{group__pf__cofold_gac48c2723444ecfdceafcfd525ca98322}{{13.21}{159}{Typedefs}{section*.71}{}}
\citation{bernhart:2006}
\newlabel{group__pf__cofold_gaff27888c4088cc1f60fd59cbd589474c}{{13.21}{160}{Variables}{section*.73}{}}
\newlabel{group__pf__cofold_gac2d1851a710a8561390861155ca988fe}{{13.21}{160}{Variables}{section*.73}{}}
\@writefile{toc}{\contentsline {subsection}{\numberline {13.21.1}Detailed Description}{160}{subsection.13.21.1}}
\@writefile{brf}{\backcite{bernhart:2006}{{160}{13.21.1}{subsection.13.21.1}}}
\@writefile{toc}{\contentsline {subsection}{\numberline {13.21.2}Data Structure Documentation}{160}{subsection.13.21.2}}
\newlabel{structvrna__dimer__pf__s}{{13.21.2}{160}{Data Structure Documentation}{subsection.13.21.2}{}}
\@writefile{toc}{\contentsline {subsubsection}{\numberline {13.21.2.1}struct vrna\discretionary {\unhbox \voidb@x \hbox {\relax \fontsize  {7}{8}\selectfont  $\DOTSB \leftarrow \joinrel  \rhook $}}{}{}\_\discretionary {\unhbox \voidb@x \hbox {\relax \fontsize  {7}{8}\selectfont  $\DOTSB \leftarrow \joinrel  \rhook $}}{}{}dimer\discretionary {\unhbox \voidb@x \hbox {\relax \fontsize  {7}{8}\selectfont  $\DOTSB \leftarrow \joinrel  \rhook $}}{}{}\_\discretionary {\unhbox \voidb@x \hbox {\relax \fontsize  {7}{8}\selectfont  $\DOTSB \leftarrow \joinrel  \rhook $}}{}{}pf\discretionary {\unhbox \voidb@x \hbox {\relax \fontsize  {7}{8}\selectfont  $\DOTSB \leftarrow \joinrel  \rhook $}}{}{}\_\discretionary {\unhbox \voidb@x \hbox {\relax \fontsize  {7}{8}\selectfont  $\DOTSB \leftarrow \joinrel  \rhook $}}{}{}s}{160}{subsubsection.13.21.2.1}}
\newlabel{group__pf__cofold_a82e31d1fb6e95923fab6036f52c370af}{{13.21.2.1}{160}{Data Fields}{section*.74}{}}
\newlabel{group__pf__cofold_a01a87f59db2b7fbf883b056e6f6c673a}{{13.21.2.1}{160}{Data Fields}{section*.74}{}}
\newlabel{group__pf__cofold_a7b01cea5721f61badebc29cf0a9c4266}{{13.21.2.1}{160}{Data Fields}{section*.74}{}}
\newlabel{group__pf__cofold_a1aca57247f2c023d08028b1919005b0a}{{13.21.2.1}{160}{Data Fields}{section*.74}{}}
\newlabel{group__pf__cofold_ab4d307be5400604d3c1d84d58a9981df}{{13.21.2.1}{160}{Data Fields}{section*.74}{}}
\newlabel{structvrna__dimer__conc__s}{{13.21.2.1}{160}{Data Fields}{section*.74}{}}
\@writefile{toc}{\contentsline {subsubsection}{\numberline {13.21.2.2}struct vrna\discretionary {\unhbox \voidb@x \hbox {\relax \fontsize  {7}{8}\selectfont  $\DOTSB \leftarrow \joinrel  \rhook $}}{}{}\_\discretionary {\unhbox \voidb@x \hbox {\relax \fontsize  {7}{8}\selectfont  $\DOTSB \leftarrow \joinrel  \rhook $}}{}{}dimer\discretionary {\unhbox \voidb@x \hbox {\relax \fontsize  {7}{8}\selectfont  $\DOTSB \leftarrow \joinrel  \rhook $}}{}{}\_\discretionary {\unhbox \voidb@x \hbox {\relax \fontsize  {7}{8}\selectfont  $\DOTSB \leftarrow \joinrel  \rhook $}}{}{}conc\discretionary {\unhbox \voidb@x \hbox {\relax \fontsize  {7}{8}\selectfont  $\DOTSB \leftarrow \joinrel  \rhook $}}{}{}\_\discretionary {\unhbox \voidb@x \hbox {\relax \fontsize  {7}{8}\selectfont  $\DOTSB \leftarrow \joinrel  \rhook $}}{}{}s}{160}{subsubsection.13.21.2.2}}
\newlabel{group__pf__cofold_a9722115f1a483583beaf7ef0f8180087}{{13.21.2.2}{160}{Data Fields}{section*.75}{}}
\newlabel{group__pf__cofold_a5231715f610413dd5a88bc9f958cf5f3}{{13.21.2.2}{160}{Data Fields}{section*.75}{}}
\newlabel{group__pf__cofold_aef56a1fe8d7f07e7b5d9a65417dda8a4}{{13.21.2.2}{160}{Data Fields}{section*.75}{}}
\@writefile{toc}{\contentsline {subsection}{\numberline {13.21.3}Function Documentation}{160}{subsection.13.21.3}}
\@writefile{toc}{\contentsline {subsubsection}{\numberline {13.21.3.1}vrna\discretionary {\unhbox \voidb@x \hbox {\relax \fontsize  {7}{8}\selectfont  $\DOTSB \leftarrow \joinrel  \rhook $}}{}{}\_\discretionary {\unhbox \voidb@x \hbox {\relax \fontsize  {7}{8}\selectfont  $\DOTSB \leftarrow \joinrel  \rhook $}}{}{}pf\discretionary {\unhbox \voidb@x \hbox {\relax \fontsize  {7}{8}\selectfont  $\DOTSB \leftarrow \joinrel  \rhook $}}{}{}\_\discretionary {\unhbox \voidb@x \hbox {\relax \fontsize  {7}{8}\selectfont  $\DOTSB \leftarrow \joinrel  \rhook $}}{}{}dimer}{160}{subsubsection.13.21.3.1}}
\newlabel{group__pf__cofold_ga4e5c7d06c302a7c59fc0d64dc142ca63}{{13.21.3.1}{160}{vrna\+\_\+pf\+\_\+dimer}{subsubsection.13.21.3.1}{}}
\gdef \PWST@cxxx{1}
\gdef \PWST@cxxxi{1}
\@writefile{toc}{\contentsline {subsubsection}{\numberline {13.21.3.2}vrna\discretionary {\unhbox \voidb@x \hbox {\relax \fontsize  {7}{8}\selectfont  $\DOTSB \leftarrow \joinrel  \rhook $}}{}{}\_\discretionary {\unhbox \voidb@x \hbox {\relax \fontsize  {7}{8}\selectfont  $\DOTSB \leftarrow \joinrel  \rhook $}}{}{}pf\discretionary {\unhbox \voidb@x \hbox {\relax \fontsize  {7}{8}\selectfont  $\DOTSB \leftarrow \joinrel  \rhook $}}{}{}\_\discretionary {\unhbox \voidb@x \hbox {\relax \fontsize  {7}{8}\selectfont  $\DOTSB \leftarrow \joinrel  \rhook $}}{}{}dimer\discretionary {\unhbox \voidb@x \hbox {\relax \fontsize  {7}{8}\selectfont  $\DOTSB \leftarrow \joinrel  \rhook $}}{}{}\_\discretionary {\unhbox \voidb@x \hbox {\relax \fontsize  {7}{8}\selectfont  $\DOTSB \leftarrow \joinrel  \rhook $}}{}{}probs}{161}{subsubsection.13.21.3.2}}
\newlabel{group__pf__cofold_gaf04708a63d2385d5959db9f886741479}{{13.21.3.2}{161}{vrna\+\_\+pf\+\_\+dimer\+\_\+probs}{subsubsection.13.21.3.2}{}}
\@writefile{toc}{\contentsline {subsubsection}{\numberline {13.21.3.3}vrna\discretionary {\unhbox \voidb@x \hbox {\relax \fontsize  {7}{8}\selectfont  $\DOTSB \leftarrow \joinrel  \rhook $}}{}{}\_\discretionary {\unhbox \voidb@x \hbox {\relax \fontsize  {7}{8}\selectfont  $\DOTSB \leftarrow \joinrel  \rhook $}}{}{}pf\discretionary {\unhbox \voidb@x \hbox {\relax \fontsize  {7}{8}\selectfont  $\DOTSB \leftarrow \joinrel  \rhook $}}{}{}\_\discretionary {\unhbox \voidb@x \hbox {\relax \fontsize  {7}{8}\selectfont  $\DOTSB \leftarrow \joinrel  \rhook $}}{}{}dimer\discretionary {\unhbox \voidb@x \hbox {\relax \fontsize  {7}{8}\selectfont  $\DOTSB \leftarrow \joinrel  \rhook $}}{}{}\_\discretionary {\unhbox \voidb@x \hbox {\relax \fontsize  {7}{8}\selectfont  $\DOTSB \leftarrow \joinrel  \rhook $}}{}{}concentrations}{161}{subsubsection.13.21.3.3}}
\newlabel{group__pf__cofold_ga83b8d5d0f7875d6d5013b208f23e3356}{{13.21.3.3}{161}{vrna\+\_\+pf\+\_\+dimer\+\_\+concentrations}{subsubsection.13.21.3.3}{}}
\gdef \PWST@cxxxii{2}
\@setckpt{group__pf__cofold}{
\setcounter{page}{163}
\setcounter{equation}{0}
\setcounter{enumi}{2}
\setcounter{enumii}{0}
\setcounter{enumiii}{0}
\setcounter{enumiv}{0}
\setcounter{footnote}{0}
\setcounter{mpfootnote}{0}
\setcounter{part}{0}
\setcounter{chapter}{13}
\setcounter{section}{21}
\setcounter{subsection}{3}
\setcounter{subsubsection}{3}
\setcounter{paragraph}{0}
\setcounter{subparagraph}{0}
\setcounter{figure}{0}
\setcounter{table}{0}
\setcounter{float@type}{4}
\setcounter{PWSTtable}{132}
\setcounter{NAT@ctr}{0}
\setcounter{lofdepth}{1}
\setcounter{lotdepth}{1}
\setcounter{parentequation}{0}
\setcounter{Item}{12}
\setcounter{Hfootnote}{0}
\setcounter{bookmark@seq@number}{364}
\setcounter{section@level}{3}
}
