\relax 
\providecommand\hyper@newdestlabel[2]{}
\@writefile{toc}{\contentsline {section}{\numberline {13.20}M\discretionary {\unhbox \voidb@x \hbox {\relax \fontsize  {7}{8}\selectfont  $\DOTSB \leftarrow \joinrel  \rhook $}}{}{}F\discretionary {\unhbox \voidb@x \hbox {\relax \fontsize  {7}{8}\selectfont  $\DOTSB \leftarrow \joinrel  \rhook $}}{}{}E Structures of two hybridized Sequences}{154}{section.13.20}}
\newlabel{group__mfe__cofold}{{13.20}{154}{M\+F\+E Structures of two hybridized Sequences}{section.13.20}{}}
\gdef \PWST@cxxiv{1}
\gdef \PWST@cxxv{1}
\@writefile{toc}{\contentsline {subsection}{\numberline {13.20.1}Detailed Description}{155}{subsection.13.20.1}}
\@writefile{toc}{\contentsline {subsection}{\numberline {13.20.2}Function Documentation}{155}{subsection.13.20.2}}
\@writefile{toc}{\contentsline {subsubsection}{\numberline {13.20.2.1}vrna\discretionary {\unhbox \voidb@x \hbox {\relax \fontsize  {7}{8}\selectfont  $\DOTSB \leftarrow \joinrel  \rhook $}}{}{}\_\discretionary {\unhbox \voidb@x \hbox {\relax \fontsize  {7}{8}\selectfont  $\DOTSB \leftarrow \joinrel  \rhook $}}{}{}cofold}{155}{subsubsection.13.20.2.1}}
\newlabel{group__mfe__cofold_ga45515db181f17653ef7ef5487ef36d08}{{13.20.2.1}{155}{vrna\+\_\+cofold}{subsubsection.13.20.2.1}{}}
\@writefile{toc}{\contentsline {subsubsection}{\numberline {13.20.2.2}cofold}{155}{subsubsection.13.20.2.2}}
\newlabel{group__mfe__cofold_gabc8517f22cfe70595ee81fc837910d52}{{13.20.2.2}{155}{cofold}{subsubsection.13.20.2.2}{}}
\@writefile{toc}{\contentsline {subsubsection}{\numberline {13.20.2.3}cofold\discretionary {\unhbox \voidb@x \hbox {\relax \fontsize  {7}{8}\selectfont  $\DOTSB \leftarrow \joinrel  \rhook $}}{}{}\_\discretionary {\unhbox \voidb@x \hbox {\relax \fontsize  {7}{8}\selectfont  $\DOTSB \leftarrow \joinrel  \rhook $}}{}{}par}{156}{subsubsection.13.20.2.3}}
\newlabel{group__mfe__cofold_ga7612cfeeb1b793f1e4179b1eb53df1f3}{{13.20.2.3}{156}{cofold\+\_\+par}{subsubsection.13.20.2.3}{}}
\@writefile{toc}{\contentsline {subsubsection}{\numberline {13.20.2.4}free\discretionary {\unhbox \voidb@x \hbox {\relax \fontsize  {7}{8}\selectfont  $\DOTSB \leftarrow \joinrel  \rhook $}}{}{}\_\discretionary {\unhbox \voidb@x \hbox {\relax \fontsize  {7}{8}\selectfont  $\DOTSB \leftarrow \joinrel  \rhook $}}{}{}co\discretionary {\unhbox \voidb@x \hbox {\relax \fontsize  {7}{8}\selectfont  $\DOTSB \leftarrow \joinrel  \rhook $}}{}{}\_\discretionary {\unhbox \voidb@x \hbox {\relax \fontsize  {7}{8}\selectfont  $\DOTSB \leftarrow \joinrel  \rhook $}}{}{}arrays}{156}{subsubsection.13.20.2.4}}
\newlabel{group__mfe__cofold_gaafb33d7473eb9af9d1b168ca8761c41a}{{13.20.2.4}{156}{free\+\_\+co\+\_\+arrays}{subsubsection.13.20.2.4}{}}
\@writefile{toc}{\contentsline {subsubsection}{\numberline {13.20.2.5}update\discretionary {\unhbox \voidb@x \hbox {\relax \fontsize  {7}{8}\selectfont  $\DOTSB \leftarrow \joinrel  \rhook $}}{}{}\_\discretionary {\unhbox \voidb@x \hbox {\relax \fontsize  {7}{8}\selectfont  $\DOTSB \leftarrow \joinrel  \rhook $}}{}{}cofold\discretionary {\unhbox \voidb@x \hbox {\relax \fontsize  {7}{8}\selectfont  $\DOTSB \leftarrow \joinrel  \rhook $}}{}{}\_\discretionary {\unhbox \voidb@x \hbox {\relax \fontsize  {7}{8}\selectfont  $\DOTSB \leftarrow \joinrel  \rhook $}}{}{}params}{156}{subsubsection.13.20.2.5}}
\newlabel{group__mfe__cofold_ga4fcbf34e77b99bfbb2333d2ab0c41a57}{{13.20.2.5}{156}{update\+\_\+cofold\+\_\+params}{subsubsection.13.20.2.5}{}}
\@writefile{toc}{\contentsline {subsubsection}{\numberline {13.20.2.6}update\discretionary {\unhbox \voidb@x \hbox {\relax \fontsize  {7}{8}\selectfont  $\DOTSB \leftarrow \joinrel  \rhook $}}{}{}\_\discretionary {\unhbox \voidb@x \hbox {\relax \fontsize  {7}{8}\selectfont  $\DOTSB \leftarrow \joinrel  \rhook $}}{}{}cofold\discretionary {\unhbox \voidb@x \hbox {\relax \fontsize  {7}{8}\selectfont  $\DOTSB \leftarrow \joinrel  \rhook $}}{}{}\_\discretionary {\unhbox \voidb@x \hbox {\relax \fontsize  {7}{8}\selectfont  $\DOTSB \leftarrow \joinrel  \rhook $}}{}{}params\discretionary {\unhbox \voidb@x \hbox {\relax \fontsize  {7}{8}\selectfont  $\DOTSB \leftarrow \joinrel  \rhook $}}{}{}\_\discretionary {\unhbox \voidb@x \hbox {\relax \fontsize  {7}{8}\selectfont  $\DOTSB \leftarrow \joinrel  \rhook $}}{}{}par}{156}{subsubsection.13.20.2.6}}
\newlabel{group__mfe__cofold_gaaadbd28b4e428710529ab4098fdacad3}{{13.20.2.6}{156}{update\+\_\+cofold\+\_\+params\+\_\+par}{subsubsection.13.20.2.6}{}}
\@writefile{toc}{\contentsline {subsubsection}{\numberline {13.20.2.7}export\discretionary {\unhbox \voidb@x \hbox {\relax \fontsize  {7}{8}\selectfont  $\DOTSB \leftarrow \joinrel  \rhook $}}{}{}\_\discretionary {\unhbox \voidb@x \hbox {\relax \fontsize  {7}{8}\selectfont  $\DOTSB \leftarrow \joinrel  \rhook $}}{}{}cofold\discretionary {\unhbox \voidb@x \hbox {\relax \fontsize  {7}{8}\selectfont  $\DOTSB \leftarrow \joinrel  \rhook $}}{}{}\_\discretionary {\unhbox \voidb@x \hbox {\relax \fontsize  {7}{8}\selectfont  $\DOTSB \leftarrow \joinrel  \rhook $}}{}{}arrays\discretionary {\unhbox \voidb@x \hbox {\relax \fontsize  {7}{8}\selectfont  $\DOTSB \leftarrow \joinrel  \rhook $}}{}{}\_\discretionary {\unhbox \voidb@x \hbox {\relax \fontsize  {7}{8}\selectfont  $\DOTSB \leftarrow \joinrel  \rhook $}}{}{}gq}{156}{subsubsection.13.20.2.7}}
\newlabel{group__mfe__cofold_ga5f5bf4df35d0554f6ace9579f8744c48}{{13.20.2.7}{156}{export\+\_\+cofold\+\_\+arrays\+\_\+gq}{subsubsection.13.20.2.7}{}}
\gdef \PWST@cxxvi{1}
\gdef \PWST@cxxvii{1}
\@writefile{toc}{\contentsline {subsubsection}{\numberline {13.20.2.8}export\discretionary {\unhbox \voidb@x \hbox {\relax \fontsize  {7}{8}\selectfont  $\DOTSB \leftarrow \joinrel  \rhook $}}{}{}\_\discretionary {\unhbox \voidb@x \hbox {\relax \fontsize  {7}{8}\selectfont  $\DOTSB \leftarrow \joinrel  \rhook $}}{}{}cofold\discretionary {\unhbox \voidb@x \hbox {\relax \fontsize  {7}{8}\selectfont  $\DOTSB \leftarrow \joinrel  \rhook $}}{}{}\_\discretionary {\unhbox \voidb@x \hbox {\relax \fontsize  {7}{8}\selectfont  $\DOTSB \leftarrow \joinrel  \rhook $}}{}{}arrays}{157}{subsubsection.13.20.2.8}}
\newlabel{group__mfe__cofold_ga5cb6b59983f1f74ccc00b9b9c4e84482}{{13.20.2.8}{157}{export\+\_\+cofold\+\_\+arrays}{subsubsection.13.20.2.8}{}}
\@writefile{toc}{\contentsline {subsubsection}{\numberline {13.20.2.9}get\discretionary {\unhbox \voidb@x \hbox {\relax \fontsize  {7}{8}\selectfont  $\DOTSB \leftarrow \joinrel  \rhook $}}{}{}\_\discretionary {\unhbox \voidb@x \hbox {\relax \fontsize  {7}{8}\selectfont  $\DOTSB \leftarrow \joinrel  \rhook $}}{}{}monomere\discretionary {\unhbox \voidb@x \hbox {\relax \fontsize  {7}{8}\selectfont  $\DOTSB \leftarrow \joinrel  \rhook $}}{}{}\_\discretionary {\unhbox \voidb@x \hbox {\relax \fontsize  {7}{8}\selectfont  $\DOTSB \leftarrow \joinrel  \rhook $}}{}{}mfes}{157}{subsubsection.13.20.2.9}}
\newlabel{group__mfe__cofold_ga4958b517c613e4d2afd5bce6c1060a79}{{13.20.2.9}{157}{get\+\_\+monomere\+\_\+mfes}{subsubsection.13.20.2.9}{}}
\gdef \PWST@cxxviii{1}
\gdef \PWST@cxxix{1}
\@writefile{toc}{\contentsline {subsubsection}{\numberline {13.20.2.10}initialize\discretionary {\unhbox \voidb@x \hbox {\relax \fontsize  {7}{8}\selectfont  $\DOTSB \leftarrow \joinrel  \rhook $}}{}{}\_\discretionary {\unhbox \voidb@x \hbox {\relax \fontsize  {7}{8}\selectfont  $\DOTSB \leftarrow \joinrel  \rhook $}}{}{}cofold}{158}{subsubsection.13.20.2.10}}
\newlabel{group__mfe__cofold_gafee0c32208aa2ac97338b6e3fbad7fa5}{{13.20.2.10}{158}{initialize\+\_\+cofold}{subsubsection.13.20.2.10}{}}
\@writefile{toc}{\contentsline {subsubsection}{\numberline {13.20.2.11}vrna\discretionary {\unhbox \voidb@x \hbox {\relax \fontsize  {7}{8}\selectfont  $\DOTSB \leftarrow \joinrel  \rhook $}}{}{}\_\discretionary {\unhbox \voidb@x \hbox {\relax \fontsize  {7}{8}\selectfont  $\DOTSB \leftarrow \joinrel  \rhook $}}{}{}mfe\discretionary {\unhbox \voidb@x \hbox {\relax \fontsize  {7}{8}\selectfont  $\DOTSB \leftarrow \joinrel  \rhook $}}{}{}\_\discretionary {\unhbox \voidb@x \hbox {\relax \fontsize  {7}{8}\selectfont  $\DOTSB \leftarrow \joinrel  \rhook $}}{}{}dimer}{158}{subsubsection.13.20.2.11}}
\newlabel{group__mfe__cofold_gaab22d10c1190f205f16a77cab9d5d3ee}{{13.20.2.11}{158}{vrna\+\_\+mfe\+\_\+dimer}{subsubsection.13.20.2.11}{}}
\@setckpt{group__mfe__cofold}{
\setcounter{page}{159}
\setcounter{equation}{0}
\setcounter{enumi}{2}
\setcounter{enumii}{0}
\setcounter{enumiii}{0}
\setcounter{enumiv}{0}
\setcounter{footnote}{0}
\setcounter{mpfootnote}{0}
\setcounter{part}{0}
\setcounter{chapter}{13}
\setcounter{section}{20}
\setcounter{subsection}{2}
\setcounter{subsubsection}{11}
\setcounter{paragraph}{0}
\setcounter{subparagraph}{0}
\setcounter{figure}{0}
\setcounter{table}{0}
\setcounter{float@type}{4}
\setcounter{PWSTtable}{129}
\setcounter{NAT@ctr}{0}
\setcounter{lofdepth}{1}
\setcounter{lotdepth}{1}
\setcounter{parentequation}{0}
\setcounter{Item}{12}
\setcounter{Hfootnote}{0}
\setcounter{bookmark@seq@number}{355}
\setcounter{section@level}{3}
}
