\relax 
\providecommand\hyper@newdestlabel[2]{}
\@writefile{toc}{\contentsline {section}{\numberline {13.44}The Dynamic Programming Matrices}{247}{section.13.44}}
\newlabel{group__dp__matrices}{{13.44}{247}{The Dynamic Programming Matrices}{section.13.44}{}}
\newlabel{group__dp__matrices_gae5aef35d016475e758f619b7bcb534f9}{{13.44}{247}{Typedefs}{section*.138}{}}
\newlabel{group__dp__matrices_ga68729ab3fed26bdd1806fa814f172fc1}{{13.44}{247}{Typedefs}{section*.138}{}}
\@writefile{toc}{\contentsline {subsection}{\numberline {13.44.1}Detailed Description}{247}{subsection.13.44.1}}
\@writefile{toc}{\contentsline {subsection}{\numberline {13.44.2}Data Structure Documentation}{248}{subsection.13.44.2}}
\newlabel{structvrna__mx__mfe__s}{{13.44.2}{248}{Data Structure Documentation}{subsection.13.44.2}{}}
\@writefile{toc}{\contentsline {subsubsection}{\numberline {13.44.2.1}struct vrna\discretionary {\unhbox \voidb@x \hbox {\relax \fontsize  {7}{8}\selectfont  $\DOTSB \leftarrow \joinrel  \rhook $}}{}{}\_\discretionary {\unhbox \voidb@x \hbox {\relax \fontsize  {7}{8}\selectfont  $\DOTSB \leftarrow \joinrel  \rhook $}}{}{}mx\discretionary {\unhbox \voidb@x \hbox {\relax \fontsize  {7}{8}\selectfont  $\DOTSB \leftarrow \joinrel  \rhook $}}{}{}\_\discretionary {\unhbox \voidb@x \hbox {\relax \fontsize  {7}{8}\selectfont  $\DOTSB \leftarrow \joinrel  \rhook $}}{}{}mfe\discretionary {\unhbox \voidb@x \hbox {\relax \fontsize  {7}{8}\selectfont  $\DOTSB \leftarrow \joinrel  \rhook $}}{}{}\_\discretionary {\unhbox \voidb@x \hbox {\relax \fontsize  {7}{8}\selectfont  $\DOTSB \leftarrow \joinrel  \rhook $}}{}{}s}{248}{subsubsection.13.44.2.1}}
\newlabel{group__dp__matrices_a468680aa937b664d453075108d976ae2}{{13.44.2.1}{248}{Data Fields}{section*.141}{}}
\newlabel{group__dp__matrices_a1f92a8406fc1fb721dbf9193c34ad826}{{13.44.2.1}{248}{Data Fields}{section*.141}{}}
\newlabel{group__dp__matrices_a60a511fd42905ee4f046c56a76865bf9}{{13.44.2.1}{248}{Data Fields}{section*.141}{}}
\newlabel{group__dp__matrices_abebad693be987c2701d64477ab858039}{{13.44.2.1}{248}{Data Fields}{section*.141}{}}
\newlabel{group__dp__matrices_a4ea4595a93733adef047ece8e6f5da52}{{13.44.2.1}{248}{Data Fields}{section*.141}{}}
\newlabel{group__dp__matrices_a8ee6b6cefe20cfbf1f6bef5c788b6667}{{13.44.2.1}{248}{Data Fields}{section*.141}{}}
\newlabel{group__dp__matrices_a103995e4ab8e21e7f8bc36a6edcb1331}{{13.44.2.1}{248}{Data Fields}{section*.141}{}}
\newlabel{group__dp__matrices_ae4e598d601f5ece6b8b4ffffcae2db06}{{13.44.2.1}{248}{Data Fields}{section*.141}{}}
\newlabel{group__dp__matrices_ad29106e37d485b3f20b7be468e6c179c}{{13.44.2.1}{248}{Data Fields}{section*.141}{}}
\newlabel{group__dp__matrices_a0b7b86a5c75c96eabb89eb53a13e7164}{{13.44.2.1}{248}{Data Fields}{section*.141}{}}
\newlabel{group__dp__matrices_ac6a22d71c6a0eccedf978372b19b458a}{{13.44.2.1}{248}{Data Fields}{section*.141}{}}
\newlabel{group__dp__matrices_a1ba03c53ee2a32eaf8b46c0eb259e0c4}{{13.44.2.1}{248}{Data Fields}{section*.141}{}}
\newlabel{group__dp__matrices_a96ac173770c9745a30823fa17fe0b7f4}{{13.44.2.1}{248}{Data Fields}{section*.141}{}}
\newlabel{group__dp__matrices_a9a4bf70926f79372388eccc7e73759e9}{{13.44.2.1}{248}{Data Fields}{section*.141}{}}
\newlabel{group__dp__matrices_a116c677ece0832e6ab9cc2fd1ebfe452}{{13.44.2.1}{248}{Data Fields}{section*.141}{}}
\newlabel{group__dp__matrices_a6eae0a2b696b0c63bbaa78a70b950600}{{13.44.2.1}{248}{Data Fields}{section*.141}{}}
\newlabel{group__dp__matrices_ad37d705240a8e6b1e9a4e4ea19e74003}{{13.44.2.1}{248}{Data Fields}{section*.141}{}}
\newlabel{group__dp__matrices_afd3ea65bc8f06559f7f1ea79072fa385}{{13.44.2.1}{248}{Data Fields}{section*.141}{}}
\newlabel{group__dp__matrices_ab917aa1e2b069af7fb5d11c5d067cdf0}{{13.44.2.1}{249}{Data Fields}{section*.141}{}}
\newlabel{group__dp__matrices_a4035d3c6a9e23e388ddec18a9fdc2315}{{13.44.2.1}{249}{Data Fields}{section*.141}{}}
\newlabel{group__dp__matrices_a794ba42ca5afa5320a2da88554928516}{{13.44.2.1}{249}{Data Fields}{section*.141}{}}
\newlabel{group__dp__matrices_aad6fc641a5815149b8d938ca277019a5}{{13.44.2.1}{249}{Data Fields}{section*.141}{}}
\newlabel{group__dp__matrices_a321a00180a1d046796328d0a9b66ec81}{{13.44.2.1}{249}{Data Fields}{section*.141}{}}
\newlabel{group__dp__matrices_a4d055707928eb6f3147c962141cc70e8}{{13.44.2.1}{249}{Data Fields}{section*.141}{}}
\newlabel{group__dp__matrices_abf0389ece58e97652f580d7dc1e133d8}{{13.44.2.1}{249}{Data Fields}{section*.141}{}}
\newlabel{group__dp__matrices_afadce4435141575c7275b1e0b75e8eba}{{13.44.2.1}{249}{Data Fields}{section*.141}{}}
\newlabel{group__dp__matrices_a063fb9477172048bd24786ef363315db}{{13.44.2.1}{249}{Data Fields}{section*.141}{}}
\newlabel{group__dp__matrices_a1e20cd5b9d422f547b3366e74b59b1bd}{{13.44.2.1}{249}{Data Fields}{section*.141}{}}
\newlabel{group__dp__matrices_af7007bfa68981a0d7a7a2186c357eb4f}{{13.44.2.1}{249}{Data Fields}{section*.141}{}}
\newlabel{group__dp__matrices_a33f9c476304c568c78918a5bcc3e2c2f}{{13.44.2.1}{249}{Data Fields}{section*.141}{}}
\newlabel{group__dp__matrices_afb0db136ff9fd3c78ad30816aa276ed3}{{13.44.2.1}{249}{Data Fields}{section*.141}{}}
\newlabel{group__dp__matrices_a37d2df63ba2ae973059279f325b0e617}{{13.44.2.1}{249}{Data Fields}{section*.141}{}}
\newlabel{group__dp__matrices_a9bb98ec849469ab7dda8042384a0114e}{{13.44.2.1}{249}{Data Fields}{section*.141}{}}
\newlabel{group__dp__matrices_aace1bc1fb8f3e0e83296a91e40bda7a5}{{13.44.2.1}{249}{Data Fields}{section*.141}{}}
\newlabel{group__dp__matrices_a48afd9784e58e427fcbe4694d4670c57}{{13.44.2.1}{249}{Data Fields}{section*.141}{}}
\newlabel{group__dp__matrices_a59641489689bf8ba2236466b4a9be82a}{{13.44.2.1}{249}{Data Fields}{section*.141}{}}
\newlabel{group__dp__matrices_a7a723bdda23a431fa498b6e46f71de05}{{13.44.2.1}{249}{Data Fields}{section*.141}{}}
\newlabel{group__dp__matrices_a45f8584d5a51e734de9376889e9a890e}{{13.44.2.1}{249}{Data Fields}{section*.141}{}}
\newlabel{group__dp__matrices_a2a0eccd64e94962e9ec7c0652c5adcf2}{{13.44.2.1}{249}{Data Fields}{section*.141}{}}
\newlabel{group__dp__matrices_a83ceae2cd2fa2a478fbc917419f4f43c}{{13.44.2.1}{249}{Data Fields}{section*.141}{}}
\newlabel{group__dp__matrices_abacc2eb5bd2798188191693d562941fe}{{13.44.2.1}{249}{Data Fields}{section*.141}{}}
\newlabel{group__dp__matrices_a31b0f5d774d868d3723b0e98a64ab4c2}{{13.44.2.1}{249}{Data Fields}{section*.141}{}}
\newlabel{group__dp__matrices_ad7aa8ad7e4246927b79f0e69cfdb20b2}{{13.44.2.1}{249}{Data Fields}{section*.141}{}}
\newlabel{group__dp__matrices_a84f072a7e5a9d1dc978e92b3a78f53f8}{{13.44.2.1}{249}{Data Fields}{section*.141}{}}
\newlabel{group__dp__matrices_a0ee034810d6ece4cd0f4604ec4c94c22}{{13.44.2.1}{249}{Data Fields}{section*.141}{}}
\newlabel{group__dp__matrices_a0d78bbbc4621247d97f00160803a05b0}{{13.44.2.1}{249}{Data Fields}{section*.141}{}}
\newlabel{group__dp__matrices_a27eede8de57b179fc24839bc25e96be0}{{13.44.2.1}{249}{Data Fields}{section*.141}{}}
\newlabel{group__dp__matrices_ac3bc074f2b291247b65d34e336ef064f}{{13.44.2.1}{249}{Data Fields}{section*.141}{}}
\newlabel{group__dp__matrices_ac81b8edd7d1297b43af1c163214ec95b}{{13.44.2.1}{249}{Data Fields}{section*.141}{}}
\newlabel{group__dp__matrices_a64f1fdc523370d4d27f4e74db37ec3f2}{{13.44.2.1}{249}{Data Fields}{section*.141}{}}
\newlabel{group__dp__matrices_a253b64237c811ef8587de8a714658365}{{13.44.2.1}{249}{Data Fields}{section*.141}{}}
\newlabel{group__dp__matrices_a3b381c1a816112c9557056a52db5d104}{{13.44.2.1}{249}{Data Fields}{section*.141}{}}
\newlabel{group__dp__matrices_a2aa2123340602899bd7a61d82db95a3f}{{13.44.2.1}{249}{Data Fields}{section*.141}{}}
\newlabel{group__dp__matrices_a366499237acdae5e4f422e4bc82bfc0d}{{13.44.2.1}{249}{Data Fields}{section*.141}{}}
\newlabel{group__dp__matrices_a5d0a6a5cd45a42d23fc0eabf0763caa8}{{13.44.2.1}{249}{Data Fields}{section*.141}{}}
\newlabel{group__dp__matrices_a89192a2ab2c8de9f5b702edc9fe68613}{{13.44.2.1}{249}{Data Fields}{section*.141}{}}
\newlabel{group__dp__matrices_aa3f7198e3c6207737934088d27639911}{{13.44.2.1}{249}{Data Fields}{section*.141}{}}
\newlabel{group__dp__matrices_a8e94d63c103c7effce55652619b3b469}{{13.44.2.1}{249}{Data Fields}{section*.141}{}}
\newlabel{group__dp__matrices_a3e9793de5245f038ed83c2a607b37970}{{13.44.2.1}{249}{Data Fields}{section*.141}{}}
\newlabel{group__dp__matrices_abc4dd9942f140f91adb52d2719e78bc4}{{13.44.2.1}{249}{Data Fields}{section*.141}{}}
\newlabel{group__dp__matrices_a41cb6dbbda30f5d7bafd6b0ea62bca8c}{{13.44.2.1}{249}{Data Fields}{section*.141}{}}
\newlabel{group__dp__matrices_acbf5d0bd27435ad5328482f9b4b32833}{{13.44.2.1}{249}{Data Fields}{section*.141}{}}
\newlabel{group__dp__matrices_a6b13abef4bee7a08fd28b0780535373e}{{13.44.2.1}{249}{Data Fields}{section*.141}{}}
\newlabel{group__dp__matrices_aad18f800b7bc0f26d012b9bc36aa5382}{{13.44.2.1}{249}{Data Fields}{section*.141}{}}
\newlabel{group__dp__matrices_a7ee24b747cf1d4ecc1cdc7380cf39594}{{13.44.2.1}{249}{Data Fields}{section*.141}{}}
\newlabel{group__dp__matrices_a0d419ae5a7e10b98734d42f5391d25f5}{{13.44.2.1}{249}{Data Fields}{section*.141}{}}
\newlabel{group__dp__matrices_a36089cee4d38f465f79db7e3589693a7}{{13.44.2.1}{249}{Data Fields}{section*.141}{}}
\newlabel{group__dp__matrices_aa5a4d2fd78e38c82ee666f9bdc911e66}{{13.44.2.1}{249}{Data Fields}{section*.141}{}}
\newlabel{group__dp__matrices_af286d9ea990a98a33c065b4e16eaa311}{{13.44.2.1}{249}{Data Fields}{section*.141}{}}
\newlabel{group__dp__matrices_afa8e42da47467e098bab0c6f1c16bea4}{{13.44.2.1}{249}{Data Fields}{section*.141}{}}
\newlabel{group__dp__matrices_a00f20c8bd9eda2ebcd99267cce52909c}{{13.44.2.1}{249}{Data Fields}{section*.141}{}}
\newlabel{group__dp__matrices_a92b0234e1e3cdaba2dea416e37904a09}{{13.44.2.1}{249}{Data Fields}{section*.141}{}}
\newlabel{group__dp__matrices_a89dddd61f360292fddcc9b25e7cbc699}{{13.44.2.1}{249}{Data Fields}{section*.141}{}}
\newlabel{group__dp__matrices_a5fc042fba42b3676226b64fb4ab80ad2}{{13.44.2.1}{249}{Data Fields}{section*.141}{}}
\newlabel{group__dp__matrices_aec03a4d7538bfa0e1113ba2825175428}{{13.44.2.1}{249}{Data Fields}{section*.141}{}}
\newlabel{group__dp__matrices_a120dc87d9b5f452b12ab796046a0f704}{{13.44.2.1}{249}{Data Fields}{section*.141}{}}
\newlabel{group__dp__matrices_add53b23599a083140d0ddbd158a84d1d}{{13.44.2.1}{249}{Data Fields}{section*.141}{}}
\newlabel{group__dp__matrices_ad821cb861e772e1c0fd4efddb44380c7}{{13.44.2.1}{249}{Data Fields}{section*.141}{}}
\newlabel{structvrna__mx__pf__s}{{13.44.2.1}{249}{Data Fields}{section*.141}{}}
\@writefile{toc}{\contentsline {subsubsection}{\numberline {13.44.2.2}struct vrna\discretionary {\unhbox \voidb@x \hbox {\relax \fontsize  {7}{8}\selectfont  $\DOTSB \leftarrow \joinrel  \rhook $}}{}{}\_\discretionary {\unhbox \voidb@x \hbox {\relax \fontsize  {7}{8}\selectfont  $\DOTSB \leftarrow \joinrel  \rhook $}}{}{}mx\discretionary {\unhbox \voidb@x \hbox {\relax \fontsize  {7}{8}\selectfont  $\DOTSB \leftarrow \joinrel  \rhook $}}{}{}\_\discretionary {\unhbox \voidb@x \hbox {\relax \fontsize  {7}{8}\selectfont  $\DOTSB \leftarrow \joinrel  \rhook $}}{}{}pf\discretionary {\unhbox \voidb@x \hbox {\relax \fontsize  {7}{8}\selectfont  $\DOTSB \leftarrow \joinrel  \rhook $}}{}{}\_\discretionary {\unhbox \voidb@x \hbox {\relax \fontsize  {7}{8}\selectfont  $\DOTSB \leftarrow \joinrel  \rhook $}}{}{}s}{250}{subsubsection.13.44.2.2}}
\newlabel{group__dp__matrices_a74ba745d6fc4ac5d437bc24450ea789c}{{13.44.2.2}{250}{Data Fields}{section*.142}{}}
\newlabel{group__dp__matrices_a798f72ece3f3f970bb0de2120600ad63}{{13.44.2.2}{250}{Data Fields}{section*.142}{}}
\newlabel{group__dp__matrices_a133ac57938cb0969da254a594572baf8}{{13.44.2.2}{250}{Data Fields}{section*.142}{}}
\newlabel{group__dp__matrices_ae18e83833416f62943d5dd7be1cc038f}{{13.44.2.2}{250}{Data Fields}{section*.142}{}}
\newlabel{group__dp__matrices_a033a0277ac33736256c6a13f13d75879}{{13.44.2.2}{250}{Data Fields}{section*.142}{}}
\newlabel{group__dp__matrices_abd5ea8aa63458625d0c8b2a868fcfa28}{{13.44.2.2}{250}{Data Fields}{section*.142}{}}
\newlabel{group__dp__matrices_a612e774309a7fd0b6812200aa31f87d5}{{13.44.2.2}{250}{Data Fields}{section*.142}{}}
\newlabel{group__dp__matrices_ad60e1fd6fa490ae72cdd899c37a52165}{{13.44.2.2}{250}{Data Fields}{section*.142}{}}
\newlabel{group__dp__matrices_aee4b900811aa012ab135838e2e5868f2}{{13.44.2.2}{250}{Data Fields}{section*.142}{}}
\newlabel{group__dp__matrices_a6ee76a2c5cefd1a9d6addf0a32071124}{{13.44.2.2}{250}{Data Fields}{section*.142}{}}
\newlabel{group__dp__matrices_ae3a10b81e574b966d062e705b4ad8168}{{13.44.2.2}{250}{Data Fields}{section*.142}{}}
\newlabel{group__dp__matrices_a40d61ddad03db0ba06e1848ce9004138}{{13.44.2.2}{250}{Data Fields}{section*.142}{}}
\newlabel{group__dp__matrices_a160e39f74bfcd3f94c77bdf334070782}{{13.44.2.2}{250}{Data Fields}{section*.142}{}}
\newlabel{group__dp__matrices_a0a4ff1fd1b71810ccab242a862cfdf8c}{{13.44.2.2}{250}{Data Fields}{section*.142}{}}
\newlabel{group__dp__matrices_a0841b18e38c22bb92df7efee9caaabb0}{{13.44.2.2}{250}{Data Fields}{section*.142}{}}
\newlabel{group__dp__matrices_ac9c23d0dd3a0bb150c389399afe119eb}{{13.44.2.2}{250}{Data Fields}{section*.142}{}}
\newlabel{group__dp__matrices_a970e8f6dfdf874185a9d4f77a942f61c}{{13.44.2.2}{250}{Data Fields}{section*.142}{}}
\newlabel{group__dp__matrices_a29678f1d17a805ce2c80d765e00f694d}{{13.44.2.2}{250}{Data Fields}{section*.142}{}}
\newlabel{group__dp__matrices_a13ccc584739950bcd6de23925a9afe0e}{{13.44.2.2}{250}{Data Fields}{section*.142}{}}
\newlabel{group__dp__matrices_ac136ef6871aad05b013aaec2a4cc9298}{{13.44.2.2}{250}{Data Fields}{section*.142}{}}
\newlabel{group__dp__matrices_aa09c7b59d39b4b669173330976ae4798}{{13.44.2.2}{250}{Data Fields}{section*.142}{}}
\newlabel{group__dp__matrices_a6405e58faa7aac0d7fd7bf6fc2821b99}{{13.44.2.2}{250}{Data Fields}{section*.142}{}}
\newlabel{group__dp__matrices_a7bf41bf6ce96a6a6ffad912a6bb9f023}{{13.44.2.2}{250}{Data Fields}{section*.142}{}}
\newlabel{group__dp__matrices_aa6ab6ade9a4f4aa347ea1ac3d780bbf4}{{13.44.2.2}{250}{Data Fields}{section*.142}{}}
\newlabel{group__dp__matrices_a7a6b46c40f038de8798e009ead7e5c81}{{13.44.2.2}{250}{Data Fields}{section*.142}{}}
\newlabel{group__dp__matrices_a32a61364685e55e2cb90c3bef635fe9e}{{13.44.2.2}{250}{Data Fields}{section*.142}{}}
\newlabel{group__dp__matrices_a4bb8b8fc4b39dbf163584164575253e4}{{13.44.2.2}{250}{Data Fields}{section*.142}{}}
\newlabel{group__dp__matrices_a283eb582a89f62cf7d12bb6afc774ba7}{{13.44.2.2}{250}{Data Fields}{section*.142}{}}
\newlabel{group__dp__matrices_acdb695807092c9fa8ba32b4c033881b2}{{13.44.2.2}{250}{Data Fields}{section*.142}{}}
\newlabel{group__dp__matrices_a0e46adc65e479d671aed00097b8f162a}{{13.44.2.2}{250}{Data Fields}{section*.142}{}}
\newlabel{group__dp__matrices_ab3375971ac859512a745d6eec99244d2}{{13.44.2.2}{250}{Data Fields}{section*.142}{}}
\newlabel{group__dp__matrices_a9b9d2a9a7a25929605437af8fe3e7f47}{{13.44.2.2}{250}{Data Fields}{section*.142}{}}
\newlabel{group__dp__matrices_a3ebab8245e0d6747c8cb4068fcb2f14c}{{13.44.2.2}{250}{Data Fields}{section*.142}{}}
\newlabel{group__dp__matrices_a798dd2cc60f5af4b93dac4cba0459683}{{13.44.2.2}{250}{Data Fields}{section*.142}{}}
\newlabel{group__dp__matrices_afec22c55d9cdea707596702ce40221ec}{{13.44.2.2}{250}{Data Fields}{section*.142}{}}
\newlabel{group__dp__matrices_a89548e61d9fbf7936f9e46aed2296813}{{13.44.2.2}{250}{Data Fields}{section*.142}{}}
\newlabel{group__dp__matrices_abb96656ec2020302fb1e1c9394ff2519}{{13.44.2.2}{250}{Data Fields}{section*.142}{}}
\newlabel{group__dp__matrices_a4271859f583cc0b27d0bfb6951c050f5}{{13.44.2.2}{250}{Data Fields}{section*.142}{}}
\newlabel{group__dp__matrices_ad23a0e61af82fdf8243c10000d418a8f}{{13.44.2.2}{251}{Data Fields}{section*.142}{}}
\newlabel{group__dp__matrices_a8182f4fd762fcb853a78ae818e275114}{{13.44.2.2}{251}{Data Fields}{section*.142}{}}
\newlabel{group__dp__matrices_ac76826db329f701f0abf43d9e1a4446c}{{13.44.2.2}{251}{Data Fields}{section*.142}{}}
\newlabel{group__dp__matrices_a9dc7897463d929ff56198e3cd79aa531}{{13.44.2.2}{251}{Data Fields}{section*.142}{}}
\newlabel{group__dp__matrices_a50d4c30dd0d535cd3a00c29e2b77c81e}{{13.44.2.2}{251}{Data Fields}{section*.142}{}}
\newlabel{group__dp__matrices_a1a165b9e68b552abd6970e7b79398e68}{{13.44.2.2}{251}{Data Fields}{section*.142}{}}
\newlabel{group__dp__matrices_ad16c8bacc50d9ad75fc4d3aad18b3c74}{{13.44.2.2}{251}{Data Fields}{section*.142}{}}
\newlabel{group__dp__matrices_aca9ff00550c75057c3f0796526eaa3fd}{{13.44.2.2}{251}{Data Fields}{section*.142}{}}
\newlabel{group__dp__matrices_ac5cdf53876b9ea8060b7c0fc12b2bdca}{{13.44.2.2}{251}{Data Fields}{section*.142}{}}
\newlabel{group__dp__matrices_aba4db9bf16cbe37199838b8ed1ba096c}{{13.44.2.2}{251}{Data Fields}{section*.142}{}}
\newlabel{group__dp__matrices_a08f5bfd11886731ebb3a9f0ba97a0b6b}{{13.44.2.2}{251}{Data Fields}{section*.142}{}}
\newlabel{group__dp__matrices_a1ac1d79977932e1b7131b47948b3915a}{{13.44.2.2}{251}{Data Fields}{section*.142}{}}
\newlabel{group__dp__matrices_a763eab70c62986a630fd0013d1931ea8}{{13.44.2.2}{251}{Data Fields}{section*.142}{}}
\newlabel{group__dp__matrices_a8093a0a48f24c26e575b18e5d59b1e5c}{{13.44.2.2}{251}{Data Fields}{section*.142}{}}
\newlabel{group__dp__matrices_a1db737927aabceddad13832191c5fa27}{{13.44.2.2}{251}{Data Fields}{section*.142}{}}
\newlabel{group__dp__matrices_a9e0b38f8272badd75df592524e383973}{{13.44.2.2}{251}{Data Fields}{section*.142}{}}
\newlabel{group__dp__matrices_a852c2d9450a188cc49d72150f7647e48}{{13.44.2.2}{251}{Data Fields}{section*.142}{}}
\newlabel{group__dp__matrices_addf9d5e7d009a936651fa1b98421e2bd}{{13.44.2.2}{251}{Data Fields}{section*.142}{}}
\newlabel{group__dp__matrices_abc3dd1b2bf0f90647e8c73c93432b154}{{13.44.2.2}{251}{Data Fields}{section*.142}{}}
\newlabel{group__dp__matrices_ae8e6bc3de40ebe54c7c36677cdc38df8}{{13.44.2.2}{251}{Data Fields}{section*.142}{}}
\newlabel{group__dp__matrices_aef4bfb509acba7441d9ace1e0a7e4b93}{{13.44.2.2}{251}{Data Fields}{section*.142}{}}
\newlabel{group__dp__matrices_a57c50e60f1679e2d1add5b48d67b4ad4}{{13.44.2.2}{251}{Data Fields}{section*.142}{}}
\newlabel{group__dp__matrices_ab014ff37700866fd2be6139b3ec470c6}{{13.44.2.2}{251}{Data Fields}{section*.142}{}}
\newlabel{group__dp__matrices_a10c73fd5be9a9bbd350f929d758ac8cf}{{13.44.2.2}{251}{Data Fields}{section*.142}{}}
\newlabel{group__dp__matrices_a9d0f5ad230b36b3553ddf7585c1ae2ec}{{13.44.2.2}{251}{Data Fields}{section*.142}{}}
\newlabel{group__dp__matrices_a3e398f1778086b00deb05a3990d533ab}{{13.44.2.2}{251}{Data Fields}{section*.142}{}}
\newlabel{group__dp__matrices_a07d9c31f3205d96e094104971b8a85a6}{{13.44.2.2}{251}{Data Fields}{section*.142}{}}
\newlabel{group__dp__matrices_a7d77708c602e982af5a6c1f340d329f4}{{13.44.2.2}{251}{Data Fields}{section*.142}{}}
\newlabel{group__dp__matrices_a6480ac40d5405af825dee74e3518d6ae}{{13.44.2.2}{251}{Data Fields}{section*.142}{}}
\newlabel{group__dp__matrices_a0ce7f4b73a6df939f79dfd2f21de80b8}{{13.44.2.2}{251}{Data Fields}{section*.142}{}}
\newlabel{group__dp__matrices_aff841b24d39a4f162ba1d10e5109cbe3}{{13.44.2.2}{251}{Data Fields}{section*.142}{}}
\newlabel{group__dp__matrices_a844916b65f091b27e89547f7a51a2dea}{{13.44.2.2}{251}{Data Fields}{section*.142}{}}
\newlabel{group__dp__matrices_a6f6bad095f31114e990d68af46d2eda5}{{13.44.2.2}{251}{Data Fields}{section*.142}{}}
\@writefile{toc}{\contentsline {subsection}{\numberline {13.44.3}Enumeration Type Documentation}{251}{subsection.13.44.3}}
\@writefile{toc}{\contentsline {subsubsection}{\numberline {13.44.3.1}vrna\discretionary {\unhbox \voidb@x \hbox {\relax \fontsize  {7}{8}\selectfont  $\DOTSB \leftarrow \joinrel  \rhook $}}{}{}\_\discretionary {\unhbox \voidb@x \hbox {\relax \fontsize  {7}{8}\selectfont  $\DOTSB \leftarrow \joinrel  \rhook $}}{}{}mx\discretionary {\unhbox \voidb@x \hbox {\relax \fontsize  {7}{8}\selectfont  $\DOTSB \leftarrow \joinrel  \rhook $}}{}{}\_\discretionary {\unhbox \voidb@x \hbox {\relax \fontsize  {7}{8}\selectfont  $\DOTSB \leftarrow \joinrel  \rhook $}}{}{}type\discretionary {\unhbox \voidb@x \hbox {\relax \fontsize  {7}{8}\selectfont  $\DOTSB \leftarrow \joinrel  \rhook $}}{}{}\_\discretionary {\unhbox \voidb@x \hbox {\relax \fontsize  {7}{8}\selectfont  $\DOTSB \leftarrow \joinrel  \rhook $}}{}{}e}{251}{subsubsection.13.44.3.1}}
\newlabel{group__dp__matrices_ga6042ea1d58d01931e959791be6d89343}{{13.44.3.1}{251}{vrna\+\_\+mx\+\_\+type\+\_\+e}{subsubsection.13.44.3.1}{}}
\newlabel{group__dp__matrices_gga6042ea1d58d01931e959791be6d89343aafa2568956dab79595521e20c49a5f75}{{13.44.3.1}{251}{\em \hypertarget {group__dp__matrices_gga6042ea1d58d01931e959791be6d89343aafa2568956dab79595521e20c49a5f75}{}V\+R\+N\+A\+\_\+\+M\+X\+\_\+\+D\+E\+F\+A\+U\+L\+T}{subsubsection.13.44.3.1}{}}
\newlabel{group__dp__matrices_gga6042ea1d58d01931e959791be6d89343a2ea5d5947f6ec02544934b0ff2785e99}{{13.44.3.1}{251}{\em \hypertarget {group__dp__matrices_gga6042ea1d58d01931e959791be6d89343a2ea5d5947f6ec02544934b0ff2785e99}{}V\+R\+N\+A\+\_\+\+M\+X\+\_\+\+W\+I\+N\+D\+O\+W}{subsubsection.13.44.3.1}{}}
\newlabel{group__dp__matrices_gga6042ea1d58d01931e959791be6d89343ae656f8391445ff71bed8a597a0a19417}{{13.44.3.1}{251}{\em \hypertarget {group__dp__matrices_gga6042ea1d58d01931e959791be6d89343ae656f8391445ff71bed8a597a0a19417}{}V\+R\+N\+A\+\_\+\+M\+X\+\_\+2\+D\+F\+O\+L\+D}{subsubsection.13.44.3.1}{}}
\gdef \PWST@ccv{1}
\gdef \PWST@ccvi{1}
\@writefile{toc}{\contentsline {subsection}{\numberline {13.44.4}Function Documentation}{252}{subsection.13.44.4}}
\@writefile{toc}{\contentsline {subsubsection}{\numberline {13.44.4.1}vrna\discretionary {\unhbox \voidb@x \hbox {\relax \fontsize  {7}{8}\selectfont  $\DOTSB \leftarrow \joinrel  \rhook $}}{}{}\_\discretionary {\unhbox \voidb@x \hbox {\relax \fontsize  {7}{8}\selectfont  $\DOTSB \leftarrow \joinrel  \rhook $}}{}{}mx\discretionary {\unhbox \voidb@x \hbox {\relax \fontsize  {7}{8}\selectfont  $\DOTSB \leftarrow \joinrel  \rhook $}}{}{}\_\discretionary {\unhbox \voidb@x \hbox {\relax \fontsize  {7}{8}\selectfont  $\DOTSB \leftarrow \joinrel  \rhook $}}{}{}add}{252}{subsubsection.13.44.4.1}}
\newlabel{group__dp__matrices_ga08661f098008961dab0023bf300f0c33}{{13.44.4.1}{252}{vrna\+\_\+mx\+\_\+add}{subsubsection.13.44.4.1}{}}
\@writefile{toc}{\contentsline {subsubsection}{\numberline {13.44.4.2}vrna\discretionary {\unhbox \voidb@x \hbox {\relax \fontsize  {7}{8}\selectfont  $\DOTSB \leftarrow \joinrel  \rhook $}}{}{}\_\discretionary {\unhbox \voidb@x \hbox {\relax \fontsize  {7}{8}\selectfont  $\DOTSB \leftarrow \joinrel  \rhook $}}{}{}mx\discretionary {\unhbox \voidb@x \hbox {\relax \fontsize  {7}{8}\selectfont  $\DOTSB \leftarrow \joinrel  \rhook $}}{}{}\_\discretionary {\unhbox \voidb@x \hbox {\relax \fontsize  {7}{8}\selectfont  $\DOTSB \leftarrow \joinrel  \rhook $}}{}{}mfe\discretionary {\unhbox \voidb@x \hbox {\relax \fontsize  {7}{8}\selectfont  $\DOTSB \leftarrow \joinrel  \rhook $}}{}{}\_\discretionary {\unhbox \voidb@x \hbox {\relax \fontsize  {7}{8}\selectfont  $\DOTSB \leftarrow \joinrel  \rhook $}}{}{}free}{252}{subsubsection.13.44.4.2}}
\newlabel{group__dp__matrices_ga6a9422feb5dfe5c64050cebf447672d0}{{13.44.4.2}{252}{vrna\+\_\+mx\+\_\+mfe\+\_\+free}{subsubsection.13.44.4.2}{}}
\@writefile{toc}{\contentsline {subsubsection}{\numberline {13.44.4.3}vrna\discretionary {\unhbox \voidb@x \hbox {\relax \fontsize  {7}{8}\selectfont  $\DOTSB \leftarrow \joinrel  \rhook $}}{}{}\_\discretionary {\unhbox \voidb@x \hbox {\relax \fontsize  {7}{8}\selectfont  $\DOTSB \leftarrow \joinrel  \rhook $}}{}{}mx\discretionary {\unhbox \voidb@x \hbox {\relax \fontsize  {7}{8}\selectfont  $\DOTSB \leftarrow \joinrel  \rhook $}}{}{}\_\discretionary {\unhbox \voidb@x \hbox {\relax \fontsize  {7}{8}\selectfont  $\DOTSB \leftarrow \joinrel  \rhook $}}{}{}pf\discretionary {\unhbox \voidb@x \hbox {\relax \fontsize  {7}{8}\selectfont  $\DOTSB \leftarrow \joinrel  \rhook $}}{}{}\_\discretionary {\unhbox \voidb@x \hbox {\relax \fontsize  {7}{8}\selectfont  $\DOTSB \leftarrow \joinrel  \rhook $}}{}{}free}{252}{subsubsection.13.44.4.3}}
\newlabel{group__dp__matrices_ga2283e69fd139fb8e58d7ade3b5773f9c}{{13.44.4.3}{252}{vrna\+\_\+mx\+\_\+pf\+\_\+free}{subsubsection.13.44.4.3}{}}
\gdef \PWST@ccvii{1}
\@setckpt{group__dp__matrices}{
\setcounter{page}{254}
\setcounter{equation}{0}
\setcounter{enumi}{2}
\setcounter{enumii}{0}
\setcounter{enumiii}{0}
\setcounter{enumiv}{0}
\setcounter{footnote}{0}
\setcounter{mpfootnote}{0}
\setcounter{part}{0}
\setcounter{chapter}{13}
\setcounter{section}{44}
\setcounter{subsection}{4}
\setcounter{subsubsection}{3}
\setcounter{paragraph}{0}
\setcounter{subparagraph}{0}
\setcounter{figure}{0}
\setcounter{table}{0}
\setcounter{float@type}{4}
\setcounter{PWSTtable}{207}
\setcounter{NAT@ctr}{0}
\setcounter{lofdepth}{1}
\setcounter{lotdepth}{1}
\setcounter{parentequation}{0}
\setcounter{Item}{12}
\setcounter{Hfootnote}{0}
\setcounter{bookmark@seq@number}{595}
\setcounter{section@level}{3}
}
