\relax 
\providecommand\hyper@newdestlabel[2]{}
\@writefile{toc}{\contentsline {section}{\numberline {13.17}Stochastic backtracking in the Ensemble}{144}{section.13.17}}
\newlabel{group__subopt__stochbt}{{13.17}{144}{Stochastic backtracking in the Ensemble}{section.13.17}{}}
\@writefile{toc}{\contentsline {subsection}{\numberline {13.17.1}Detailed Description}{144}{subsection.13.17.1}}
\@writefile{toc}{\contentsline {subsection}{\numberline {13.17.2}Function Documentation}{144}{subsection.13.17.2}}
\@writefile{toc}{\contentsline {subsubsection}{\numberline {13.17.2.1}vrna\discretionary {\unhbox \voidb@x \hbox {\relax \fontsize  {7}{8}\selectfont  $\DOTSB \leftarrow \joinrel  \rhook $}}{}{}\_\discretionary {\unhbox \voidb@x \hbox {\relax \fontsize  {7}{8}\selectfont  $\DOTSB \leftarrow \joinrel  \rhook $}}{}{}pbacktrack5}{144}{subsubsection.13.17.2.1}}
\newlabel{group__subopt__stochbt_ga5a3e11d3ce121b5b045cb57f86a8ed05}{{13.17.2.1}{144}{vrna\+\_\+pbacktrack5}{subsubsection.13.17.2.1}{}}
\gdef \PWST@cxv{1}
\gdef \PWST@cxvi{1}
\gdef \PWST@cxvii{1}
\@writefile{toc}{\contentsline {subsubsection}{\numberline {13.17.2.2}vrna\discretionary {\unhbox \voidb@x \hbox {\relax \fontsize  {7}{8}\selectfont  $\DOTSB \leftarrow \joinrel  \rhook $}}{}{}\_\discretionary {\unhbox \voidb@x \hbox {\relax \fontsize  {7}{8}\selectfont  $\DOTSB \leftarrow \joinrel  \rhook $}}{}{}pbacktrack}{145}{subsubsection.13.17.2.2}}
\newlabel{group__subopt__stochbt_ga0429de82e75af6c6e7508f4d273a192f}{{13.17.2.2}{145}{vrna\+\_\+pbacktrack}{subsubsection.13.17.2.2}{}}
\@writefile{toc}{\contentsline {subsubsection}{\numberline {13.17.2.3}pbacktrack}{145}{subsubsection.13.17.2.3}}
\newlabel{group__subopt__stochbt_gac03ca6db186bb3bf0a2a326d7fb3ba03}{{13.17.2.3}{145}{pbacktrack}{subsubsection.13.17.2.3}{}}
\gdef \PWST@cxviii{1}
\@writefile{toc}{\contentsline {subsubsection}{\numberline {13.17.2.4}pbacktrack\discretionary {\unhbox \voidb@x \hbox {\relax \fontsize  {7}{8}\selectfont  $\DOTSB \leftarrow \joinrel  \rhook $}}{}{}\_\discretionary {\unhbox \voidb@x \hbox {\relax \fontsize  {7}{8}\selectfont  $\DOTSB \leftarrow \joinrel  \rhook $}}{}{}circ}{146}{subsubsection.13.17.2.4}}
\newlabel{group__subopt__stochbt_ga00474051204ac9ad576b3e45174d03ff}{{13.17.2.4}{146}{pbacktrack\+\_\+circ}{subsubsection.13.17.2.4}{}}
\@writefile{toc}{\contentsline {subsection}{\numberline {13.17.3}Variable Documentation}{146}{subsection.13.17.3}}
\@writefile{toc}{\contentsline {subsubsection}{\numberline {13.17.3.1}st\discretionary {\unhbox \voidb@x \hbox {\relax \fontsize  {7}{8}\selectfont  $\DOTSB \leftarrow \joinrel  \rhook $}}{}{}\_\discretionary {\unhbox \voidb@x \hbox {\relax \fontsize  {7}{8}\selectfont  $\DOTSB \leftarrow \joinrel  \rhook $}}{}{}back}{146}{subsubsection.13.17.3.1}}
\newlabel{group__subopt__stochbt_gacd79b1a570e6ad9be24cb11fe8cae30a}{{13.17.3.1}{146}{st\+\_\+back}{subsubsection.13.17.3.1}{}}
\@setckpt{group__subopt__stochbt}{
\setcounter{page}{147}
\setcounter{equation}{0}
\setcounter{enumi}{2}
\setcounter{enumii}{0}
\setcounter{enumiii}{0}
\setcounter{enumiv}{0}
\setcounter{footnote}{0}
\setcounter{mpfootnote}{0}
\setcounter{part}{0}
\setcounter{chapter}{13}
\setcounter{section}{17}
\setcounter{subsection}{3}
\setcounter{subsubsection}{1}
\setcounter{paragraph}{0}
\setcounter{subparagraph}{0}
\setcounter{figure}{0}
\setcounter{table}{0}
\setcounter{float@type}{4}
\setcounter{PWSTtable}{118}
\setcounter{NAT@ctr}{0}
\setcounter{lofdepth}{1}
\setcounter{lotdepth}{1}
\setcounter{parentequation}{0}
\setcounter{Item}{12}
\setcounter{Hfootnote}{0}
\setcounter{bookmark@seq@number}{321}
\setcounter{section@level}{3}
}
