\relax 
\providecommand\hyper@newdestlabel[2]{}
\@writefile{toc}{\contentsline {section}{\numberline {13.40}Hard Constraints}{215}{section.13.40}}
\newlabel{group__hard__constraints}{{13.40}{215}{Hard Constraints}{section.13.40}{}}
\newlabel{group__hard__constraints_ga7d725ef525b29891abef3f1ed42599a4}{{13.40}{215}{Macros}{section*.117}{}}
\newlabel{group__hard__constraints_ga08d12a9a846ea593b7171d277c9f033f}{{13.40}{215}{Macros}{section*.117}{}}
\newlabel{group__hard__constraints_ga9418eda62a5dec070896702c279d2548}{{13.40}{215}{Macros}{section*.117}{}}
\newlabel{group__hard__constraints_ga79203702b197b6b9d3b78eed40663eb1}{{13.40}{215}{Macros}{section*.117}{}}
\newlabel{group__hard__constraints_ga21feeab3a9e5fa5a9e3d9ac0fcf5994f}{{13.40}{215}{Macros}{section*.117}{}}
\newlabel{group__hard__constraints_ga0536288e04ff6332ecdc23ca4705402b}{{13.40}{215}{Macros}{section*.117}{}}
\newlabel{group__hard__constraints_ga456ecd2ff00056bb64da8dd4f61bbfc5}{{13.40}{215}{Macros}{section*.117}{}}
\newlabel{group__hard__constraints_ga02a3d703ddbcfce393e4bbfcb9db7077}{{13.40}{215}{Macros}{section*.117}{}}
\newlabel{group__hard__constraints_ga886d9127c49bb982a4b67cd7581e8a5a}{{13.40}{215}{Macros}{section*.117}{}}
\@writefile{toc}{\contentsline {subsection}{\numberline {13.40.1}Detailed Description}{216}{subsection.13.40.1}}
\@writefile{toc}{\contentsline {subsection}{\numberline {13.40.2}Data Structure Documentation}{216}{subsection.13.40.2}}
\newlabel{structvrna__hc__s}{{13.40.2}{216}{Data Structure Documentation}{subsection.13.40.2}{}}
\@writefile{toc}{\contentsline {subsubsection}{\numberline {13.40.2.1}struct vrna\discretionary {\unhbox \voidb@x \hbox {\relax \fontsize  {7}{8}\selectfont  $\DOTSB \leftarrow \joinrel  \rhook $}}{}{}\_\discretionary {\unhbox \voidb@x \hbox {\relax \fontsize  {7}{8}\selectfont  $\DOTSB \leftarrow \joinrel  \rhook $}}{}{}hc\discretionary {\unhbox \voidb@x \hbox {\relax \fontsize  {7}{8}\selectfont  $\DOTSB \leftarrow \joinrel  \rhook $}}{}{}\_\discretionary {\unhbox \voidb@x \hbox {\relax \fontsize  {7}{8}\selectfont  $\DOTSB \leftarrow \joinrel  \rhook $}}{}{}s}{216}{subsubsection.13.40.2.1}}
\newlabel{group__hard__constraints_a830a7e898b3493a6d073b2ccc1134be0}{{13.40.2.1}{216}{Data Fields}{section*.120}{}}
\newlabel{group__hard__constraints_a60094038af04093b2fee9b883266ff75}{{13.40.2.1}{216}{Data Fields}{section*.120}{}}
\newlabel{group__hard__constraints_a853255558e7e7d9eb382ac142ac8de3d}{{13.40.2.1}{216}{Data Fields}{section*.120}{}}
\newlabel{group__hard__constraints_a455f994af0ec892d84fee1bf60d14a81}{{13.40.2.1}{216}{Data Fields}{section*.120}{}}
\gdef \PWST@clxxv{1}
\newlabel{group__hard__constraints_aa318079c2e3cfaca8dc589cc478d3b29}{{13.40.2.1}{217}{Data Fields}{section*.120}{}}
\newlabel{group__hard__constraints_a85714afbf27012165ec80c564bd62931}{{13.40.2.1}{217}{Data Fields}{section*.120}{}}
\newlabel{group__hard__constraints_acef3d722142cb5f4a8e114e5fbce3b1a}{{13.40.2.1}{217}{Data Fields}{section*.120}{}}
\@writefile{toc}{\contentsline {paragraph}{\numberline {13.40.2.1.1}Field Documentation}{217}{paragraph.13.40.2.1.1}}
\@writefile{toc}{\contentsline {subparagraph}{\numberline {13.40.2.1.1.1}free\discretionary {\unhbox \voidb@x \hbox {\relax \fontsize  {7}{8}\selectfont  $\DOTSB \leftarrow \joinrel  \rhook $}}{}{}\_\discretionary {\unhbox \voidb@x \hbox {\relax \fontsize  {7}{8}\selectfont  $\DOTSB \leftarrow \joinrel  \rhook $}}{}{}data}{217}{subparagraph.13.40.2.1.1.1}}
\newlabel{group__hard__constraints_a970e0e202c9e46ebc7640ddc43357ba6}{{13.40.2.1.1.1}{217}{free\+\_\+data}{subparagraph.13.40.2.1.1.1}{}}
\@writefile{toc}{\contentsline {subsection}{\numberline {13.40.3}Typedef Documentation}{217}{subsection.13.40.3}}
\@writefile{toc}{\contentsline {subsubsection}{\numberline {13.40.3.1}vrna\discretionary {\unhbox \voidb@x \hbox {\relax \fontsize  {7}{8}\selectfont  $\DOTSB \leftarrow \joinrel  \rhook $}}{}{}\_\discretionary {\unhbox \voidb@x \hbox {\relax \fontsize  {7}{8}\selectfont  $\DOTSB \leftarrow \joinrel  \rhook $}}{}{}callback\discretionary {\unhbox \voidb@x \hbox {\relax \fontsize  {7}{8}\selectfont  $\DOTSB \leftarrow \joinrel  \rhook $}}{}{}\_\discretionary {\unhbox \voidb@x \hbox {\relax \fontsize  {7}{8}\selectfont  $\DOTSB \leftarrow \joinrel  \rhook $}}{}{}hc\discretionary {\unhbox \voidb@x \hbox {\relax \fontsize  {7}{8}\selectfont  $\DOTSB \leftarrow \joinrel  \rhook $}}{}{}\_\discretionary {\unhbox \voidb@x \hbox {\relax \fontsize  {7}{8}\selectfont  $\DOTSB \leftarrow \joinrel  \rhook $}}{}{}evaluate}{217}{subsubsection.13.40.3.1}}
\newlabel{group__hard__constraints_ga16eb71ac9a7a35369be2eaa9d8f8dfa0}{{13.40.3.1}{217}{vrna\+\_\+callback\+\_\+hc\+\_\+evaluate}{subsubsection.13.40.3.1}{}}
\@writefile{toc}{\contentsline {subsection}{\numberline {13.40.4}Function Documentation}{217}{subsection.13.40.4}}
\@writefile{toc}{\contentsline {subsubsection}{\numberline {13.40.4.1}vrna\discretionary {\unhbox \voidb@x \hbox {\relax \fontsize  {7}{8}\selectfont  $\DOTSB \leftarrow \joinrel  \rhook $}}{}{}\_\discretionary {\unhbox \voidb@x \hbox {\relax \fontsize  {7}{8}\selectfont  $\DOTSB \leftarrow \joinrel  \rhook $}}{}{}hc\discretionary {\unhbox \voidb@x \hbox {\relax \fontsize  {7}{8}\selectfont  $\DOTSB \leftarrow \joinrel  \rhook $}}{}{}\_\discretionary {\unhbox \voidb@x \hbox {\relax \fontsize  {7}{8}\selectfont  $\DOTSB \leftarrow \joinrel  \rhook $}}{}{}init}{217}{subsubsection.13.40.4.1}}
\newlabel{group__hard__constraints_ga36ff456c43bf920629cee5a236e4f0ff}{{13.40.4.1}{217}{vrna\+\_\+hc\+\_\+init}{subsubsection.13.40.4.1}{}}
\gdef \PWST@clxxvi{1}
\gdef \PWST@clxxvii{1}
\gdef \PWST@clxxviii{1}
\@writefile{toc}{\contentsline {subsubsection}{\numberline {13.40.4.2}vrna\discretionary {\unhbox \voidb@x \hbox {\relax \fontsize  {7}{8}\selectfont  $\DOTSB \leftarrow \joinrel  \rhook $}}{}{}\_\discretionary {\unhbox \voidb@x \hbox {\relax \fontsize  {7}{8}\selectfont  $\DOTSB \leftarrow \joinrel  \rhook $}}{}{}hc\discretionary {\unhbox \voidb@x \hbox {\relax \fontsize  {7}{8}\selectfont  $\DOTSB \leftarrow \joinrel  \rhook $}}{}{}\_\discretionary {\unhbox \voidb@x \hbox {\relax \fontsize  {7}{8}\selectfont  $\DOTSB \leftarrow \joinrel  \rhook $}}{}{}add\discretionary {\unhbox \voidb@x \hbox {\relax \fontsize  {7}{8}\selectfont  $\DOTSB \leftarrow \joinrel  \rhook $}}{}{}\_\discretionary {\unhbox \voidb@x \hbox {\relax \fontsize  {7}{8}\selectfont  $\DOTSB \leftarrow \joinrel  \rhook $}}{}{}up}{218}{subsubsection.13.40.4.2}}
\newlabel{group__hard__constraints_gaeb352e3e6ccd2b567bafa451365bb545}{{13.40.4.2}{218}{vrna\+\_\+hc\+\_\+add\+\_\+up}{subsubsection.13.40.4.2}{}}
\@writefile{toc}{\contentsline {subsubsection}{\numberline {13.40.4.3}vrna\discretionary {\unhbox \voidb@x \hbox {\relax \fontsize  {7}{8}\selectfont  $\DOTSB \leftarrow \joinrel  \rhook $}}{}{}\_\discretionary {\unhbox \voidb@x \hbox {\relax \fontsize  {7}{8}\selectfont  $\DOTSB \leftarrow \joinrel  \rhook $}}{}{}hc\discretionary {\unhbox \voidb@x \hbox {\relax \fontsize  {7}{8}\selectfont  $\DOTSB \leftarrow \joinrel  \rhook $}}{}{}\_\discretionary {\unhbox \voidb@x \hbox {\relax \fontsize  {7}{8}\selectfont  $\DOTSB \leftarrow \joinrel  \rhook $}}{}{}add\discretionary {\unhbox \voidb@x \hbox {\relax \fontsize  {7}{8}\selectfont  $\DOTSB \leftarrow \joinrel  \rhook $}}{}{}\_\discretionary {\unhbox \voidb@x \hbox {\relax \fontsize  {7}{8}\selectfont  $\DOTSB \leftarrow \joinrel  \rhook $}}{}{}bp}{218}{subsubsection.13.40.4.3}}
\newlabel{group__hard__constraints_gac49305fc5c7d8653c5fbd2de1e1615e2}{{13.40.4.3}{218}{vrna\+\_\+hc\+\_\+add\+\_\+bp}{subsubsection.13.40.4.3}{}}
\@writefile{toc}{\contentsline {subsubsection}{\numberline {13.40.4.4}vrna\discretionary {\unhbox \voidb@x \hbox {\relax \fontsize  {7}{8}\selectfont  $\DOTSB \leftarrow \joinrel  \rhook $}}{}{}\_\discretionary {\unhbox \voidb@x \hbox {\relax \fontsize  {7}{8}\selectfont  $\DOTSB \leftarrow \joinrel  \rhook $}}{}{}hc\discretionary {\unhbox \voidb@x \hbox {\relax \fontsize  {7}{8}\selectfont  $\DOTSB \leftarrow \joinrel  \rhook $}}{}{}\_\discretionary {\unhbox \voidb@x \hbox {\relax \fontsize  {7}{8}\selectfont  $\DOTSB \leftarrow \joinrel  \rhook $}}{}{}add\discretionary {\unhbox \voidb@x \hbox {\relax \fontsize  {7}{8}\selectfont  $\DOTSB \leftarrow \joinrel  \rhook $}}{}{}\_\discretionary {\unhbox \voidb@x \hbox {\relax \fontsize  {7}{8}\selectfont  $\DOTSB \leftarrow \joinrel  \rhook $}}{}{}bp\discretionary {\unhbox \voidb@x \hbox {\relax \fontsize  {7}{8}\selectfont  $\DOTSB \leftarrow \joinrel  \rhook $}}{}{}\_\discretionary {\unhbox \voidb@x \hbox {\relax \fontsize  {7}{8}\selectfont  $\DOTSB \leftarrow \joinrel  \rhook $}}{}{}nonspecific}{218}{subsubsection.13.40.4.4}}
\newlabel{group__hard__constraints_gadeb1083d0dc928e1e931065aae54ad82}{{13.40.4.4}{218}{vrna\+\_\+hc\+\_\+add\+\_\+bp\+\_\+nonspecific}{subsubsection.13.40.4.4}{}}
\gdef \PWST@clxxix{1}
\@writefile{toc}{\contentsline {subsubsection}{\numberline {13.40.4.5}vrna\discretionary {\unhbox \voidb@x \hbox {\relax \fontsize  {7}{8}\selectfont  $\DOTSB \leftarrow \joinrel  \rhook $}}{}{}\_\discretionary {\unhbox \voidb@x \hbox {\relax \fontsize  {7}{8}\selectfont  $\DOTSB \leftarrow \joinrel  \rhook $}}{}{}hc\discretionary {\unhbox \voidb@x \hbox {\relax \fontsize  {7}{8}\selectfont  $\DOTSB \leftarrow \joinrel  \rhook $}}{}{}\_\discretionary {\unhbox \voidb@x \hbox {\relax \fontsize  {7}{8}\selectfont  $\DOTSB \leftarrow \joinrel  \rhook $}}{}{}free}{219}{subsubsection.13.40.4.5}}
\newlabel{group__hard__constraints_ga696dcf77887d856c6f21ea266d8b9ca2}{{13.40.4.5}{219}{vrna\+\_\+hc\+\_\+free}{subsubsection.13.40.4.5}{}}
\@setckpt{group__hard__constraints}{
\setcounter{page}{220}
\setcounter{equation}{0}
\setcounter{enumi}{2}
\setcounter{enumii}{0}
\setcounter{enumiii}{0}
\setcounter{enumiv}{0}
\setcounter{footnote}{0}
\setcounter{mpfootnote}{0}
\setcounter{part}{0}
\setcounter{chapter}{13}
\setcounter{section}{40}
\setcounter{subsection}{4}
\setcounter{subsubsection}{5}
\setcounter{paragraph}{0}
\setcounter{subparagraph}{0}
\setcounter{figure}{0}
\setcounter{table}{0}
\setcounter{float@type}{4}
\setcounter{PWSTtable}{179}
\setcounter{NAT@ctr}{0}
\setcounter{lofdepth}{1}
\setcounter{lotdepth}{1}
\setcounter{parentequation}{0}
\setcounter{Item}{12}
\setcounter{Hfootnote}{0}
\setcounter{bookmark@seq@number}{525}
\setcounter{section@level}{3}
}
