\relax 
\providecommand\hyper@newdestlabel[2]{}
\citation{zuker:1981}
\citation{hofacker:2006}
\@writefile{toc}{\contentsline {section}{\numberline {13.10}Computing Minimum Free Energy (M\discretionary {\unhbox \voidb@x \hbox {\relax \fontsize  {7}{8}\selectfont  $\DOTSB \leftarrow \joinrel  \rhook $}}{}{}F\discretionary {\unhbox \voidb@x \hbox {\relax \fontsize  {7}{8}\selectfont  $\DOTSB \leftarrow \joinrel  \rhook $}}{}{}E) Structures}{123}{section.13.10}}
\newlabel{group__mfe__fold}{{13.10}{123}{Computing Minimum Free Energy (M\+F\+E) Structures}{section.13.10}{}}
\@writefile{toc}{\contentsline {subsection}{\numberline {13.10.1}Detailed Description}{123}{subsection.13.10.1}}
\@writefile{brf}{\backcite{zuker:1981}{{123}{13.10.1}{subsection.13.10.1}}}
\@writefile{brf}{\backcite{hofacker:2006}{{123}{13.10.1}{subsection.13.10.1}}}
\gdef \PWST@xcii{1}
\@writefile{toc}{\contentsline {subsection}{\numberline {13.10.2}Function Documentation}{124}{subsection.13.10.2}}
\@writefile{toc}{\contentsline {subsubsection}{\numberline {13.10.2.1}vrna\discretionary {\unhbox \voidb@x \hbox {\relax \fontsize  {7}{8}\selectfont  $\DOTSB \leftarrow \joinrel  \rhook $}}{}{}\_\discretionary {\unhbox \voidb@x \hbox {\relax \fontsize  {7}{8}\selectfont  $\DOTSB \leftarrow \joinrel  \rhook $}}{}{}mfe}{124}{subsubsection.13.10.2.1}}
\newlabel{group__mfe__fold_gabd3b147371ccf25c577f88bbbaf159fd}{{13.10.2.1}{124}{vrna\+\_\+mfe}{subsubsection.13.10.2.1}{}}
\@setckpt{group__mfe__fold}{
\setcounter{page}{125}
\setcounter{equation}{0}
\setcounter{enumi}{2}
\setcounter{enumii}{0}
\setcounter{enumiii}{0}
\setcounter{enumiv}{0}
\setcounter{footnote}{0}
\setcounter{mpfootnote}{0}
\setcounter{part}{0}
\setcounter{chapter}{13}
\setcounter{section}{10}
\setcounter{subsection}{2}
\setcounter{subsubsection}{1}
\setcounter{paragraph}{0}
\setcounter{subparagraph}{0}
\setcounter{figure}{0}
\setcounter{table}{0}
\setcounter{float@type}{4}
\setcounter{PWSTtable}{92}
\setcounter{NAT@ctr}{0}
\setcounter{lofdepth}{1}
\setcounter{lotdepth}{1}
\setcounter{parentequation}{0}
\setcounter{Item}{12}
\setcounter{Hfootnote}{0}
\setcounter{bookmark@seq@number}{270}
\setcounter{section@level}{3}
}
