\relax 
\providecommand\hyper@newdestlabel[2]{}
\@writefile{toc}{\contentsline {section}{\numberline {13.25}Partition Function and Base Pair Probabilities for Sequence Alignment(s)}{173}{section.13.25}}
\newlabel{group__consensus__pf__fold}{{13.25}{173}{Partition Function and Base Pair Probabilities for Sequence Alignment(s)}{section.13.25}{}}
\@writefile{toc}{\contentsline {subsection}{\numberline {13.25.1}Detailed Description}{173}{subsection.13.25.1}}
\@writefile{toc}{\contentsline {subsection}{\numberline {13.25.2}Function Documentation}{173}{subsection.13.25.2}}
\@writefile{toc}{\contentsline {subsubsection}{\numberline {13.25.2.1}vrna\discretionary {\unhbox \voidb@x \hbox {\relax \fontsize  {7}{8}\selectfont  $\DOTSB \leftarrow \joinrel  \rhook $}}{}{}\_\discretionary {\unhbox \voidb@x \hbox {\relax \fontsize  {7}{8}\selectfont  $\DOTSB \leftarrow \joinrel  \rhook $}}{}{}pf\discretionary {\unhbox \voidb@x \hbox {\relax \fontsize  {7}{8}\selectfont  $\DOTSB \leftarrow \joinrel  \rhook $}}{}{}\_\discretionary {\unhbox \voidb@x \hbox {\relax \fontsize  {7}{8}\selectfont  $\DOTSB \leftarrow \joinrel  \rhook $}}{}{}alifold}{173}{subsubsection.13.25.2.1}}
\newlabel{group__consensus__pf__fold_gaef750636c70e597a85ee139197a4350d}{{13.25.2.1}{173}{vrna\+\_\+pf\+\_\+alifold}{subsubsection.13.25.2.1}{}}
\gdef \PWST@cxlvi{1}
\citation{hofacker:2006}
\gdef \PWST@cxlvii{1}
\@writefile{toc}{\contentsline {subsubsection}{\numberline {13.25.2.2}vrna\discretionary {\unhbox \voidb@x \hbox {\relax \fontsize  {7}{8}\selectfont  $\DOTSB \leftarrow \joinrel  \rhook $}}{}{}\_\discretionary {\unhbox \voidb@x \hbox {\relax \fontsize  {7}{8}\selectfont  $\DOTSB \leftarrow \joinrel  \rhook $}}{}{}pf\discretionary {\unhbox \voidb@x \hbox {\relax \fontsize  {7}{8}\selectfont  $\DOTSB \leftarrow \joinrel  \rhook $}}{}{}\_\discretionary {\unhbox \voidb@x \hbox {\relax \fontsize  {7}{8}\selectfont  $\DOTSB \leftarrow \joinrel  \rhook $}}{}{}circalifold}{174}{subsubsection.13.25.2.2}}
\newlabel{group__consensus__pf__fold_ga017209394a4c1e68d96cd47e61d16d25}{{13.25.2.2}{174}{vrna\+\_\+pf\+\_\+circalifold}{subsubsection.13.25.2.2}{}}
\@writefile{brf}{\backcite{hofacker:2006}{{174}{13.25.2.2}{subsubsection.13.25.2.2}}}
\gdef \PWST@cxlviii{1}
\gdef \PWST@cxlix{1}
\@writefile{toc}{\contentsline {subsubsection}{\numberline {13.25.2.3}alipf\discretionary {\unhbox \voidb@x \hbox {\relax \fontsize  {7}{8}\selectfont  $\DOTSB \leftarrow \joinrel  \rhook $}}{}{}\_\discretionary {\unhbox \voidb@x \hbox {\relax \fontsize  {7}{8}\selectfont  $\DOTSB \leftarrow \joinrel  \rhook $}}{}{}fold\discretionary {\unhbox \voidb@x \hbox {\relax \fontsize  {7}{8}\selectfont  $\DOTSB \leftarrow \joinrel  \rhook $}}{}{}\_\discretionary {\unhbox \voidb@x \hbox {\relax \fontsize  {7}{8}\selectfont  $\DOTSB \leftarrow \joinrel  \rhook $}}{}{}par}{175}{subsubsection.13.25.2.3}}
\newlabel{group__consensus__pf__fold_ga5e8d54e41bf3d5b6e535d5bdb33c416e}{{13.25.2.3}{175}{alipf\+\_\+fold\+\_\+par}{subsubsection.13.25.2.3}{}}
\@writefile{toc}{\contentsline {subsubsection}{\numberline {13.25.2.4}alipf\discretionary {\unhbox \voidb@x \hbox {\relax \fontsize  {7}{8}\selectfont  $\DOTSB \leftarrow \joinrel  \rhook $}}{}{}\_\discretionary {\unhbox \voidb@x \hbox {\relax \fontsize  {7}{8}\selectfont  $\DOTSB \leftarrow \joinrel  \rhook $}}{}{}fold}{175}{subsubsection.13.25.2.4}}
\newlabel{group__consensus__pf__fold_gaa150d3ba7b009a1c27cb6f0eb197f6b4}{{13.25.2.4}{175}{alipf\+\_\+fold}{subsubsection.13.25.2.4}{}}
\@writefile{toc}{\contentsline {subsubsection}{\numberline {13.25.2.5}alipf\discretionary {\unhbox \voidb@x \hbox {\relax \fontsize  {7}{8}\selectfont  $\DOTSB \leftarrow \joinrel  \rhook $}}{}{}\_\discretionary {\unhbox \voidb@x \hbox {\relax \fontsize  {7}{8}\selectfont  $\DOTSB \leftarrow \joinrel  \rhook $}}{}{}circ\discretionary {\unhbox \voidb@x \hbox {\relax \fontsize  {7}{8}\selectfont  $\DOTSB \leftarrow \joinrel  \rhook $}}{}{}\_\discretionary {\unhbox \voidb@x \hbox {\relax \fontsize  {7}{8}\selectfont  $\DOTSB \leftarrow \joinrel  \rhook $}}{}{}fold}{175}{subsubsection.13.25.2.5}}
\newlabel{group__consensus__pf__fold_gaadd8d570442f86cbbc4978c8c62c9646}{{13.25.2.5}{175}{alipf\+\_\+circ\+\_\+fold}{subsubsection.13.25.2.5}{}}
\gdef \PWST@cl{2}
\@writefile{toc}{\contentsline {subsubsection}{\numberline {13.25.2.6}export\discretionary {\unhbox \voidb@x \hbox {\relax \fontsize  {7}{8}\selectfont  $\DOTSB \leftarrow \joinrel  \rhook $}}{}{}\_\discretionary {\unhbox \voidb@x \hbox {\relax \fontsize  {7}{8}\selectfont  $\DOTSB \leftarrow \joinrel  \rhook $}}{}{}ali\discretionary {\unhbox \voidb@x \hbox {\relax \fontsize  {7}{8}\selectfont  $\DOTSB \leftarrow \joinrel  \rhook $}}{}{}\_\discretionary {\unhbox \voidb@x \hbox {\relax \fontsize  {7}{8}\selectfont  $\DOTSB \leftarrow \joinrel  \rhook $}}{}{}bppm}{176}{subsubsection.13.25.2.6}}
\newlabel{group__consensus__pf__fold_ga11b6ab8bd9be1821fea352b190a01cab}{{13.25.2.6}{176}{export\+\_\+ali\+\_\+bppm}{subsubsection.13.25.2.6}{}}
\@writefile{toc}{\contentsline {subsubsection}{\numberline {13.25.2.7}free\discretionary {\unhbox \voidb@x \hbox {\relax \fontsize  {7}{8}\selectfont  $\DOTSB \leftarrow \joinrel  \rhook $}}{}{}\_\discretionary {\unhbox \voidb@x \hbox {\relax \fontsize  {7}{8}\selectfont  $\DOTSB \leftarrow \joinrel  \rhook $}}{}{}alipf\discretionary {\unhbox \voidb@x \hbox {\relax \fontsize  {7}{8}\selectfont  $\DOTSB \leftarrow \joinrel  \rhook $}}{}{}\_\discretionary {\unhbox \voidb@x \hbox {\relax \fontsize  {7}{8}\selectfont  $\DOTSB \leftarrow \joinrel  \rhook $}}{}{}arrays}{176}{subsubsection.13.25.2.7}}
\newlabel{group__consensus__pf__fold_ga0c0498f35686e26b38ee460d3db1a661}{{13.25.2.7}{176}{free\+\_\+alipf\+\_\+arrays}{subsubsection.13.25.2.7}{}}
\@setckpt{group__consensus__pf__fold}{
\setcounter{page}{177}
\setcounter{equation}{0}
\setcounter{enumi}{2}
\setcounter{enumii}{0}
\setcounter{enumiii}{0}
\setcounter{enumiv}{0}
\setcounter{footnote}{0}
\setcounter{mpfootnote}{0}
\setcounter{part}{0}
\setcounter{chapter}{13}
\setcounter{section}{25}
\setcounter{subsection}{2}
\setcounter{subsubsection}{7}
\setcounter{paragraph}{0}
\setcounter{subparagraph}{0}
\setcounter{figure}{0}
\setcounter{table}{0}
\setcounter{float@type}{4}
\setcounter{PWSTtable}{150}
\setcounter{NAT@ctr}{0}
\setcounter{lofdepth}{1}
\setcounter{lotdepth}{1}
\setcounter{parentequation}{0}
\setcounter{Item}{12}
\setcounter{Hfootnote}{0}
\setcounter{bookmark@seq@number}{401}
\setcounter{section@level}{3}
}
