\relax 
\providecommand\hyper@newdestlabel[2]{}
\@writefile{toc}{\contentsline {section}{\numberline {13.33}Classified Dynamic Programming}{194}{section.13.33}}
\newlabel{group__class__fold}{{13.33}{194}{Classified Dynamic Programming}{section.13.33}{}}
\@writefile{toc}{\contentsline {subsection}{\numberline {13.33.1}Detailed Description}{194}{subsection.13.33.1}}
\@setckpt{group__class__fold}{
\setcounter{page}{195}
\setcounter{equation}{0}
\setcounter{enumi}{2}
\setcounter{enumii}{0}
\setcounter{enumiii}{0}
\setcounter{enumiv}{0}
\setcounter{footnote}{0}
\setcounter{mpfootnote}{0}
\setcounter{part}{0}
\setcounter{chapter}{13}
\setcounter{section}{33}
\setcounter{subsection}{1}
\setcounter{subsubsection}{0}
\setcounter{paragraph}{0}
\setcounter{subparagraph}{0}
\setcounter{figure}{0}
\setcounter{table}{0}
\setcounter{float@type}{4}
\setcounter{PWSTtable}{163}
\setcounter{NAT@ctr}{0}
\setcounter{lofdepth}{1}
\setcounter{lotdepth}{1}
\setcounter{parentequation}{0}
\setcounter{Item}{12}
\setcounter{Hfootnote}{0}
\setcounter{bookmark@seq@number}{461}
\setcounter{section@level}{2}
}
