\relax 
\providecommand\hyper@newdestlabel[2]{}
\@writefile{toc}{\contentsline {section}{\numberline {13.28}Local M\discretionary {\unhbox \voidb@x \hbox {\relax \fontsize  {7}{8}\selectfont  $\DOTSB \leftarrow \joinrel  \rhook $}}{}{}F\discretionary {\unhbox \voidb@x \hbox {\relax \fontsize  {7}{8}\selectfont  $\DOTSB \leftarrow \joinrel  \rhook $}}{}{}E structure Prediction and Z-\/scores}{179}{section.13.28}}
\newlabel{group__local__mfe__fold}{{13.28}{179}{Local M\+F\+E structure Prediction and Z-\/scores}{section.13.28}{}}
\@writefile{toc}{\contentsline {subsection}{\numberline {13.28.1}Detailed Description}{179}{subsection.13.28.1}}
\@writefile{toc}{\contentsline {subsection}{\numberline {13.28.2}Function Documentation}{179}{subsection.13.28.2}}
\@writefile{toc}{\contentsline {subsubsection}{\numberline {13.28.2.1}vrna\discretionary {\unhbox \voidb@x \hbox {\relax \fontsize  {7}{8}\selectfont  $\DOTSB \leftarrow \joinrel  \rhook $}}{}{}\_\discretionary {\unhbox \voidb@x \hbox {\relax \fontsize  {7}{8}\selectfont  $\DOTSB \leftarrow \joinrel  \rhook $}}{}{}\discretionary {\unhbox \voidb@x \hbox {\relax \fontsize  {7}{8}\selectfont  $\DOTSB \leftarrow \joinrel  \rhook $}}{}{}Lfold}{179}{subsubsection.13.28.2.1}}
\newlabel{group__local__mfe__fold_ga4918cce52bf69c1913cda503b2ac75d8}{{13.28.2.1}{179}{vrna\+\_\+\+Lfold}{subsubsection.13.28.2.1}{}}
\gdef \PWST@clii{1}
\gdef \PWST@cliii{1}
\@writefile{toc}{\contentsline {subsubsection}{\numberline {13.28.2.2}vrna\discretionary {\unhbox \voidb@x \hbox {\relax \fontsize  {7}{8}\selectfont  $\DOTSB \leftarrow \joinrel  \rhook $}}{}{}\_\discretionary {\unhbox \voidb@x \hbox {\relax \fontsize  {7}{8}\selectfont  $\DOTSB \leftarrow \joinrel  \rhook $}}{}{}\discretionary {\unhbox \voidb@x \hbox {\relax \fontsize  {7}{8}\selectfont  $\DOTSB \leftarrow \joinrel  \rhook $}}{}{}Lfoldz}{180}{subsubsection.13.28.2.2}}
\newlabel{group__local__mfe__fold_ga27fddda5fc63eb49c861e38845fc34b4}{{13.28.2.2}{180}{vrna\+\_\+\+Lfoldz}{subsubsection.13.28.2.2}{}}
\@writefile{toc}{\contentsline {subsubsection}{\numberline {13.28.2.3}Lfold}{180}{subsubsection.13.28.2.3}}
\newlabel{group__local__mfe__fold_ga16e5a70e60835bb969eaecbe6482f1be}{{13.28.2.3}{180}{Lfold}{subsubsection.13.28.2.3}{}}
\@writefile{toc}{\contentsline {subsubsection}{\numberline {13.28.2.4}Lfoldz}{180}{subsubsection.13.28.2.4}}
\newlabel{group__local__mfe__fold_gab6d79eecc180f586679f7b85cce5cbe9}{{13.28.2.4}{180}{Lfoldz}{subsubsection.13.28.2.4}{}}
\gdef \PWST@cliv{1}
\gdef \PWST@clv{1}
\@writefile{toc}{\contentsline {subsubsection}{\numberline {13.28.2.5}vrna\discretionary {\unhbox \voidb@x \hbox {\relax \fontsize  {7}{8}\selectfont  $\DOTSB \leftarrow \joinrel  \rhook $}}{}{}\_\discretionary {\unhbox \voidb@x \hbox {\relax \fontsize  {7}{8}\selectfont  $\DOTSB \leftarrow \joinrel  \rhook $}}{}{}mfe\discretionary {\unhbox \voidb@x \hbox {\relax \fontsize  {7}{8}\selectfont  $\DOTSB \leftarrow \joinrel  \rhook $}}{}{}\_\discretionary {\unhbox \voidb@x \hbox {\relax \fontsize  {7}{8}\selectfont  $\DOTSB \leftarrow \joinrel  \rhook $}}{}{}window}{181}{subsubsection.13.28.2.5}}
\newlabel{group__local__mfe__fold_ga689df235a1915a1ad56e377383c044ce}{{13.28.2.5}{181}{vrna\+\_\+mfe\+\_\+window}{subsubsection.13.28.2.5}{}}
\@writefile{toc}{\contentsline {subsubsection}{\numberline {13.28.2.6}vrna\discretionary {\unhbox \voidb@x \hbox {\relax \fontsize  {7}{8}\selectfont  $\DOTSB \leftarrow \joinrel  \rhook $}}{}{}\_\discretionary {\unhbox \voidb@x \hbox {\relax \fontsize  {7}{8}\selectfont  $\DOTSB \leftarrow \joinrel  \rhook $}}{}{}mfe\discretionary {\unhbox \voidb@x \hbox {\relax \fontsize  {7}{8}\selectfont  $\DOTSB \leftarrow \joinrel  \rhook $}}{}{}\_\discretionary {\unhbox \voidb@x \hbox {\relax \fontsize  {7}{8}\selectfont  $\DOTSB \leftarrow \joinrel  \rhook $}}{}{}window\discretionary {\unhbox \voidb@x \hbox {\relax \fontsize  {7}{8}\selectfont  $\DOTSB \leftarrow \joinrel  \rhook $}}{}{}\_\discretionary {\unhbox \voidb@x \hbox {\relax \fontsize  {7}{8}\selectfont  $\DOTSB \leftarrow \joinrel  \rhook $}}{}{}zscore}{181}{subsubsection.13.28.2.6}}
\newlabel{group__local__mfe__fold_gaa4f67ae94efd08d800c17f9b53423fd6}{{13.28.2.6}{181}{vrna\+\_\+mfe\+\_\+window\+\_\+zscore}{subsubsection.13.28.2.6}{}}
\@setckpt{group__local__mfe__fold}{
\setcounter{page}{182}
\setcounter{equation}{0}
\setcounter{enumi}{2}
\setcounter{enumii}{0}
\setcounter{enumiii}{0}
\setcounter{enumiv}{0}
\setcounter{footnote}{0}
\setcounter{mpfootnote}{0}
\setcounter{part}{0}
\setcounter{chapter}{13}
\setcounter{section}{28}
\setcounter{subsection}{2}
\setcounter{subsubsection}{6}
\setcounter{paragraph}{0}
\setcounter{subparagraph}{0}
\setcounter{figure}{0}
\setcounter{table}{0}
\setcounter{float@type}{4}
\setcounter{PWSTtable}{155}
\setcounter{NAT@ctr}{0}
\setcounter{lofdepth}{1}
\setcounter{lotdepth}{1}
\setcounter{parentequation}{0}
\setcounter{Item}{12}
\setcounter{Hfootnote}{0}
\setcounter{bookmark@seq@number}{416}
\setcounter{section@level}{3}
}
