\relax 
\providecommand\hyper@newdestlabel[2]{}
\@writefile{toc}{\contentsline {section}{\numberline {13.43}The Fold Compound}{233}{section.13.43}}
\newlabel{group__fold__compound}{{13.43}{233}{The Fold Compound}{section.13.43}{}}
\newlabel{group__fold__compound_ga1b0cef17fd40466cef5968eaeeff6166}{{13.43}{233}{Typedefs}{section*.133}{}}
\@writefile{toc}{\contentsline {subsection}{\numberline {13.43.1}Detailed Description}{234}{subsection.13.43.1}}
\@writefile{toc}{\contentsline {subsection}{\numberline {13.43.2}Data Structure Documentation}{234}{subsection.13.43.2}}
\newlabel{structvrna__fc__s}{{13.43.2}{234}{Data Structure Documentation}{subsection.13.43.2}{}}
\@writefile{toc}{\contentsline {subsubsection}{\numberline {13.43.2.1}struct vrna\discretionary {\unhbox \voidb@x \hbox {\relax \fontsize  {7}{8}\selectfont  $\DOTSB \leftarrow \joinrel  \rhook $}}{}{}\_\discretionary {\unhbox \voidb@x \hbox {\relax \fontsize  {7}{8}\selectfont  $\DOTSB \leftarrow \joinrel  \rhook $}}{}{}fc\discretionary {\unhbox \voidb@x \hbox {\relax \fontsize  {7}{8}\selectfont  $\DOTSB \leftarrow \joinrel  \rhook $}}{}{}\_\discretionary {\unhbox \voidb@x \hbox {\relax \fontsize  {7}{8}\selectfont  $\DOTSB \leftarrow \joinrel  \rhook $}}{}{}s}{234}{subsubsection.13.43.2.1}}
\newlabel{group__fold__compound_a95fbfed770b858e50c766505dc4bf998}{{13.43.2.1}{235}{Data Fields}{section*.136}{}}
\newlabel{group__fold__compound_ae1a7bbff0256577e2b22709bac11fdb4}{{13.43.2.1}{235}{Data Fields}{section*.136}{}}
\newlabel{group__fold__compound_aceaa904dbf50092d403ca99422e8f824}{{13.43.2.1}{235}{Data Fields}{section*.136}{}}
\newlabel{group__fold__compound_aca8be7bdc65bafe2172c6ee777f18568}{{13.43.2.1}{235}{Data Fields}{section*.136}{}}
\newlabel{group__fold__compound_afc38ed5a1028a2712d2365274bf49727}{{13.43.2.1}{235}{Data Fields}{section*.136}{}}
\newlabel{group__fold__compound_a19b8720c2c5321c1b97c830bd17566ea}{{13.43.2.1}{235}{Data Fields}{section*.136}{}}
\newlabel{group__fold__compound_a7052a5d24f6091b9c5f79edcc9456a12}{{13.43.2.1}{235}{Data Fields}{section*.136}{}}
\newlabel{group__fold__compound_afdead4cf55c882d3497e779573e17e03}{{13.43.2.1}{235}{Data Fields}{section*.136}{}}
\newlabel{group__fold__compound_a5037235dee512efd85ca543780bbca1a}{{13.43.2.1}{235}{Data Fields}{section*.136}{}}
\newlabel{group__fold__compound_aaf9064092f674882e78665e1646ffdbf}{{13.43.2.1}{236}{Data Fields}{section*.136}{}}
\newlabel{group__fold__compound_abf4a526147da57db63990892987fea29}{{13.43.2.1}{236}{Data Fields}{section*.136}{}}
\newlabel{group__fold__compound_a5804d22ecba317fa64246d41c961bf35}{{13.43.2.1}{236}{Data Fields}{section*.136}{}}
\newlabel{group__fold__compound_ac539df9233472dd76d070f4a821185a9}{{13.43.2.1}{236}{Data Fields}{section*.136}{}}
\newlabel{group__fold__compound_a426305721b16023f2f3247f7354d2c46}{{13.43.2.1}{236}{Data Fields}{section*.136}{}}
\newlabel{group__fold__compound_a38695774fd396c892f9a70d39978b231}{{13.43.2.1}{236}{Data Fields}{section*.136}{}}
\newlabel{group__fold__compound_aa279ba4bd0ff541d435d3a049687f3ac}{{13.43.2.1}{236}{Data Fields}{section*.136}{}}
\newlabel{group__fold__compound_a926ad253f5f0eed642bc227493d0278d}{{13.43.2.1}{236}{Data Fields}{section*.136}{}}
\newlabel{group__fold__compound_a62a8d4ab8dadffbf09da917adff6c71e}{{13.43.2.1}{236}{Data Fields}{section*.136}{}}
\newlabel{group__fold__compound_a19187f33433e84683730dedff8544f71}{{13.43.2.1}{236}{Data Fields}{section*.136}{}}
\newlabel{group__fold__compound_a5c53e55583ce096148075bc240fc2bce}{{13.43.2.1}{236}{Data Fields}{section*.136}{}}
\newlabel{group__fold__compound_a0af5a888bac2ae32107da32776144504}{{13.43.2.1}{236}{Data Fields}{section*.136}{}}
\newlabel{group__fold__compound_a54c0b979274b285a7e093ed54aa3252e}{{13.43.2.1}{236}{Data Fields}{section*.136}{}}
\newlabel{group__fold__compound_adacbf7cdfb47d3072683ab509de735f6}{{13.43.2.1}{237}{Data Fields}{section*.136}{}}
\newlabel{group__fold__compound_a2ecb8ff5e21190936a8a146be7a251ff}{{13.43.2.1}{237}{Data Fields}{section*.136}{}}
\@writefile{toc}{\contentsline {paragraph}{\numberline {13.43.2.1.1}Field Documentation}{237}{paragraph.13.43.2.1.1}}
\@writefile{toc}{\contentsline {subparagraph}{\numberline {13.43.2.1.1.1}type}{237}{subparagraph.13.43.2.1.1.1}}
\newlabel{group__fold__compound_ac5eab693deac9a1a40c2a95ac294707c}{{13.43.2.1.1.1}{237}{type}{subparagraph.13.43.2.1.1.1}{}}
\@writefile{toc}{\contentsline {subparagraph}{\numberline {13.43.2.1.1.2}stat\discretionary {\unhbox \voidb@x \hbox {\relax \fontsize  {7}{8}\selectfont  $\DOTSB \leftarrow \joinrel  \rhook $}}{}{}\_\discretionary {\unhbox \voidb@x \hbox {\relax \fontsize  {7}{8}\selectfont  $\DOTSB \leftarrow \joinrel  \rhook $}}{}{}cb}{237}{subparagraph.13.43.2.1.1.2}}
\newlabel{group__fold__compound_a87a83f6795b569000efcbe65acc3dd81}{{13.43.2.1.1.2}{237}{stat\+\_\+cb}{subparagraph.13.43.2.1.1.2}{}}
\@writefile{toc}{\contentsline {subparagraph}{\numberline {13.43.2.1.1.3}auxdata}{237}{subparagraph.13.43.2.1.1.3}}
\newlabel{group__fold__compound_a20048e0c369e9f24b55423d600037c68}{{13.43.2.1.1.3}{237}{auxdata}{subparagraph.13.43.2.1.1.3}{}}
\@writefile{toc}{\contentsline {subparagraph}{\numberline {13.43.2.1.1.4}free\discretionary {\unhbox \voidb@x \hbox {\relax \fontsize  {7}{8}\selectfont  $\DOTSB \leftarrow \joinrel  \rhook $}}{}{}\_\discretionary {\unhbox \voidb@x \hbox {\relax \fontsize  {7}{8}\selectfont  $\DOTSB \leftarrow \joinrel  \rhook $}}{}{}auxdata}{237}{subparagraph.13.43.2.1.1.4}}
\newlabel{group__fold__compound_a8e84dbabab016ecd74da6c38cb94e816}{{13.43.2.1.1.4}{237}{free\+\_\+auxdata}{subparagraph.13.43.2.1.1.4}{}}
\@writefile{toc}{\contentsline {subparagraph}{\numberline {13.43.2.1.1.5}sequence}{237}{subparagraph.13.43.2.1.1.5}}
\newlabel{group__fold__compound_a87f6abcda89cfb7a486c97e1f5371525}{{13.43.2.1.1.5}{237}{sequence}{subparagraph.13.43.2.1.1.5}{}}
\@writefile{toc}{\contentsline {subparagraph}{\numberline {13.43.2.1.1.6}sequence\discretionary {\unhbox \voidb@x \hbox {\relax \fontsize  {7}{8}\selectfont  $\DOTSB \leftarrow \joinrel  \rhook $}}{}{}\_\discretionary {\unhbox \voidb@x \hbox {\relax \fontsize  {7}{8}\selectfont  $\DOTSB \leftarrow \joinrel  \rhook $}}{}{}encoding}{238}{subparagraph.13.43.2.1.1.6}}
\newlabel{group__fold__compound_a9934bdb695d35a3544285cbcc19f9763}{{13.43.2.1.1.6}{238}{sequence\+\_\+encoding}{subparagraph.13.43.2.1.1.6}{}}
\@writefile{toc}{\contentsline {subparagraph}{\numberline {13.43.2.1.1.7}ptype}{238}{subparagraph.13.43.2.1.1.7}}
\newlabel{group__fold__compound_a3fbea559f1d1976b2d67c215cdeee0b2}{{13.43.2.1.1.7}{238}{ptype}{subparagraph.13.43.2.1.1.7}{}}
\@writefile{toc}{\contentsline {subparagraph}{\numberline {13.43.2.1.1.8}ptype\discretionary {\unhbox \voidb@x \hbox {\relax \fontsize  {7}{8}\selectfont  $\DOTSB \leftarrow \joinrel  \rhook $}}{}{}\_\discretionary {\unhbox \voidb@x \hbox {\relax \fontsize  {7}{8}\selectfont  $\DOTSB \leftarrow \joinrel  \rhook $}}{}{}pf\discretionary {\unhbox \voidb@x \hbox {\relax \fontsize  {7}{8}\selectfont  $\DOTSB \leftarrow \joinrel  \rhook $}}{}{}\_\discretionary {\unhbox \voidb@x \hbox {\relax \fontsize  {7}{8}\selectfont  $\DOTSB \leftarrow \joinrel  \rhook $}}{}{}compat}{238}{subparagraph.13.43.2.1.1.8}}
\newlabel{group__fold__compound_a7fe1235ce3d41287695f1ae1e283e8fc}{{13.43.2.1.1.8}{238}{ptype\+\_\+pf\+\_\+compat}{subparagraph.13.43.2.1.1.8}{}}
\@writefile{toc}{\contentsline {subparagraph}{\numberline {13.43.2.1.1.9}sc}{238}{subparagraph.13.43.2.1.1.9}}
\newlabel{group__fold__compound_ac7089e90460ad3990a308808c8044c9f}{{13.43.2.1.1.9}{238}{sc}{subparagraph.13.43.2.1.1.9}{}}
\@writefile{toc}{\contentsline {subparagraph}{\numberline {13.43.2.1.1.10}sequences}{239}{subparagraph.13.43.2.1.1.10}}
\newlabel{group__fold__compound_a965dbb42f2e13cace5aa3bbab4396530}{{13.43.2.1.1.10}{239}{sequences}{subparagraph.13.43.2.1.1.10}{}}
\@writefile{toc}{\contentsline {subparagraph}{\numberline {13.43.2.1.1.11}n\discretionary {\unhbox \voidb@x \hbox {\relax \fontsize  {7}{8}\selectfont  $\DOTSB \leftarrow \joinrel  \rhook $}}{}{}\_\discretionary {\unhbox \voidb@x \hbox {\relax \fontsize  {7}{8}\selectfont  $\DOTSB \leftarrow \joinrel  \rhook $}}{}{}seq}{239}{subparagraph.13.43.2.1.1.11}}
\newlabel{group__fold__compound_a614702ab74478e786272be44f8cebfe3}{{13.43.2.1.1.11}{239}{n\+\_\+seq}{subparagraph.13.43.2.1.1.11}{}}
\@writefile{toc}{\contentsline {subparagraph}{\numberline {13.43.2.1.1.12}cons\discretionary {\unhbox \voidb@x \hbox {\relax \fontsize  {7}{8}\selectfont  $\DOTSB \leftarrow \joinrel  \rhook $}}{}{}\_\discretionary {\unhbox \voidb@x \hbox {\relax \fontsize  {7}{8}\selectfont  $\DOTSB \leftarrow \joinrel  \rhook $}}{}{}seq}{239}{subparagraph.13.43.2.1.1.12}}
\newlabel{group__fold__compound_ac472afde64d8b3c8b84e4809fda7d814}{{13.43.2.1.1.12}{239}{cons\+\_\+seq}{subparagraph.13.43.2.1.1.12}{}}
\@writefile{toc}{\contentsline {subparagraph}{\numberline {13.43.2.1.1.13}S\discretionary {\unhbox \voidb@x \hbox {\relax \fontsize  {7}{8}\selectfont  $\DOTSB \leftarrow \joinrel  \rhook $}}{}{}\_\discretionary {\unhbox \voidb@x \hbox {\relax \fontsize  {7}{8}\selectfont  $\DOTSB \leftarrow \joinrel  \rhook $}}{}{}cons}{239}{subparagraph.13.43.2.1.1.13}}
\newlabel{group__fold__compound_aa3fab7ae38ebfed2028375221d295686}{{13.43.2.1.1.13}{239}{S\+\_\+cons}{subparagraph.13.43.2.1.1.13}{}}
\@writefile{toc}{\contentsline {subparagraph}{\numberline {13.43.2.1.1.14}S}{239}{subparagraph.13.43.2.1.1.14}}
\newlabel{group__fold__compound_aebb37297f92c7bd22aac6343f8f61d61}{{13.43.2.1.1.14}{239}{S}{subparagraph.13.43.2.1.1.14}{}}
\@writefile{toc}{\contentsline {subparagraph}{\numberline {13.43.2.1.1.15}S5}{239}{subparagraph.13.43.2.1.1.15}}
\newlabel{group__fold__compound_a78d089b475e2230bd536b9a6ed8bb17c}{{13.43.2.1.1.15}{239}{S5}{subparagraph.13.43.2.1.1.15}{}}
\@writefile{toc}{\contentsline {subparagraph}{\numberline {13.43.2.1.1.16}S3}{240}{subparagraph.13.43.2.1.1.16}}
\newlabel{group__fold__compound_af6ab2a25b84d2308ee23f6b11b5fd52d}{{13.43.2.1.1.16}{240}{S3}{subparagraph.13.43.2.1.1.16}{}}
\@writefile{toc}{\contentsline {subparagraph}{\numberline {13.43.2.1.1.17}pscore}{240}{subparagraph.13.43.2.1.1.17}}
\newlabel{group__fold__compound_a14dc7755af6019ddbd0cf94b209e89dd}{{13.43.2.1.1.17}{240}{pscore}{subparagraph.13.43.2.1.1.17}{}}
\@writefile{toc}{\contentsline {subparagraph}{\numberline {13.43.2.1.1.18}pscore\discretionary {\unhbox \voidb@x \hbox {\relax \fontsize  {7}{8}\selectfont  $\DOTSB \leftarrow \joinrel  \rhook $}}{}{}\_\discretionary {\unhbox \voidb@x \hbox {\relax \fontsize  {7}{8}\selectfont  $\DOTSB \leftarrow \joinrel  \rhook $}}{}{}pf\discretionary {\unhbox \voidb@x \hbox {\relax \fontsize  {7}{8}\selectfont  $\DOTSB \leftarrow \joinrel  \rhook $}}{}{}\_\discretionary {\unhbox \voidb@x \hbox {\relax \fontsize  {7}{8}\selectfont  $\DOTSB \leftarrow \joinrel  \rhook $}}{}{}compat}{240}{subparagraph.13.43.2.1.1.18}}
\newlabel{group__fold__compound_abf5e82d14649b6179ae60ed7da6e4fc0}{{13.43.2.1.1.18}{240}{pscore\+\_\+pf\+\_\+compat}{subparagraph.13.43.2.1.1.18}{}}
\@writefile{toc}{\contentsline {subparagraph}{\numberline {13.43.2.1.1.19}scs}{240}{subparagraph.13.43.2.1.1.19}}
\newlabel{group__fold__compound_ac2b047fddabc51a76a96511174e47db1}{{13.43.2.1.1.19}{240}{scs}{subparagraph.13.43.2.1.1.19}{}}
\@writefile{toc}{\contentsline {subsection}{\numberline {13.43.3}Macro Definition Documentation}{240}{subsection.13.43.3}}
\@writefile{toc}{\contentsline {subsubsection}{\numberline {13.43.3.1}V\discretionary {\unhbox \voidb@x \hbox {\relax \fontsize  {7}{8}\selectfont  $\DOTSB \leftarrow \joinrel  \rhook $}}{}{}R\discretionary {\unhbox \voidb@x \hbox {\relax \fontsize  {7}{8}\selectfont  $\DOTSB \leftarrow \joinrel  \rhook $}}{}{}N\discretionary {\unhbox \voidb@x \hbox {\relax \fontsize  {7}{8}\selectfont  $\DOTSB \leftarrow \joinrel  \rhook $}}{}{}A\discretionary {\unhbox \voidb@x \hbox {\relax \fontsize  {7}{8}\selectfont  $\DOTSB \leftarrow \joinrel  \rhook $}}{}{}\_\discretionary {\unhbox \voidb@x \hbox {\relax \fontsize  {7}{8}\selectfont  $\DOTSB \leftarrow \joinrel  \rhook $}}{}{}\discretionary {\unhbox \voidb@x \hbox {\relax \fontsize  {7}{8}\selectfont  $\DOTSB \leftarrow \joinrel  \rhook $}}{}{}S\discretionary {\unhbox \voidb@x \hbox {\relax \fontsize  {7}{8}\selectfont  $\DOTSB \leftarrow \joinrel  \rhook $}}{}{}T\discretionary {\unhbox \voidb@x \hbox {\relax \fontsize  {7}{8}\selectfont  $\DOTSB \leftarrow \joinrel  \rhook $}}{}{}A\discretionary {\unhbox \voidb@x \hbox {\relax \fontsize  {7}{8}\selectfont  $\DOTSB \leftarrow \joinrel  \rhook $}}{}{}T\discretionary {\unhbox \voidb@x \hbox {\relax \fontsize  {7}{8}\selectfont  $\DOTSB \leftarrow \joinrel  \rhook $}}{}{}U\discretionary {\unhbox \voidb@x \hbox {\relax \fontsize  {7}{8}\selectfont  $\DOTSB \leftarrow \joinrel  \rhook $}}{}{}S\discretionary {\unhbox \voidb@x \hbox {\relax \fontsize  {7}{8}\selectfont  $\DOTSB \leftarrow \joinrel  \rhook $}}{}{}\_\discretionary {\unhbox \voidb@x \hbox {\relax \fontsize  {7}{8}\selectfont  $\DOTSB \leftarrow \joinrel  \rhook $}}{}{}\discretionary {\unhbox \voidb@x \hbox {\relax \fontsize  {7}{8}\selectfont  $\DOTSB \leftarrow \joinrel  \rhook $}}{}{}M\discretionary {\unhbox \voidb@x \hbox {\relax \fontsize  {7}{8}\selectfont  $\DOTSB \leftarrow \joinrel  \rhook $}}{}{}F\discretionary {\unhbox \voidb@x \hbox {\relax \fontsize  {7}{8}\selectfont  $\DOTSB \leftarrow \joinrel  \rhook $}}{}{}E\discretionary {\unhbox \voidb@x \hbox {\relax \fontsize  {7}{8}\selectfont  $\DOTSB \leftarrow \joinrel  \rhook $}}{}{}\_\discretionary {\unhbox \voidb@x \hbox {\relax \fontsize  {7}{8}\selectfont  $\DOTSB \leftarrow \joinrel  \rhook $}}{}{}\discretionary {\unhbox \voidb@x \hbox {\relax \fontsize  {7}{8}\selectfont  $\DOTSB \leftarrow \joinrel  \rhook $}}{}{}P\discretionary {\unhbox \voidb@x \hbox {\relax \fontsize  {7}{8}\selectfont  $\DOTSB \leftarrow \joinrel  \rhook $}}{}{}R\discretionary {\unhbox \voidb@x \hbox {\relax \fontsize  {7}{8}\selectfont  $\DOTSB \leftarrow \joinrel  \rhook $}}{}{}E}{240}{subsubsection.13.43.3.1}}
\newlabel{group__fold__compound_ga1a5053dc8acbb0111e852988726f07d6}{{13.43.3.1}{240}{V\+R\+N\+A\+\_\+\+S\+T\+A\+T\+U\+S\+\_\+\+M\+F\+E\+\_\+\+P\+R\+E}{subsubsection.13.43.3.1}{}}
\@writefile{toc}{\contentsline {subsubsection}{\numberline {13.43.3.2}V\discretionary {\unhbox \voidb@x \hbox {\relax \fontsize  {7}{8}\selectfont  $\DOTSB \leftarrow \joinrel  \rhook $}}{}{}R\discretionary {\unhbox \voidb@x \hbox {\relax \fontsize  {7}{8}\selectfont  $\DOTSB \leftarrow \joinrel  \rhook $}}{}{}N\discretionary {\unhbox \voidb@x \hbox {\relax \fontsize  {7}{8}\selectfont  $\DOTSB \leftarrow \joinrel  \rhook $}}{}{}A\discretionary {\unhbox \voidb@x \hbox {\relax \fontsize  {7}{8}\selectfont  $\DOTSB \leftarrow \joinrel  \rhook $}}{}{}\_\discretionary {\unhbox \voidb@x \hbox {\relax \fontsize  {7}{8}\selectfont  $\DOTSB \leftarrow \joinrel  \rhook $}}{}{}\discretionary {\unhbox \voidb@x \hbox {\relax \fontsize  {7}{8}\selectfont  $\DOTSB \leftarrow \joinrel  \rhook $}}{}{}S\discretionary {\unhbox \voidb@x \hbox {\relax \fontsize  {7}{8}\selectfont  $\DOTSB \leftarrow \joinrel  \rhook $}}{}{}T\discretionary {\unhbox \voidb@x \hbox {\relax \fontsize  {7}{8}\selectfont  $\DOTSB \leftarrow \joinrel  \rhook $}}{}{}A\discretionary {\unhbox \voidb@x \hbox {\relax \fontsize  {7}{8}\selectfont  $\DOTSB \leftarrow \joinrel  \rhook $}}{}{}T\discretionary {\unhbox \voidb@x \hbox {\relax \fontsize  {7}{8}\selectfont  $\DOTSB \leftarrow \joinrel  \rhook $}}{}{}U\discretionary {\unhbox \voidb@x \hbox {\relax \fontsize  {7}{8}\selectfont  $\DOTSB \leftarrow \joinrel  \rhook $}}{}{}S\discretionary {\unhbox \voidb@x \hbox {\relax \fontsize  {7}{8}\selectfont  $\DOTSB \leftarrow \joinrel  \rhook $}}{}{}\_\discretionary {\unhbox \voidb@x \hbox {\relax \fontsize  {7}{8}\selectfont  $\DOTSB \leftarrow \joinrel  \rhook $}}{}{}\discretionary {\unhbox \voidb@x \hbox {\relax \fontsize  {7}{8}\selectfont  $\DOTSB \leftarrow \joinrel  \rhook $}}{}{}M\discretionary {\unhbox \voidb@x \hbox {\relax \fontsize  {7}{8}\selectfont  $\DOTSB \leftarrow \joinrel  \rhook $}}{}{}F\discretionary {\unhbox \voidb@x \hbox {\relax \fontsize  {7}{8}\selectfont  $\DOTSB \leftarrow \joinrel  \rhook $}}{}{}E\discretionary {\unhbox \voidb@x \hbox {\relax \fontsize  {7}{8}\selectfont  $\DOTSB \leftarrow \joinrel  \rhook $}}{}{}\_\discretionary {\unhbox \voidb@x \hbox {\relax \fontsize  {7}{8}\selectfont  $\DOTSB \leftarrow \joinrel  \rhook $}}{}{}\discretionary {\unhbox \voidb@x \hbox {\relax \fontsize  {7}{8}\selectfont  $\DOTSB \leftarrow \joinrel  \rhook $}}{}{}P\discretionary {\unhbox \voidb@x \hbox {\relax \fontsize  {7}{8}\selectfont  $\DOTSB \leftarrow \joinrel  \rhook $}}{}{}O\discretionary {\unhbox \voidb@x \hbox {\relax \fontsize  {7}{8}\selectfont  $\DOTSB \leftarrow \joinrel  \rhook $}}{}{}S\discretionary {\unhbox \voidb@x \hbox {\relax \fontsize  {7}{8}\selectfont  $\DOTSB \leftarrow \joinrel  \rhook $}}{}{}T}{240}{subsubsection.13.43.3.2}}
\newlabel{group__fold__compound_ga47c900ca76e56e59e2e83a06e0bde641}{{13.43.3.2}{240}{V\+R\+N\+A\+\_\+\+S\+T\+A\+T\+U\+S\+\_\+\+M\+F\+E\+\_\+\+P\+O\+S\+T}{subsubsection.13.43.3.2}{}}
\@writefile{toc}{\contentsline {subsubsection}{\numberline {13.43.3.3}V\discretionary {\unhbox \voidb@x \hbox {\relax \fontsize  {7}{8}\selectfont  $\DOTSB \leftarrow \joinrel  \rhook $}}{}{}R\discretionary {\unhbox \voidb@x \hbox {\relax \fontsize  {7}{8}\selectfont  $\DOTSB \leftarrow \joinrel  \rhook $}}{}{}N\discretionary {\unhbox \voidb@x \hbox {\relax \fontsize  {7}{8}\selectfont  $\DOTSB \leftarrow \joinrel  \rhook $}}{}{}A\discretionary {\unhbox \voidb@x \hbox {\relax \fontsize  {7}{8}\selectfont  $\DOTSB \leftarrow \joinrel  \rhook $}}{}{}\_\discretionary {\unhbox \voidb@x \hbox {\relax \fontsize  {7}{8}\selectfont  $\DOTSB \leftarrow \joinrel  \rhook $}}{}{}\discretionary {\unhbox \voidb@x \hbox {\relax \fontsize  {7}{8}\selectfont  $\DOTSB \leftarrow \joinrel  \rhook $}}{}{}S\discretionary {\unhbox \voidb@x \hbox {\relax \fontsize  {7}{8}\selectfont  $\DOTSB \leftarrow \joinrel  \rhook $}}{}{}T\discretionary {\unhbox \voidb@x \hbox {\relax \fontsize  {7}{8}\selectfont  $\DOTSB \leftarrow \joinrel  \rhook $}}{}{}A\discretionary {\unhbox \voidb@x \hbox {\relax \fontsize  {7}{8}\selectfont  $\DOTSB \leftarrow \joinrel  \rhook $}}{}{}T\discretionary {\unhbox \voidb@x \hbox {\relax \fontsize  {7}{8}\selectfont  $\DOTSB \leftarrow \joinrel  \rhook $}}{}{}U\discretionary {\unhbox \voidb@x \hbox {\relax \fontsize  {7}{8}\selectfont  $\DOTSB \leftarrow \joinrel  \rhook $}}{}{}S\discretionary {\unhbox \voidb@x \hbox {\relax \fontsize  {7}{8}\selectfont  $\DOTSB \leftarrow \joinrel  \rhook $}}{}{}\_\discretionary {\unhbox \voidb@x \hbox {\relax \fontsize  {7}{8}\selectfont  $\DOTSB \leftarrow \joinrel  \rhook $}}{}{}\discretionary {\unhbox \voidb@x \hbox {\relax \fontsize  {7}{8}\selectfont  $\DOTSB \leftarrow \joinrel  \rhook $}}{}{}P\discretionary {\unhbox \voidb@x \hbox {\relax \fontsize  {7}{8}\selectfont  $\DOTSB \leftarrow \joinrel  \rhook $}}{}{}F\discretionary {\unhbox \voidb@x \hbox {\relax \fontsize  {7}{8}\selectfont  $\DOTSB \leftarrow \joinrel  \rhook $}}{}{}\_\discretionary {\unhbox \voidb@x \hbox {\relax \fontsize  {7}{8}\selectfont  $\DOTSB \leftarrow \joinrel  \rhook $}}{}{}\discretionary {\unhbox \voidb@x \hbox {\relax \fontsize  {7}{8}\selectfont  $\DOTSB \leftarrow \joinrel  \rhook $}}{}{}P\discretionary {\unhbox \voidb@x \hbox {\relax \fontsize  {7}{8}\selectfont  $\DOTSB \leftarrow \joinrel  \rhook $}}{}{}R\discretionary {\unhbox \voidb@x \hbox {\relax \fontsize  {7}{8}\selectfont  $\DOTSB \leftarrow \joinrel  \rhook $}}{}{}E}{241}{subsubsection.13.43.3.3}}
\newlabel{group__fold__compound_ga91795d35ebdb6f32be50459f24b3d114}{{13.43.3.3}{241}{V\+R\+N\+A\+\_\+\+S\+T\+A\+T\+U\+S\+\_\+\+P\+F\+\_\+\+P\+R\+E}{subsubsection.13.43.3.3}{}}
\@writefile{toc}{\contentsline {subsubsection}{\numberline {13.43.3.4}V\discretionary {\unhbox \voidb@x \hbox {\relax \fontsize  {7}{8}\selectfont  $\DOTSB \leftarrow \joinrel  \rhook $}}{}{}R\discretionary {\unhbox \voidb@x \hbox {\relax \fontsize  {7}{8}\selectfont  $\DOTSB \leftarrow \joinrel  \rhook $}}{}{}N\discretionary {\unhbox \voidb@x \hbox {\relax \fontsize  {7}{8}\selectfont  $\DOTSB \leftarrow \joinrel  \rhook $}}{}{}A\discretionary {\unhbox \voidb@x \hbox {\relax \fontsize  {7}{8}\selectfont  $\DOTSB \leftarrow \joinrel  \rhook $}}{}{}\_\discretionary {\unhbox \voidb@x \hbox {\relax \fontsize  {7}{8}\selectfont  $\DOTSB \leftarrow \joinrel  \rhook $}}{}{}\discretionary {\unhbox \voidb@x \hbox {\relax \fontsize  {7}{8}\selectfont  $\DOTSB \leftarrow \joinrel  \rhook $}}{}{}S\discretionary {\unhbox \voidb@x \hbox {\relax \fontsize  {7}{8}\selectfont  $\DOTSB \leftarrow \joinrel  \rhook $}}{}{}T\discretionary {\unhbox \voidb@x \hbox {\relax \fontsize  {7}{8}\selectfont  $\DOTSB \leftarrow \joinrel  \rhook $}}{}{}A\discretionary {\unhbox \voidb@x \hbox {\relax \fontsize  {7}{8}\selectfont  $\DOTSB \leftarrow \joinrel  \rhook $}}{}{}T\discretionary {\unhbox \voidb@x \hbox {\relax \fontsize  {7}{8}\selectfont  $\DOTSB \leftarrow \joinrel  \rhook $}}{}{}U\discretionary {\unhbox \voidb@x \hbox {\relax \fontsize  {7}{8}\selectfont  $\DOTSB \leftarrow \joinrel  \rhook $}}{}{}S\discretionary {\unhbox \voidb@x \hbox {\relax \fontsize  {7}{8}\selectfont  $\DOTSB \leftarrow \joinrel  \rhook $}}{}{}\_\discretionary {\unhbox \voidb@x \hbox {\relax \fontsize  {7}{8}\selectfont  $\DOTSB \leftarrow \joinrel  \rhook $}}{}{}\discretionary {\unhbox \voidb@x \hbox {\relax \fontsize  {7}{8}\selectfont  $\DOTSB \leftarrow \joinrel  \rhook $}}{}{}P\discretionary {\unhbox \voidb@x \hbox {\relax \fontsize  {7}{8}\selectfont  $\DOTSB \leftarrow \joinrel  \rhook $}}{}{}F\discretionary {\unhbox \voidb@x \hbox {\relax \fontsize  {7}{8}\selectfont  $\DOTSB \leftarrow \joinrel  \rhook $}}{}{}\_\discretionary {\unhbox \voidb@x \hbox {\relax \fontsize  {7}{8}\selectfont  $\DOTSB \leftarrow \joinrel  \rhook $}}{}{}\discretionary {\unhbox \voidb@x \hbox {\relax \fontsize  {7}{8}\selectfont  $\DOTSB \leftarrow \joinrel  \rhook $}}{}{}P\discretionary {\unhbox \voidb@x \hbox {\relax \fontsize  {7}{8}\selectfont  $\DOTSB \leftarrow \joinrel  \rhook $}}{}{}O\discretionary {\unhbox \voidb@x \hbox {\relax \fontsize  {7}{8}\selectfont  $\DOTSB \leftarrow \joinrel  \rhook $}}{}{}S\discretionary {\unhbox \voidb@x \hbox {\relax \fontsize  {7}{8}\selectfont  $\DOTSB \leftarrow \joinrel  \rhook $}}{}{}T}{241}{subsubsection.13.43.3.4}}
\newlabel{group__fold__compound_ga1c6fa243533fd026e50f7d595eaaa565}{{13.43.3.4}{241}{V\+R\+N\+A\+\_\+\+S\+T\+A\+T\+U\+S\+\_\+\+P\+F\+\_\+\+P\+O\+S\+T}{subsubsection.13.43.3.4}{}}
\@writefile{toc}{\contentsline {subsubsection}{\numberline {13.43.3.5}V\discretionary {\unhbox \voidb@x \hbox {\relax \fontsize  {7}{8}\selectfont  $\DOTSB \leftarrow \joinrel  \rhook $}}{}{}R\discretionary {\unhbox \voidb@x \hbox {\relax \fontsize  {7}{8}\selectfont  $\DOTSB \leftarrow \joinrel  \rhook $}}{}{}N\discretionary {\unhbox \voidb@x \hbox {\relax \fontsize  {7}{8}\selectfont  $\DOTSB \leftarrow \joinrel  \rhook $}}{}{}A\discretionary {\unhbox \voidb@x \hbox {\relax \fontsize  {7}{8}\selectfont  $\DOTSB \leftarrow \joinrel  \rhook $}}{}{}\_\discretionary {\unhbox \voidb@x \hbox {\relax \fontsize  {7}{8}\selectfont  $\DOTSB \leftarrow \joinrel  \rhook $}}{}{}\discretionary {\unhbox \voidb@x \hbox {\relax \fontsize  {7}{8}\selectfont  $\DOTSB \leftarrow \joinrel  \rhook $}}{}{}O\discretionary {\unhbox \voidb@x \hbox {\relax \fontsize  {7}{8}\selectfont  $\DOTSB \leftarrow \joinrel  \rhook $}}{}{}P\discretionary {\unhbox \voidb@x \hbox {\relax \fontsize  {7}{8}\selectfont  $\DOTSB \leftarrow \joinrel  \rhook $}}{}{}T\discretionary {\unhbox \voidb@x \hbox {\relax \fontsize  {7}{8}\selectfont  $\DOTSB \leftarrow \joinrel  \rhook $}}{}{}I\discretionary {\unhbox \voidb@x \hbox {\relax \fontsize  {7}{8}\selectfont  $\DOTSB \leftarrow \joinrel  \rhook $}}{}{}O\discretionary {\unhbox \voidb@x \hbox {\relax \fontsize  {7}{8}\selectfont  $\DOTSB \leftarrow \joinrel  \rhook $}}{}{}N\discretionary {\unhbox \voidb@x \hbox {\relax \fontsize  {7}{8}\selectfont  $\DOTSB \leftarrow \joinrel  \rhook $}}{}{}\_\discretionary {\unhbox \voidb@x \hbox {\relax \fontsize  {7}{8}\selectfont  $\DOTSB \leftarrow \joinrel  \rhook $}}{}{}\discretionary {\unhbox \voidb@x \hbox {\relax \fontsize  {7}{8}\selectfont  $\DOTSB \leftarrow \joinrel  \rhook $}}{}{}M\discretionary {\unhbox \voidb@x \hbox {\relax \fontsize  {7}{8}\selectfont  $\DOTSB \leftarrow \joinrel  \rhook $}}{}{}F\discretionary {\unhbox \voidb@x \hbox {\relax \fontsize  {7}{8}\selectfont  $\DOTSB \leftarrow \joinrel  \rhook $}}{}{}E}{241}{subsubsection.13.43.3.5}}
\newlabel{group__fold__compound_gae63be9127fe7dcc1f9bb14f5bb1064ee}{{13.43.3.5}{241}{V\+R\+N\+A\+\_\+\+O\+P\+T\+I\+O\+N\+\_\+\+M\+F\+E}{subsubsection.13.43.3.5}{}}
\@writefile{toc}{\contentsline {subsubsection}{\numberline {13.43.3.6}V\discretionary {\unhbox \voidb@x \hbox {\relax \fontsize  {7}{8}\selectfont  $\DOTSB \leftarrow \joinrel  \rhook $}}{}{}R\discretionary {\unhbox \voidb@x \hbox {\relax \fontsize  {7}{8}\selectfont  $\DOTSB \leftarrow \joinrel  \rhook $}}{}{}N\discretionary {\unhbox \voidb@x \hbox {\relax \fontsize  {7}{8}\selectfont  $\DOTSB \leftarrow \joinrel  \rhook $}}{}{}A\discretionary {\unhbox \voidb@x \hbox {\relax \fontsize  {7}{8}\selectfont  $\DOTSB \leftarrow \joinrel  \rhook $}}{}{}\_\discretionary {\unhbox \voidb@x \hbox {\relax \fontsize  {7}{8}\selectfont  $\DOTSB \leftarrow \joinrel  \rhook $}}{}{}\discretionary {\unhbox \voidb@x \hbox {\relax \fontsize  {7}{8}\selectfont  $\DOTSB \leftarrow \joinrel  \rhook $}}{}{}O\discretionary {\unhbox \voidb@x \hbox {\relax \fontsize  {7}{8}\selectfont  $\DOTSB \leftarrow \joinrel  \rhook $}}{}{}P\discretionary {\unhbox \voidb@x \hbox {\relax \fontsize  {7}{8}\selectfont  $\DOTSB \leftarrow \joinrel  \rhook $}}{}{}T\discretionary {\unhbox \voidb@x \hbox {\relax \fontsize  {7}{8}\selectfont  $\DOTSB \leftarrow \joinrel  \rhook $}}{}{}I\discretionary {\unhbox \voidb@x \hbox {\relax \fontsize  {7}{8}\selectfont  $\DOTSB \leftarrow \joinrel  \rhook $}}{}{}O\discretionary {\unhbox \voidb@x \hbox {\relax \fontsize  {7}{8}\selectfont  $\DOTSB \leftarrow \joinrel  \rhook $}}{}{}N\discretionary {\unhbox \voidb@x \hbox {\relax \fontsize  {7}{8}\selectfont  $\DOTSB \leftarrow \joinrel  \rhook $}}{}{}\_\discretionary {\unhbox \voidb@x \hbox {\relax \fontsize  {7}{8}\selectfont  $\DOTSB \leftarrow \joinrel  \rhook $}}{}{}\discretionary {\unhbox \voidb@x \hbox {\relax \fontsize  {7}{8}\selectfont  $\DOTSB \leftarrow \joinrel  \rhook $}}{}{}P\discretionary {\unhbox \voidb@x \hbox {\relax \fontsize  {7}{8}\selectfont  $\DOTSB \leftarrow \joinrel  \rhook $}}{}{}F}{241}{subsubsection.13.43.3.6}}
\newlabel{group__fold__compound_gabfbadcddda3e74ce7f49035ef8f058f7}{{13.43.3.6}{241}{V\+R\+N\+A\+\_\+\+O\+P\+T\+I\+O\+N\+\_\+\+P\+F}{subsubsection.13.43.3.6}{}}
\@writefile{toc}{\contentsline {subsubsection}{\numberline {13.43.3.7}V\discretionary {\unhbox \voidb@x \hbox {\relax \fontsize  {7}{8}\selectfont  $\DOTSB \leftarrow \joinrel  \rhook $}}{}{}R\discretionary {\unhbox \voidb@x \hbox {\relax \fontsize  {7}{8}\selectfont  $\DOTSB \leftarrow \joinrel  \rhook $}}{}{}N\discretionary {\unhbox \voidb@x \hbox {\relax \fontsize  {7}{8}\selectfont  $\DOTSB \leftarrow \joinrel  \rhook $}}{}{}A\discretionary {\unhbox \voidb@x \hbox {\relax \fontsize  {7}{8}\selectfont  $\DOTSB \leftarrow \joinrel  \rhook $}}{}{}\_\discretionary {\unhbox \voidb@x \hbox {\relax \fontsize  {7}{8}\selectfont  $\DOTSB \leftarrow \joinrel  \rhook $}}{}{}\discretionary {\unhbox \voidb@x \hbox {\relax \fontsize  {7}{8}\selectfont  $\DOTSB \leftarrow \joinrel  \rhook $}}{}{}O\discretionary {\unhbox \voidb@x \hbox {\relax \fontsize  {7}{8}\selectfont  $\DOTSB \leftarrow \joinrel  \rhook $}}{}{}P\discretionary {\unhbox \voidb@x \hbox {\relax \fontsize  {7}{8}\selectfont  $\DOTSB \leftarrow \joinrel  \rhook $}}{}{}T\discretionary {\unhbox \voidb@x \hbox {\relax \fontsize  {7}{8}\selectfont  $\DOTSB \leftarrow \joinrel  \rhook $}}{}{}I\discretionary {\unhbox \voidb@x \hbox {\relax \fontsize  {7}{8}\selectfont  $\DOTSB \leftarrow \joinrel  \rhook $}}{}{}O\discretionary {\unhbox \voidb@x \hbox {\relax \fontsize  {7}{8}\selectfont  $\DOTSB \leftarrow \joinrel  \rhook $}}{}{}N\discretionary {\unhbox \voidb@x \hbox {\relax \fontsize  {7}{8}\selectfont  $\DOTSB \leftarrow \joinrel  \rhook $}}{}{}\_\discretionary {\unhbox \voidb@x \hbox {\relax \fontsize  {7}{8}\selectfont  $\DOTSB \leftarrow \joinrel  \rhook $}}{}{}\discretionary {\unhbox \voidb@x \hbox {\relax \fontsize  {7}{8}\selectfont  $\DOTSB \leftarrow \joinrel  \rhook $}}{}{}E\discretionary {\unhbox \voidb@x \hbox {\relax \fontsize  {7}{8}\selectfont  $\DOTSB \leftarrow \joinrel  \rhook $}}{}{}V\discretionary {\unhbox \voidb@x \hbox {\relax \fontsize  {7}{8}\selectfont  $\DOTSB \leftarrow \joinrel  \rhook $}}{}{}A\discretionary {\unhbox \voidb@x \hbox {\relax \fontsize  {7}{8}\selectfont  $\DOTSB \leftarrow \joinrel  \rhook $}}{}{}L\discretionary {\unhbox \voidb@x \hbox {\relax \fontsize  {7}{8}\selectfont  $\DOTSB \leftarrow \joinrel  \rhook $}}{}{}\_\discretionary {\unhbox \voidb@x \hbox {\relax \fontsize  {7}{8}\selectfont  $\DOTSB \leftarrow \joinrel  \rhook $}}{}{}\discretionary {\unhbox \voidb@x \hbox {\relax \fontsize  {7}{8}\selectfont  $\DOTSB \leftarrow \joinrel  \rhook $}}{}{}O\discretionary {\unhbox \voidb@x \hbox {\relax \fontsize  {7}{8}\selectfont  $\DOTSB \leftarrow \joinrel  \rhook $}}{}{}N\discretionary {\unhbox \voidb@x \hbox {\relax \fontsize  {7}{8}\selectfont  $\DOTSB \leftarrow \joinrel  \rhook $}}{}{}L\discretionary {\unhbox \voidb@x \hbox {\relax \fontsize  {7}{8}\selectfont  $\DOTSB \leftarrow \joinrel  \rhook $}}{}{}Y}{241}{subsubsection.13.43.3.7}}
\newlabel{group__fold__compound_ga61469c423131552c8483229f8b6c7e0e}{{13.43.3.7}{241}{V\+R\+N\+A\+\_\+\+O\+P\+T\+I\+O\+N\+\_\+\+E\+V\+A\+L\+\_\+\+O\+N\+L\+Y}{subsubsection.13.43.3.7}{}}
\gdef \PWST@cxcviii{1}
\gdef \PWST@cxcix{1}
\@writefile{toc}{\contentsline {subsection}{\numberline {13.43.4}Typedef Documentation}{242}{subsection.13.43.4}}
\@writefile{toc}{\contentsline {subsubsection}{\numberline {13.43.4.1}vrna\discretionary {\unhbox \voidb@x \hbox {\relax \fontsize  {7}{8}\selectfont  $\DOTSB \leftarrow \joinrel  \rhook $}}{}{}\_\discretionary {\unhbox \voidb@x \hbox {\relax \fontsize  {7}{8}\selectfont  $\DOTSB \leftarrow \joinrel  \rhook $}}{}{}callback\discretionary {\unhbox \voidb@x \hbox {\relax \fontsize  {7}{8}\selectfont  $\DOTSB \leftarrow \joinrel  \rhook $}}{}{}\_\discretionary {\unhbox \voidb@x \hbox {\relax \fontsize  {7}{8}\selectfont  $\DOTSB \leftarrow \joinrel  \rhook $}}{}{}free\discretionary {\unhbox \voidb@x \hbox {\relax \fontsize  {7}{8}\selectfont  $\DOTSB \leftarrow \joinrel  \rhook $}}{}{}\_\discretionary {\unhbox \voidb@x \hbox {\relax \fontsize  {7}{8}\selectfont  $\DOTSB \leftarrow \joinrel  \rhook $}}{}{}auxdata}{242}{subsubsection.13.43.4.1}}
\newlabel{group__fold__compound_ga3ae51bfd5fc3236652d1de4e3274b49b}{{13.43.4.1}{242}{vrna\+\_\+callback\+\_\+free\+\_\+auxdata}{subsubsection.13.43.4.1}{}}
\@writefile{toc}{\contentsline {subsubsection}{\numberline {13.43.4.2}vrna\discretionary {\unhbox \voidb@x \hbox {\relax \fontsize  {7}{8}\selectfont  $\DOTSB \leftarrow \joinrel  \rhook $}}{}{}\_\discretionary {\unhbox \voidb@x \hbox {\relax \fontsize  {7}{8}\selectfont  $\DOTSB \leftarrow \joinrel  \rhook $}}{}{}callback\discretionary {\unhbox \voidb@x \hbox {\relax \fontsize  {7}{8}\selectfont  $\DOTSB \leftarrow \joinrel  \rhook $}}{}{}\_\discretionary {\unhbox \voidb@x \hbox {\relax \fontsize  {7}{8}\selectfont  $\DOTSB \leftarrow \joinrel  \rhook $}}{}{}recursion\discretionary {\unhbox \voidb@x \hbox {\relax \fontsize  {7}{8}\selectfont  $\DOTSB \leftarrow \joinrel  \rhook $}}{}{}\_\discretionary {\unhbox \voidb@x \hbox {\relax \fontsize  {7}{8}\selectfont  $\DOTSB \leftarrow \joinrel  \rhook $}}{}{}status}{242}{subsubsection.13.43.4.2}}
\newlabel{group__fold__compound_ga43ebc52e8a1bf40676e4baee89b29072}{{13.43.4.2}{242}{vrna\+\_\+callback\+\_\+recursion\+\_\+status}{subsubsection.13.43.4.2}{}}
\@writefile{toc}{\contentsline {subsection}{\numberline {13.43.5}Enumeration Type Documentation}{242}{subsection.13.43.5}}
\@writefile{toc}{\contentsline {subsubsection}{\numberline {13.43.5.1}vrna\discretionary {\unhbox \voidb@x \hbox {\relax \fontsize  {7}{8}\selectfont  $\DOTSB \leftarrow \joinrel  \rhook $}}{}{}\_\discretionary {\unhbox \voidb@x \hbox {\relax \fontsize  {7}{8}\selectfont  $\DOTSB \leftarrow \joinrel  \rhook $}}{}{}fc\discretionary {\unhbox \voidb@x \hbox {\relax \fontsize  {7}{8}\selectfont  $\DOTSB \leftarrow \joinrel  \rhook $}}{}{}\_\discretionary {\unhbox \voidb@x \hbox {\relax \fontsize  {7}{8}\selectfont  $\DOTSB \leftarrow \joinrel  \rhook $}}{}{}type\discretionary {\unhbox \voidb@x \hbox {\relax \fontsize  {7}{8}\selectfont  $\DOTSB \leftarrow \joinrel  \rhook $}}{}{}\_\discretionary {\unhbox \voidb@x \hbox {\relax \fontsize  {7}{8}\selectfont  $\DOTSB \leftarrow \joinrel  \rhook $}}{}{}e}{242}{subsubsection.13.43.5.1}}
\newlabel{group__fold__compound_ga01a4ff86fa71deaaa5d1abbd95a1447d}{{13.43.5.1}{242}{vrna\+\_\+fc\+\_\+type\+\_\+e}{subsubsection.13.43.5.1}{}}
\newlabel{group__fold__compound_gga01a4ff86fa71deaaa5d1abbd95a1447da1608d3aa78905fc39e0d25a624ac9512}{{13.43.5.1}{242}{\em \hypertarget {group__fold__compound_gga01a4ff86fa71deaaa5d1abbd95a1447da1608d3aa78905fc39e0d25a624ac9512}{}V\+R\+N\+A\+\_\+\+V\+C\+\_\+\+T\+Y\+P\+E\+\_\+\+S\+I\+N\+G\+L\+E}{subsubsection.13.43.5.1}{}}
\newlabel{group__fold__compound_gga01a4ff86fa71deaaa5d1abbd95a1447da056345f1bcfe7cd595d1fd437c05246d}{{13.43.5.1}{242}{\em \hypertarget {group__fold__compound_gga01a4ff86fa71deaaa5d1abbd95a1447da056345f1bcfe7cd595d1fd437c05246d}{}V\+R\+N\+A\+\_\+\+V\+C\+\_\+\+T\+Y\+P\+E\+\_\+\+A\+L\+I\+G\+N\+M\+E\+N\+T}{subsubsection.13.43.5.1}{}}
\@writefile{toc}{\contentsline {subsection}{\numberline {13.43.6}Function Documentation}{242}{subsection.13.43.6}}
\@writefile{toc}{\contentsline {subsubsection}{\numberline {13.43.6.1}vrna\discretionary {\unhbox \voidb@x \hbox {\relax \fontsize  {7}{8}\selectfont  $\DOTSB \leftarrow \joinrel  \rhook $}}{}{}\_\discretionary {\unhbox \voidb@x \hbox {\relax \fontsize  {7}{8}\selectfont  $\DOTSB \leftarrow \joinrel  \rhook $}}{}{}fold\discretionary {\unhbox \voidb@x \hbox {\relax \fontsize  {7}{8}\selectfont  $\DOTSB \leftarrow \joinrel  \rhook $}}{}{}\_\discretionary {\unhbox \voidb@x \hbox {\relax \fontsize  {7}{8}\selectfont  $\DOTSB \leftarrow \joinrel  \rhook $}}{}{}compound}{242}{subsubsection.13.43.6.1}}
\newlabel{group__fold__compound_ga6601d994ba32b11511b36f68b08403be}{{13.43.6.1}{242}{vrna\+\_\+fold\+\_\+compound}{subsubsection.13.43.6.1}{}}
\gdef \PWST@cc{1}
\@writefile{toc}{\contentsline {subsubsection}{\numberline {13.43.6.2}vrna\discretionary {\unhbox \voidb@x \hbox {\relax \fontsize  {7}{8}\selectfont  $\DOTSB \leftarrow \joinrel  \rhook $}}{}{}\_\discretionary {\unhbox \voidb@x \hbox {\relax \fontsize  {7}{8}\selectfont  $\DOTSB \leftarrow \joinrel  \rhook $}}{}{}fold\discretionary {\unhbox \voidb@x \hbox {\relax \fontsize  {7}{8}\selectfont  $\DOTSB \leftarrow \joinrel  \rhook $}}{}{}\_\discretionary {\unhbox \voidb@x \hbox {\relax \fontsize  {7}{8}\selectfont  $\DOTSB \leftarrow \joinrel  \rhook $}}{}{}compound\discretionary {\unhbox \voidb@x \hbox {\relax \fontsize  {7}{8}\selectfont  $\DOTSB \leftarrow \joinrel  \rhook $}}{}{}\_\discretionary {\unhbox \voidb@x \hbox {\relax \fontsize  {7}{8}\selectfont  $\DOTSB \leftarrow \joinrel  \rhook $}}{}{}comparative}{243}{subsubsection.13.43.6.2}}
\newlabel{group__fold__compound_gad6bacc816af274922b13d947f708aa0c}{{13.43.6.2}{243}{vrna\+\_\+fold\+\_\+compound\+\_\+comparative}{subsubsection.13.43.6.2}{}}
\gdef \PWST@cci{1}
\gdef \PWST@ccii{1}
\gdef \PWST@cciii{1}
\@writefile{toc}{\contentsline {subsubsection}{\numberline {13.43.6.3}vrna\discretionary {\unhbox \voidb@x \hbox {\relax \fontsize  {7}{8}\selectfont  $\DOTSB \leftarrow \joinrel  \rhook $}}{}{}\_\discretionary {\unhbox \voidb@x \hbox {\relax \fontsize  {7}{8}\selectfont  $\DOTSB \leftarrow \joinrel  \rhook $}}{}{}fold\discretionary {\unhbox \voidb@x \hbox {\relax \fontsize  {7}{8}\selectfont  $\DOTSB \leftarrow \joinrel  \rhook $}}{}{}\_\discretionary {\unhbox \voidb@x \hbox {\relax \fontsize  {7}{8}\selectfont  $\DOTSB \leftarrow \joinrel  \rhook $}}{}{}compound\discretionary {\unhbox \voidb@x \hbox {\relax \fontsize  {7}{8}\selectfont  $\DOTSB \leftarrow \joinrel  \rhook $}}{}{}\_\discretionary {\unhbox \voidb@x \hbox {\relax \fontsize  {7}{8}\selectfont  $\DOTSB \leftarrow \joinrel  \rhook $}}{}{}free}{245}{subsubsection.13.43.6.3}}
\newlabel{group__fold__compound_gadded6039d63f5d6509836e20321534ad}{{13.43.6.3}{245}{vrna\+\_\+fold\+\_\+compound\+\_\+free}{subsubsection.13.43.6.3}{}}
\@writefile{toc}{\contentsline {subsubsection}{\numberline {13.43.6.4}vrna\discretionary {\unhbox \voidb@x \hbox {\relax \fontsize  {7}{8}\selectfont  $\DOTSB \leftarrow \joinrel  \rhook $}}{}{}\_\discretionary {\unhbox \voidb@x \hbox {\relax \fontsize  {7}{8}\selectfont  $\DOTSB \leftarrow \joinrel  \rhook $}}{}{}fold\discretionary {\unhbox \voidb@x \hbox {\relax \fontsize  {7}{8}\selectfont  $\DOTSB \leftarrow \joinrel  \rhook $}}{}{}\_\discretionary {\unhbox \voidb@x \hbox {\relax \fontsize  {7}{8}\selectfont  $\DOTSB \leftarrow \joinrel  \rhook $}}{}{}compound\discretionary {\unhbox \voidb@x \hbox {\relax \fontsize  {7}{8}\selectfont  $\DOTSB \leftarrow \joinrel  \rhook $}}{}{}\_\discretionary {\unhbox \voidb@x \hbox {\relax \fontsize  {7}{8}\selectfont  $\DOTSB \leftarrow \joinrel  \rhook $}}{}{}add\discretionary {\unhbox \voidb@x \hbox {\relax \fontsize  {7}{8}\selectfont  $\DOTSB \leftarrow \joinrel  \rhook $}}{}{}\_\discretionary {\unhbox \voidb@x \hbox {\relax \fontsize  {7}{8}\selectfont  $\DOTSB \leftarrow \joinrel  \rhook $}}{}{}auxdata}{245}{subsubsection.13.43.6.4}}
\newlabel{group__fold__compound_ga6316a9426bea2f742375e8df6febd3f6}{{13.43.6.4}{245}{vrna\+\_\+fold\+\_\+compound\+\_\+add\+\_\+auxdata}{subsubsection.13.43.6.4}{}}
\@writefile{toc}{\contentsline {subsubsection}{\numberline {13.43.6.5}vrna\discretionary {\unhbox \voidb@x \hbox {\relax \fontsize  {7}{8}\selectfont  $\DOTSB \leftarrow \joinrel  \rhook $}}{}{}\_\discretionary {\unhbox \voidb@x \hbox {\relax \fontsize  {7}{8}\selectfont  $\DOTSB \leftarrow \joinrel  \rhook $}}{}{}fold\discretionary {\unhbox \voidb@x \hbox {\relax \fontsize  {7}{8}\selectfont  $\DOTSB \leftarrow \joinrel  \rhook $}}{}{}\_\discretionary {\unhbox \voidb@x \hbox {\relax \fontsize  {7}{8}\selectfont  $\DOTSB \leftarrow \joinrel  \rhook $}}{}{}compound\discretionary {\unhbox \voidb@x \hbox {\relax \fontsize  {7}{8}\selectfont  $\DOTSB \leftarrow \joinrel  \rhook $}}{}{}\_\discretionary {\unhbox \voidb@x \hbox {\relax \fontsize  {7}{8}\selectfont  $\DOTSB \leftarrow \joinrel  \rhook $}}{}{}add\discretionary {\unhbox \voidb@x \hbox {\relax \fontsize  {7}{8}\selectfont  $\DOTSB \leftarrow \joinrel  \rhook $}}{}{}\_\discretionary {\unhbox \voidb@x \hbox {\relax \fontsize  {7}{8}\selectfont  $\DOTSB \leftarrow \joinrel  \rhook $}}{}{}callback}{245}{subsubsection.13.43.6.5}}
\newlabel{group__fold__compound_ga097ed6133055624667cbce8cfdebf82d}{{13.43.6.5}{245}{vrna\+\_\+fold\+\_\+compound\+\_\+add\+\_\+callback}{subsubsection.13.43.6.5}{}}
\gdef \PWST@cciv{1}
\@setckpt{group__fold__compound}{
\setcounter{page}{247}
\setcounter{equation}{0}
\setcounter{enumi}{2}
\setcounter{enumii}{0}
\setcounter{enumiii}{0}
\setcounter{enumiv}{0}
\setcounter{footnote}{0}
\setcounter{mpfootnote}{0}
\setcounter{part}{0}
\setcounter{chapter}{13}
\setcounter{section}{43}
\setcounter{subsection}{6}
\setcounter{subsubsection}{5}
\setcounter{paragraph}{0}
\setcounter{subparagraph}{0}
\setcounter{figure}{0}
\setcounter{table}{0}
\setcounter{float@type}{4}
\setcounter{PWSTtable}{204}
\setcounter{NAT@ctr}{0}
\setcounter{lofdepth}{1}
\setcounter{lotdepth}{1}
\setcounter{parentequation}{0}
\setcounter{Item}{12}
\setcounter{Hfootnote}{0}
\setcounter{bookmark@seq@number}{584}
\setcounter{section@level}{3}
}
