\relax 
\providecommand\hyper@newdestlabel[2]{}
\@writefile{toc}{\contentsline {section}{\numberline {13.23}Predicting Consensus Structures from Alignment(s)}{165}{section.13.23}}
\newlabel{group__consensus__fold}{{13.23}{165}{Predicting Consensus Structures from Alignment(s)}{section.13.23}{}}
\citation{hofacker:2002}
\citation{bernhart:2008}
\gdef \PWST@cxxxv{1}
\newlabel{group__consensus__fold_ga1116aed4b2dab5252cd23946d47d52c3}{{13.23}{166}{Functions}{section*.80}{}}
\@writefile{toc}{\contentsline {subsection}{\numberline {13.23.1}Detailed Description}{166}{subsection.13.23.1}}
\@writefile{brf}{\backcite{hofacker:2002}{{166}{13.23.1}{subsection.13.23.1}}}
\@writefile{brf}{\backcite{bernhart:2008}{{166}{13.23.1}{subsection.13.23.1}}}
\@writefile{toc}{\contentsline {subsection}{\numberline {13.23.2}Function Documentation}{166}{subsection.13.23.2}}
\@writefile{toc}{\contentsline {subsubsection}{\numberline {13.23.2.1}energy\discretionary {\unhbox \voidb@x \hbox {\relax \fontsize  {7}{8}\selectfont  $\DOTSB \leftarrow \joinrel  \rhook $}}{}{}\_\discretionary {\unhbox \voidb@x \hbox {\relax \fontsize  {7}{8}\selectfont  $\DOTSB \leftarrow \joinrel  \rhook $}}{}{}of\discretionary {\unhbox \voidb@x \hbox {\relax \fontsize  {7}{8}\selectfont  $\DOTSB \leftarrow \joinrel  \rhook $}}{}{}\_\discretionary {\unhbox \voidb@x \hbox {\relax \fontsize  {7}{8}\selectfont  $\DOTSB \leftarrow \joinrel  \rhook $}}{}{}alistruct}{166}{subsubsection.13.23.2.1}}
\newlabel{group__consensus__fold_ga1c48869c03b49a342bf4cbdd61900081}{{13.23.2.1}{166}{energy\+\_\+of\+\_\+alistruct}{subsubsection.13.23.2.1}{}}
\gdef \PWST@cxxxvi{1}
\@writefile{toc}{\contentsline {subsubsection}{\numberline {13.23.2.2}get\discretionary {\unhbox \voidb@x \hbox {\relax \fontsize  {7}{8}\selectfont  $\DOTSB \leftarrow \joinrel  \rhook $}}{}{}\_\discretionary {\unhbox \voidb@x \hbox {\relax \fontsize  {7}{8}\selectfont  $\DOTSB \leftarrow \joinrel  \rhook $}}{}{}alipf\discretionary {\unhbox \voidb@x \hbox {\relax \fontsize  {7}{8}\selectfont  $\DOTSB \leftarrow \joinrel  \rhook $}}{}{}\_\discretionary {\unhbox \voidb@x \hbox {\relax \fontsize  {7}{8}\selectfont  $\DOTSB \leftarrow \joinrel  \rhook $}}{}{}arrays}{167}{subsubsection.13.23.2.2}}
\newlabel{group__consensus__fold_ga5349960075b1847720a2e9df021e2675}{{13.23.2.2}{167}{get\+\_\+alipf\+\_\+arrays}{subsubsection.13.23.2.2}{}}
\@writefile{toc}{\contentsline {subsubsection}{\numberline {13.23.2.3}update\discretionary {\unhbox \voidb@x \hbox {\relax \fontsize  {7}{8}\selectfont  $\DOTSB \leftarrow \joinrel  \rhook $}}{}{}\_\discretionary {\unhbox \voidb@x \hbox {\relax \fontsize  {7}{8}\selectfont  $\DOTSB \leftarrow \joinrel  \rhook $}}{}{}alifold\discretionary {\unhbox \voidb@x \hbox {\relax \fontsize  {7}{8}\selectfont  $\DOTSB \leftarrow \joinrel  \rhook $}}{}{}\_\discretionary {\unhbox \voidb@x \hbox {\relax \fontsize  {7}{8}\selectfont  $\DOTSB \leftarrow \joinrel  \rhook $}}{}{}params}{167}{subsubsection.13.23.2.3}}
\newlabel{group__consensus__fold_gac484c6bd429bafbd353b91044508d8e9}{{13.23.2.3}{167}{update\+\_\+alifold\+\_\+params}{subsubsection.13.23.2.3}{}}
\@writefile{toc}{\contentsline {subsubsection}{\numberline {13.23.2.4}vrna\discretionary {\unhbox \voidb@x \hbox {\relax \fontsize  {7}{8}\selectfont  $\DOTSB \leftarrow \joinrel  \rhook $}}{}{}\_\discretionary {\unhbox \voidb@x \hbox {\relax \fontsize  {7}{8}\selectfont  $\DOTSB \leftarrow \joinrel  \rhook $}}{}{}aln\discretionary {\unhbox \voidb@x \hbox {\relax \fontsize  {7}{8}\selectfont  $\DOTSB \leftarrow \joinrel  \rhook $}}{}{}\_\discretionary {\unhbox \voidb@x \hbox {\relax \fontsize  {7}{8}\selectfont  $\DOTSB \leftarrow \joinrel  \rhook $}}{}{}mpi}{167}{subsubsection.13.23.2.4}}
\newlabel{group__consensus__fold_ga20fd17bb27891009af7ce839f5386177}{{13.23.2.4}{167}{vrna\+\_\+aln\+\_\+mpi}{subsubsection.13.23.2.4}{}}
\gdef \PWST@cxxxvii{1}
\gdef \PWST@cxxxviii{1}
\gdef \PWST@cxxxix{1}
\@writefile{toc}{\contentsline {subsubsection}{\numberline {13.23.2.5}get\discretionary {\unhbox \voidb@x \hbox {\relax \fontsize  {7}{8}\selectfont  $\DOTSB \leftarrow \joinrel  \rhook $}}{}{}\_\discretionary {\unhbox \voidb@x \hbox {\relax \fontsize  {7}{8}\selectfont  $\DOTSB \leftarrow \joinrel  \rhook $}}{}{}mpi}{168}{subsubsection.13.23.2.5}}
\newlabel{group__consensus__fold_gaa2d600be90844094ec145ea14a314d2f}{{13.23.2.5}{168}{get\+\_\+mpi}{subsubsection.13.23.2.5}{}}
\@writefile{toc}{\contentsline {subsubsection}{\numberline {13.23.2.6}encode\discretionary {\unhbox \voidb@x \hbox {\relax \fontsize  {7}{8}\selectfont  $\DOTSB \leftarrow \joinrel  \rhook $}}{}{}\_\discretionary {\unhbox \voidb@x \hbox {\relax \fontsize  {7}{8}\selectfont  $\DOTSB \leftarrow \joinrel  \rhook $}}{}{}ali\discretionary {\unhbox \voidb@x \hbox {\relax \fontsize  {7}{8}\selectfont  $\DOTSB \leftarrow \joinrel  \rhook $}}{}{}\_\discretionary {\unhbox \voidb@x \hbox {\relax \fontsize  {7}{8}\selectfont  $\DOTSB \leftarrow \joinrel  \rhook $}}{}{}sequence}{168}{subsubsection.13.23.2.6}}
\newlabel{group__consensus__fold_gaa3e40277c837d6f7603afe319884c786}{{13.23.2.6}{168}{encode\+\_\+ali\+\_\+sequence}{subsubsection.13.23.2.6}{}}
\@writefile{toc}{\contentsline {subsubsection}{\numberline {13.23.2.7}alloc\discretionary {\unhbox \voidb@x \hbox {\relax \fontsize  {7}{8}\selectfont  $\DOTSB \leftarrow \joinrel  \rhook $}}{}{}\_\discretionary {\unhbox \voidb@x \hbox {\relax \fontsize  {7}{8}\selectfont  $\DOTSB \leftarrow \joinrel  \rhook $}}{}{}sequence\discretionary {\unhbox \voidb@x \hbox {\relax \fontsize  {7}{8}\selectfont  $\DOTSB \leftarrow \joinrel  \rhook $}}{}{}\_\discretionary {\unhbox \voidb@x \hbox {\relax \fontsize  {7}{8}\selectfont  $\DOTSB \leftarrow \joinrel  \rhook $}}{}{}arrays}{168}{subsubsection.13.23.2.7}}
\newlabel{group__consensus__fold_ga8a560930f7f2582cc3967723a86cfdfa}{{13.23.2.7}{168}{alloc\+\_\+sequence\+\_\+arrays}{subsubsection.13.23.2.7}{}}
\gdef \PWST@cxl{1}
\gdef \PWST@cxli{1}
\@writefile{toc}{\contentsline {subsubsection}{\numberline {13.23.2.8}free\discretionary {\unhbox \voidb@x \hbox {\relax \fontsize  {7}{8}\selectfont  $\DOTSB \leftarrow \joinrel  \rhook $}}{}{}\_\discretionary {\unhbox \voidb@x \hbox {\relax \fontsize  {7}{8}\selectfont  $\DOTSB \leftarrow \joinrel  \rhook $}}{}{}sequence\discretionary {\unhbox \voidb@x \hbox {\relax \fontsize  {7}{8}\selectfont  $\DOTSB \leftarrow \joinrel  \rhook $}}{}{}\_\discretionary {\unhbox \voidb@x \hbox {\relax \fontsize  {7}{8}\selectfont  $\DOTSB \leftarrow \joinrel  \rhook $}}{}{}arrays}{169}{subsubsection.13.23.2.8}}
\newlabel{group__consensus__fold_ga298a420a8c879202e2617b3f724fde38}{{13.23.2.8}{169}{free\+\_\+sequence\+\_\+arrays}{subsubsection.13.23.2.8}{}}
\@writefile{toc}{\contentsline {subsection}{\numberline {13.23.3}Variable Documentation}{169}{subsection.13.23.3}}
\@writefile{toc}{\contentsline {subsubsection}{\numberline {13.23.3.1}cv\discretionary {\unhbox \voidb@x \hbox {\relax \fontsize  {7}{8}\selectfont  $\DOTSB \leftarrow \joinrel  \rhook $}}{}{}\_\discretionary {\unhbox \voidb@x \hbox {\relax \fontsize  {7}{8}\selectfont  $\DOTSB \leftarrow \joinrel  \rhook $}}{}{}fact}{169}{subsubsection.13.23.3.1}}
\newlabel{group__consensus__fold_gaf3cbac6ff5d706d6e414677841ddf94c}{{13.23.3.1}{169}{cv\+\_\+fact}{subsubsection.13.23.3.1}{}}
\@writefile{toc}{\contentsline {subsubsection}{\numberline {13.23.3.2}nc\discretionary {\unhbox \voidb@x \hbox {\relax \fontsize  {7}{8}\selectfont  $\DOTSB \leftarrow \joinrel  \rhook $}}{}{}\_\discretionary {\unhbox \voidb@x \hbox {\relax \fontsize  {7}{8}\selectfont  $\DOTSB \leftarrow \joinrel  \rhook $}}{}{}fact}{169}{subsubsection.13.23.3.2}}
\newlabel{group__consensus__fold_ga502948a122a2af5b914355b1f3ea2f61}{{13.23.3.2}{169}{nc\+\_\+fact}{subsubsection.13.23.3.2}{}}
\@setckpt{group__consensus__fold}{
\setcounter{page}{170}
\setcounter{equation}{0}
\setcounter{enumi}{2}
\setcounter{enumii}{0}
\setcounter{enumiii}{0}
\setcounter{enumiv}{0}
\setcounter{footnote}{0}
\setcounter{mpfootnote}{0}
\setcounter{part}{0}
\setcounter{chapter}{13}
\setcounter{section}{23}
\setcounter{subsection}{3}
\setcounter{subsubsection}{2}
\setcounter{paragraph}{0}
\setcounter{subparagraph}{0}
\setcounter{figure}{0}
\setcounter{table}{0}
\setcounter{float@type}{4}
\setcounter{PWSTtable}{141}
\setcounter{NAT@ctr}{0}
\setcounter{lofdepth}{1}
\setcounter{lotdepth}{1}
\setcounter{parentequation}{0}
\setcounter{Item}{12}
\setcounter{Hfootnote}{0}
\setcounter{bookmark@seq@number}{383}
\setcounter{section@level}{3}
}
