\relax 
\providecommand\hyper@newdestlabel[2]{}
\@writefile{toc}{\contentsline {section}{\numberline {13.8}Data Structures and Preprocessor Macros}{109}{section.13.8}}
\newlabel{group__data__structures}{{13.8}{109}{Data Structures and Preprocessor Macros}{section.13.8}{}}
\newlabel{group__data__structures_gac8c5669d3fb813cacf506489689305ce}{{13.8}{110}{Typedefs}{section*.42}{}}
\newlabel{group__data__structures_ga8e4eb5e1bfc95776559575beb359af87}{{13.8}{110}{Typedefs}{section*.42}{}}
\newlabel{group__data__structures_gaa651bda42e7692f08cb603cd6834b0ee}{{13.8}{110}{Typedefs}{section*.42}{}}
\newlabel{group__data__structures_gae4fc91141cc69c6d8eaf1332cb991ecc}{{13.8}{110}{Typedefs}{section*.42}{}}
\newlabel{group__data__structures_gacc9cdae790dac75a7024e7069c0d4400}{{13.8}{110}{Typedefs}{section*.42}{}}
\newlabel{group__data__structures_ga31125aeace516926bf7f251f759b6126}{{13.8}{110}{Typedefs}{section*.42}{}}
\newlabel{group__data__structures_ga20881ac02e5932356c09b070efedb560}{{13.8}{110}{Typedefs}{section*.42}{}}
\newlabel{group__data__structures_ga501763bd204b60f40e3ab68b40023023}{{13.8}{110}{Typedefs}{section*.42}{}}
\newlabel{group__data__structures_ga212e3afb0cc299acdfb1ec976435686e}{{13.8}{110}{Typedefs}{section*.42}{}}
\@writefile{toc}{\contentsline {subsection}{\numberline {13.8.1}Detailed Description}{110}{subsection.13.8.1}}
\@writefile{toc}{\contentsline {subsection}{\numberline {13.8.2}Data Structure Documentation}{110}{subsection.13.8.2}}
\newlabel{structvrna__basepair__s}{{13.8.2}{110}{Data Structure Documentation}{subsection.13.8.2}{}}
\@writefile{toc}{\contentsline {subsubsection}{\numberline {13.8.2.1}struct vrna\discretionary {\unhbox \voidb@x \hbox {\relax \fontsize  {7}{8}\selectfont  $\DOTSB \leftarrow \joinrel  \rhook $}}{}{}\_\discretionary {\unhbox \voidb@x \hbox {\relax \fontsize  {7}{8}\selectfont  $\DOTSB \leftarrow \joinrel  \rhook $}}{}{}basepair\discretionary {\unhbox \voidb@x \hbox {\relax \fontsize  {7}{8}\selectfont  $\DOTSB \leftarrow \joinrel  \rhook $}}{}{}\_\discretionary {\unhbox \voidb@x \hbox {\relax \fontsize  {7}{8}\selectfont  $\DOTSB \leftarrow \joinrel  \rhook $}}{}{}s}{110}{subsubsection.13.8.2.1}}
\newlabel{structvrna__plist__s}{{13.8.2.1}{110}{struct vrna\+\_\+basepair\+\_\+s}{subsubsection.13.8.2.1}{}}
\@writefile{toc}{\contentsline {subsubsection}{\numberline {13.8.2.2}struct vrna\discretionary {\unhbox \voidb@x \hbox {\relax \fontsize  {7}{8}\selectfont  $\DOTSB \leftarrow \joinrel  \rhook $}}{}{}\_\discretionary {\unhbox \voidb@x \hbox {\relax \fontsize  {7}{8}\selectfont  $\DOTSB \leftarrow \joinrel  \rhook $}}{}{}plist\discretionary {\unhbox \voidb@x \hbox {\relax \fontsize  {7}{8}\selectfont  $\DOTSB \leftarrow \joinrel  \rhook $}}{}{}\_\discretionary {\unhbox \voidb@x \hbox {\relax \fontsize  {7}{8}\selectfont  $\DOTSB \leftarrow \joinrel  \rhook $}}{}{}s}{110}{subsubsection.13.8.2.2}}
\newlabel{structvrna__cpair__s}{{13.8.2.2}{110}{struct vrna\+\_\+plist\+\_\+s}{subsubsection.13.8.2.2}{}}
\@writefile{toc}{\contentsline {subsubsection}{\numberline {13.8.2.3}struct vrna\discretionary {\unhbox \voidb@x \hbox {\relax \fontsize  {7}{8}\selectfont  $\DOTSB \leftarrow \joinrel  \rhook $}}{}{}\_\discretionary {\unhbox \voidb@x \hbox {\relax \fontsize  {7}{8}\selectfont  $\DOTSB \leftarrow \joinrel  \rhook $}}{}{}cpair\discretionary {\unhbox \voidb@x \hbox {\relax \fontsize  {7}{8}\selectfont  $\DOTSB \leftarrow \joinrel  \rhook $}}{}{}\_\discretionary {\unhbox \voidb@x \hbox {\relax \fontsize  {7}{8}\selectfont  $\DOTSB \leftarrow \joinrel  \rhook $}}{}{}s}{110}{subsubsection.13.8.2.3}}
\newlabel{structvrna__sect__s}{{13.8.2.3}{110}{struct vrna\+\_\+cpair\+\_\+s}{subsubsection.13.8.2.3}{}}
\@writefile{toc}{\contentsline {subsubsection}{\numberline {13.8.2.4}struct vrna\discretionary {\unhbox \voidb@x \hbox {\relax \fontsize  {7}{8}\selectfont  $\DOTSB \leftarrow \joinrel  \rhook $}}{}{}\_\discretionary {\unhbox \voidb@x \hbox {\relax \fontsize  {7}{8}\selectfont  $\DOTSB \leftarrow \joinrel  \rhook $}}{}{}sect\discretionary {\unhbox \voidb@x \hbox {\relax \fontsize  {7}{8}\selectfont  $\DOTSB \leftarrow \joinrel  \rhook $}}{}{}\_\discretionary {\unhbox \voidb@x \hbox {\relax \fontsize  {7}{8}\selectfont  $\DOTSB \leftarrow \joinrel  \rhook $}}{}{}s}{111}{subsubsection.13.8.2.4}}
\newlabel{structvrna__bp__stack__s}{{13.8.2.4}{111}{struct vrna\+\_\+sect\+\_\+s}{subsubsection.13.8.2.4}{}}
\@writefile{toc}{\contentsline {subsubsection}{\numberline {13.8.2.5}struct vrna\discretionary {\unhbox \voidb@x \hbox {\relax \fontsize  {7}{8}\selectfont  $\DOTSB \leftarrow \joinrel  \rhook $}}{}{}\_\discretionary {\unhbox \voidb@x \hbox {\relax \fontsize  {7}{8}\selectfont  $\DOTSB \leftarrow \joinrel  \rhook $}}{}{}bp\discretionary {\unhbox \voidb@x \hbox {\relax \fontsize  {7}{8}\selectfont  $\DOTSB \leftarrow \joinrel  \rhook $}}{}{}\_\discretionary {\unhbox \voidb@x \hbox {\relax \fontsize  {7}{8}\selectfont  $\DOTSB \leftarrow \joinrel  \rhook $}}{}{}stack\discretionary {\unhbox \voidb@x \hbox {\relax \fontsize  {7}{8}\selectfont  $\DOTSB \leftarrow \joinrel  \rhook $}}{}{}\_\discretionary {\unhbox \voidb@x \hbox {\relax \fontsize  {7}{8}\selectfont  $\DOTSB \leftarrow \joinrel  \rhook $}}{}{}s}{111}{subsubsection.13.8.2.5}}
\newlabel{structpu__contrib}{{13.8.2.5}{111}{struct vrna\+\_\+bp\+\_\+stack\+\_\+s}{subsubsection.13.8.2.5}{}}
\@writefile{toc}{\contentsline {subsubsection}{\numberline {13.8.2.6}struct pu\discretionary {\unhbox \voidb@x \hbox {\relax \fontsize  {7}{8}\selectfont  $\DOTSB \leftarrow \joinrel  \rhook $}}{}{}\_\discretionary {\unhbox \voidb@x \hbox {\relax \fontsize  {7}{8}\selectfont  $\DOTSB \leftarrow \joinrel  \rhook $}}{}{}contrib}{111}{subsubsection.13.8.2.6}}
\newlabel{group__data__structures_ac9034ac9a84ed0647587659d6e9be1e8}{{13.8.2.6}{111}{Data Fields}{section*.43}{}}
\newlabel{group__data__structures_a8ca0da20536780589fb3e3472ca0581f}{{13.8.2.6}{111}{Data Fields}{section*.43}{}}
\newlabel{group__data__structures_a1222ebf74f426bbcd843dcc325da207b}{{13.8.2.6}{111}{Data Fields}{section*.43}{}}
\newlabel{group__data__structures_accb192ba6b4b91a1cb2f8080934fd428}{{13.8.2.6}{111}{Data Fields}{section*.43}{}}
\newlabel{group__data__structures_a33d5ada6e861db0c81aa3d5b2989262e}{{13.8.2.6}{111}{Data Fields}{section*.43}{}}
\newlabel{group__data__structures_a403c1c7f20beeeffba7632fac0cfcbff}{{13.8.2.6}{111}{Data Fields}{section*.43}{}}
\newlabel{structinteract}{{13.8.2.6}{111}{Data Fields}{section*.43}{}}
\@writefile{toc}{\contentsline {subsubsection}{\numberline {13.8.2.7}struct interact}{111}{subsubsection.13.8.2.7}}
\newlabel{group__data__structures_a1fc8b3860c083f164daa9712690a3a56}{{13.8.2.7}{111}{Data Fields}{section*.44}{}}
\newlabel{group__data__structures_a54f8183542fff4c32ab7ace49a16c02c}{{13.8.2.7}{111}{Data Fields}{section*.44}{}}
\newlabel{group__data__structures_ad58303190f9e085c3ab59890cbf61223}{{13.8.2.7}{111}{Data Fields}{section*.44}{}}
\newlabel{group__data__structures_a41793812abae560805414761fec398fe}{{13.8.2.7}{111}{Data Fields}{section*.44}{}}
\newlabel{group__data__structures_ab6d031a21388be8763b75ea74c937f17}{{13.8.2.7}{111}{Data Fields}{section*.44}{}}
\newlabel{group__data__structures_a61e457fbf943d57364be6ddf1b4e7b8a}{{13.8.2.7}{111}{Data Fields}{section*.44}{}}
\newlabel{group__data__structures_a7555cb6363d1479341eb72b9c087aa34}{{13.8.2.7}{111}{Data Fields}{section*.44}{}}
\newlabel{group__data__structures_a030ab45056342e12cb3955e4defd3904}{{13.8.2.7}{111}{Data Fields}{section*.44}{}}
\newlabel{group__data__structures_ac9fcb5dca54ec5faa76e02b6488b9524}{{13.8.2.7}{111}{Data Fields}{section*.44}{}}
\newlabel{structpu__out}{{13.8.2.7}{111}{Data Fields}{section*.44}{}}
\@writefile{toc}{\contentsline {subsubsection}{\numberline {13.8.2.8}struct pu\discretionary {\unhbox \voidb@x \hbox {\relax \fontsize  {7}{8}\selectfont  $\DOTSB \leftarrow \joinrel  \rhook $}}{}{}\_\discretionary {\unhbox \voidb@x \hbox {\relax \fontsize  {7}{8}\selectfont  $\DOTSB \leftarrow \joinrel  \rhook $}}{}{}out}{112}{subsubsection.13.8.2.8}}
\newlabel{group__data__structures_a314b8f43c3ee0bf6060afbeced5dbe6c}{{13.8.2.8}{112}{Data Fields}{section*.45}{}}
\newlabel{group__data__structures_a7697bc7a46cd1b8e37e337e708cb6023}{{13.8.2.8}{112}{Data Fields}{section*.45}{}}
\newlabel{group__data__structures_a638b0de1837cfd441871d005d3ab2938}{{13.8.2.8}{112}{Data Fields}{section*.45}{}}
\newlabel{group__data__structures_ac9e9e30b16e7d04c770460b8487fb09d}{{13.8.2.8}{112}{Data Fields}{section*.45}{}}
\newlabel{group__data__structures_a366edbc4170d5c177908e178ff340828}{{13.8.2.8}{112}{Data Fields}{section*.45}{}}
\newlabel{structconstrain}{{13.8.2.8}{112}{Data Fields}{section*.45}{}}
\@writefile{toc}{\contentsline {subsubsection}{\numberline {13.8.2.9}struct constrain}{112}{subsubsection.13.8.2.9}}
\newlabel{structduplexT}{{13.8.2.9}{112}{struct constrain}{subsubsection.13.8.2.9}{}}
\@writefile{toc}{\contentsline {subsubsection}{\numberline {13.8.2.10}struct duplex\discretionary {\unhbox \voidb@x \hbox {\relax \fontsize  {7}{8}\selectfont  $\DOTSB \leftarrow \joinrel  \rhook $}}{}{}T}{112}{subsubsection.13.8.2.10}}
\newlabel{structnode}{{13.8.2.10}{112}{struct duplex\+T}{subsubsection.13.8.2.10}{}}
\@writefile{toc}{\contentsline {subsubsection}{\numberline {13.8.2.11}struct node}{112}{subsubsection.13.8.2.11}}
\newlabel{structsnoopT}{{13.8.2.11}{112}{struct node}{subsubsection.13.8.2.11}{}}
\@writefile{toc}{\contentsline {subsubsection}{\numberline {13.8.2.12}struct snoop\discretionary {\unhbox \voidb@x \hbox {\relax \fontsize  {7}{8}\selectfont  $\DOTSB \leftarrow \joinrel  \rhook $}}{}{}T}{112}{subsubsection.13.8.2.12}}
\newlabel{structdupVar}{{13.8.2.12}{112}{struct snoop\+T}{subsubsection.13.8.2.12}{}}
\@writefile{toc}{\contentsline {subsubsection}{\numberline {13.8.2.13}struct dup\discretionary {\unhbox \voidb@x \hbox {\relax \fontsize  {7}{8}\selectfont  $\DOTSB \leftarrow \joinrel  \rhook $}}{}{}Var}{112}{subsubsection.13.8.2.13}}
\@writefile{toc}{\contentsline {subsection}{\numberline {13.8.3}Typedef Documentation}{112}{subsection.13.8.3}}
\@writefile{toc}{\contentsline {subsubsection}{\numberline {13.8.3.1}P\discretionary {\unhbox \voidb@x \hbox {\relax \fontsize  {7}{8}\selectfont  $\DOTSB \leftarrow \joinrel  \rhook $}}{}{}A\discretionary {\unhbox \voidb@x \hbox {\relax \fontsize  {7}{8}\selectfont  $\DOTSB \leftarrow \joinrel  \rhook $}}{}{}I\discretionary {\unhbox \voidb@x \hbox {\relax \fontsize  {7}{8}\selectfont  $\DOTSB \leftarrow \joinrel  \rhook $}}{}{}R}{112}{subsubsection.13.8.3.1}}
\newlabel{group__data__structures_ga4381025ffbd692e54189b2c679c79c99}{{13.8.3.1}{112}{P\+A\+I\+R}{subsubsection.13.8.3.1}{}}
\@writefile{toc}{\contentsline {subsubsection}{\numberline {13.8.3.2}plist}{113}{subsubsection.13.8.3.2}}
\newlabel{group__data__structures_gab1d8894b43aa84cbc50b862a73785fbc}{{13.8.3.2}{113}{plist}{subsubsection.13.8.3.2}{}}
\@writefile{toc}{\contentsline {subsubsection}{\numberline {13.8.3.3}cpair}{113}{subsubsection.13.8.3.3}}
\newlabel{group__data__structures_ga8412f116a2eb07b59ade9e14ca7c5ef1}{{13.8.3.3}{113}{cpair}{subsubsection.13.8.3.3}{}}
\@writefile{toc}{\contentsline {subsubsection}{\numberline {13.8.3.4}sect}{113}{subsubsection.13.8.3.4}}
\newlabel{group__data__structures_gaaacedee1f05d3d45aa6764eca51a8876}{{13.8.3.4}{113}{sect}{subsubsection.13.8.3.4}{}}
\@writefile{toc}{\contentsline {subsubsection}{\numberline {13.8.3.5}bond\discretionary {\unhbox \voidb@x \hbox {\relax \fontsize  {7}{8}\selectfont  $\DOTSB \leftarrow \joinrel  \rhook $}}{}{}T}{113}{subsubsection.13.8.3.5}}
\newlabel{group__data__structures_gaaeed53a7508c6ce549a98223e94b25df}{{13.8.3.5}{113}{bond\+T}{subsubsection.13.8.3.5}{}}
\@setckpt{group__data__structures}{
\setcounter{page}{114}
\setcounter{equation}{0}
\setcounter{enumi}{2}
\setcounter{enumii}{0}
\setcounter{enumiii}{0}
\setcounter{enumiv}{0}
\setcounter{footnote}{0}
\setcounter{mpfootnote}{0}
\setcounter{part}{0}
\setcounter{chapter}{13}
\setcounter{section}{8}
\setcounter{subsection}{3}
\setcounter{subsubsection}{5}
\setcounter{paragraph}{0}
\setcounter{subparagraph}{0}
\setcounter{figure}{0}
\setcounter{table}{0}
\setcounter{float@type}{4}
\setcounter{PWSTtable}{81}
\setcounter{NAT@ctr}{0}
\setcounter{lofdepth}{1}
\setcounter{lotdepth}{1}
\setcounter{parentequation}{0}
\setcounter{Item}{12}
\setcounter{Hfootnote}{0}
\setcounter{bookmark@seq@number}{243}
\setcounter{section@level}{3}
}
