\relax 
\providecommand\hyper@newdestlabel[2]{}
\@writefile{toc}{\contentsline {section}{\numberline {13.11}Computing Partition Functions and Pair Probabilities}{125}{section.13.11}}
\newlabel{group__pf__fold}{{13.11}{125}{Computing Partition Functions and Pair Probabilities}{section.13.11}{}}
\citation{mccaskill:1990}
\@writefile{toc}{\contentsline {subsection}{\numberline {13.11.1}Detailed Description}{126}{subsection.13.11.1}}
\@writefile{brf}{\backcite{mccaskill:1990}{{126}{13.11.1}{subsection.13.11.1}}}
\gdef \PWST@xciii{1}
\@writefile{toc}{\contentsline {subsection}{\numberline {13.11.2}Function Documentation}{127}{subsection.13.11.2}}
\@writefile{toc}{\contentsline {subsubsection}{\numberline {13.11.2.1}vrna\discretionary {\unhbox \voidb@x \hbox {\relax \fontsize  {7}{8}\selectfont  $\DOTSB \leftarrow \joinrel  \rhook $}}{}{}\_\discretionary {\unhbox \voidb@x \hbox {\relax \fontsize  {7}{8}\selectfont  $\DOTSB \leftarrow \joinrel  \rhook $}}{}{}pf}{127}{subsubsection.13.11.2.1}}
\newlabel{group__pf__fold_ga29e256d688ad221b78d37f427e0e99bc}{{13.11.2.1}{127}{vrna\+\_\+pf}{subsubsection.13.11.2.1}{}}
\@writefile{toc}{\contentsline {subsubsection}{\numberline {13.11.2.2}vrna\discretionary {\unhbox \voidb@x \hbox {\relax \fontsize  {7}{8}\selectfont  $\DOTSB \leftarrow \joinrel  \rhook $}}{}{}\_\discretionary {\unhbox \voidb@x \hbox {\relax \fontsize  {7}{8}\selectfont  $\DOTSB \leftarrow \joinrel  \rhook $}}{}{}pf\discretionary {\unhbox \voidb@x \hbox {\relax \fontsize  {7}{8}\selectfont  $\DOTSB \leftarrow \joinrel  \rhook $}}{}{}\_\discretionary {\unhbox \voidb@x \hbox {\relax \fontsize  {7}{8}\selectfont  $\DOTSB \leftarrow \joinrel  \rhook $}}{}{}fold}{127}{subsubsection.13.11.2.2}}
\newlabel{group__pf__fold_ga59935ba485ac90f0efb5a38e2962d879}{{13.11.2.2}{127}{vrna\+\_\+pf\+\_\+fold}{subsubsection.13.11.2.2}{}}
\gdef \PWST@xciv{1}
\citation{hofacker:2006}
\gdef \PWST@xcv{1}
\@writefile{toc}{\contentsline {subsubsection}{\numberline {13.11.2.3}vrna\discretionary {\unhbox \voidb@x \hbox {\relax \fontsize  {7}{8}\selectfont  $\DOTSB \leftarrow \joinrel  \rhook $}}{}{}\_\discretionary {\unhbox \voidb@x \hbox {\relax \fontsize  {7}{8}\selectfont  $\DOTSB \leftarrow \joinrel  \rhook $}}{}{}pf\discretionary {\unhbox \voidb@x \hbox {\relax \fontsize  {7}{8}\selectfont  $\DOTSB \leftarrow \joinrel  \rhook $}}{}{}\_\discretionary {\unhbox \voidb@x \hbox {\relax \fontsize  {7}{8}\selectfont  $\DOTSB \leftarrow \joinrel  \rhook $}}{}{}circfold}{128}{subsubsection.13.11.2.3}}
\newlabel{group__pf__fold_ga6dc133fce577fc0370986f3a3301cd10}{{13.11.2.3}{128}{vrna\+\_\+pf\+\_\+circfold}{subsubsection.13.11.2.3}{}}
\@writefile{brf}{\backcite{hofacker:2006}{{128}{13.11.2.3}{subsubsection.13.11.2.3}}}
\@writefile{toc}{\contentsline {subsubsection}{\numberline {13.11.2.4}vrna\discretionary {\unhbox \voidb@x \hbox {\relax \fontsize  {7}{8}\selectfont  $\DOTSB \leftarrow \joinrel  \rhook $}}{}{}\_\discretionary {\unhbox \voidb@x \hbox {\relax \fontsize  {7}{8}\selectfont  $\DOTSB \leftarrow \joinrel  \rhook $}}{}{}mean\discretionary {\unhbox \voidb@x \hbox {\relax \fontsize  {7}{8}\selectfont  $\DOTSB \leftarrow \joinrel  \rhook $}}{}{}\_\discretionary {\unhbox \voidb@x \hbox {\relax \fontsize  {7}{8}\selectfont  $\DOTSB \leftarrow \joinrel  \rhook $}}{}{}bp\discretionary {\unhbox \voidb@x \hbox {\relax \fontsize  {7}{8}\selectfont  $\DOTSB \leftarrow \joinrel  \rhook $}}{}{}\_\discretionary {\unhbox \voidb@x \hbox {\relax \fontsize  {7}{8}\selectfont  $\DOTSB \leftarrow \joinrel  \rhook $}}{}{}distance\discretionary {\unhbox \voidb@x \hbox {\relax \fontsize  {7}{8}\selectfont  $\DOTSB \leftarrow \joinrel  \rhook $}}{}{}\_\discretionary {\unhbox \voidb@x \hbox {\relax \fontsize  {7}{8}\selectfont  $\DOTSB \leftarrow \joinrel  \rhook $}}{}{}pr}{128}{subsubsection.13.11.2.4}}
\newlabel{group__pf__fold_gad3f0c240512e6d43e2e4d4c2076021f5}{{13.11.2.4}{128}{vrna\+\_\+mean\+\_\+bp\+\_\+distance\+\_\+pr}{subsubsection.13.11.2.4}{}}
\gdef \PWST@xcvi{1}
\gdef \PWST@xcvii{1}
\gdef \PWST@xcviii{1}
\@writefile{toc}{\contentsline {subsubsection}{\numberline {13.11.2.5}vrna\discretionary {\unhbox \voidb@x \hbox {\relax \fontsize  {7}{8}\selectfont  $\DOTSB \leftarrow \joinrel  \rhook $}}{}{}\_\discretionary {\unhbox \voidb@x \hbox {\relax \fontsize  {7}{8}\selectfont  $\DOTSB \leftarrow \joinrel  \rhook $}}{}{}mean\discretionary {\unhbox \voidb@x \hbox {\relax \fontsize  {7}{8}\selectfont  $\DOTSB \leftarrow \joinrel  \rhook $}}{}{}\_\discretionary {\unhbox \voidb@x \hbox {\relax \fontsize  {7}{8}\selectfont  $\DOTSB \leftarrow \joinrel  \rhook $}}{}{}bp\discretionary {\unhbox \voidb@x \hbox {\relax \fontsize  {7}{8}\selectfont  $\DOTSB \leftarrow \joinrel  \rhook $}}{}{}\_\discretionary {\unhbox \voidb@x \hbox {\relax \fontsize  {7}{8}\selectfont  $\DOTSB \leftarrow \joinrel  \rhook $}}{}{}distance}{129}{subsubsection.13.11.2.5}}
\newlabel{group__pf__fold_gaa6b8983b559b9ef4b2e1b31113ea317b}{{13.11.2.5}{129}{vrna\+\_\+mean\+\_\+bp\+\_\+distance}{subsubsection.13.11.2.5}{}}
\@writefile{toc}{\contentsline {subsubsection}{\numberline {13.11.2.6}vrna\discretionary {\unhbox \voidb@x \hbox {\relax \fontsize  {7}{8}\selectfont  $\DOTSB \leftarrow \joinrel  \rhook $}}{}{}\_\discretionary {\unhbox \voidb@x \hbox {\relax \fontsize  {7}{8}\selectfont  $\DOTSB \leftarrow \joinrel  \rhook $}}{}{}stack\discretionary {\unhbox \voidb@x \hbox {\relax \fontsize  {7}{8}\selectfont  $\DOTSB \leftarrow \joinrel  \rhook $}}{}{}\_\discretionary {\unhbox \voidb@x \hbox {\relax \fontsize  {7}{8}\selectfont  $\DOTSB \leftarrow \joinrel  \rhook $}}{}{}prob}{129}{subsubsection.13.11.2.6}}
\newlabel{group__pf__fold_ga26e3cc2eb127a35625572e9275c24ee4}{{13.11.2.6}{129}{vrna\+\_\+stack\+\_\+prob}{subsubsection.13.11.2.6}{}}
\@writefile{toc}{\contentsline {subsubsection}{\numberline {13.11.2.7}pf\discretionary {\unhbox \voidb@x \hbox {\relax \fontsize  {7}{8}\selectfont  $\DOTSB \leftarrow \joinrel  \rhook $}}{}{}\_\discretionary {\unhbox \voidb@x \hbox {\relax \fontsize  {7}{8}\selectfont  $\DOTSB \leftarrow \joinrel  \rhook $}}{}{}fold\discretionary {\unhbox \voidb@x \hbox {\relax \fontsize  {7}{8}\selectfont  $\DOTSB \leftarrow \joinrel  \rhook $}}{}{}\_\discretionary {\unhbox \voidb@x \hbox {\relax \fontsize  {7}{8}\selectfont  $\DOTSB \leftarrow \joinrel  \rhook $}}{}{}par}{129}{subsubsection.13.11.2.7}}
\newlabel{group__pf__fold_gac4f95bee734b2563a3d6e9932117ebdf}{{13.11.2.7}{129}{pf\+\_\+fold\+\_\+par}{subsubsection.13.11.2.7}{}}
\gdef \PWST@xcix{1}
\@writefile{toc}{\contentsline {subsubsection}{\numberline {13.11.2.8}pf\discretionary {\unhbox \voidb@x \hbox {\relax \fontsize  {7}{8}\selectfont  $\DOTSB \leftarrow \joinrel  \rhook $}}{}{}\_\discretionary {\unhbox \voidb@x \hbox {\relax \fontsize  {7}{8}\selectfont  $\DOTSB \leftarrow \joinrel  \rhook $}}{}{}fold}{130}{subsubsection.13.11.2.8}}
\newlabel{group__pf__fold_gadc3db3d98742427e7001a7fd36ef28c2}{{13.11.2.8}{130}{pf\+\_\+fold}{subsubsection.13.11.2.8}{}}
\gdef \PWST@c{1}
\@writefile{toc}{\contentsline {subsubsection}{\numberline {13.11.2.9}pf\discretionary {\unhbox \voidb@x \hbox {\relax \fontsize  {7}{8}\selectfont  $\DOTSB \leftarrow \joinrel  \rhook $}}{}{}\_\discretionary {\unhbox \voidb@x \hbox {\relax \fontsize  {7}{8}\selectfont  $\DOTSB \leftarrow \joinrel  \rhook $}}{}{}circ\discretionary {\unhbox \voidb@x \hbox {\relax \fontsize  {7}{8}\selectfont  $\DOTSB \leftarrow \joinrel  \rhook $}}{}{}\_\discretionary {\unhbox \voidb@x \hbox {\relax \fontsize  {7}{8}\selectfont  $\DOTSB \leftarrow \joinrel  \rhook $}}{}{}fold}{131}{subsubsection.13.11.2.9}}
\newlabel{group__pf__fold_ga819ce5fca8984004ac81c4a3b04cb735}{{13.11.2.9}{131}{pf\+\_\+circ\+\_\+fold}{subsubsection.13.11.2.9}{}}
\gdef \PWST@ci{1}
\@writefile{toc}{\contentsline {subsubsection}{\numberline {13.11.2.10}free\discretionary {\unhbox \voidb@x \hbox {\relax \fontsize  {7}{8}\selectfont  $\DOTSB \leftarrow \joinrel  \rhook $}}{}{}\_\discretionary {\unhbox \voidb@x \hbox {\relax \fontsize  {7}{8}\selectfont  $\DOTSB \leftarrow \joinrel  \rhook $}}{}{}pf\discretionary {\unhbox \voidb@x \hbox {\relax \fontsize  {7}{8}\selectfont  $\DOTSB \leftarrow \joinrel  \rhook $}}{}{}\_\discretionary {\unhbox \voidb@x \hbox {\relax \fontsize  {7}{8}\selectfont  $\DOTSB \leftarrow \joinrel  \rhook $}}{}{}arrays}{132}{subsubsection.13.11.2.10}}
\newlabel{group__pf__fold_gae73db3f49a94f0f72e067ecd12681dbd}{{13.11.2.10}{132}{free\+\_\+pf\+\_\+arrays}{subsubsection.13.11.2.10}{}}
\@writefile{toc}{\contentsline {subsubsection}{\numberline {13.11.2.11}update\discretionary {\unhbox \voidb@x \hbox {\relax \fontsize  {7}{8}\selectfont  $\DOTSB \leftarrow \joinrel  \rhook $}}{}{}\_\discretionary {\unhbox \voidb@x \hbox {\relax \fontsize  {7}{8}\selectfont  $\DOTSB \leftarrow \joinrel  \rhook $}}{}{}pf\discretionary {\unhbox \voidb@x \hbox {\relax \fontsize  {7}{8}\selectfont  $\DOTSB \leftarrow \joinrel  \rhook $}}{}{}\_\discretionary {\unhbox \voidb@x \hbox {\relax \fontsize  {7}{8}\selectfont  $\DOTSB \leftarrow \joinrel  \rhook $}}{}{}params}{132}{subsubsection.13.11.2.11}}
\newlabel{group__pf__fold_ga384e927890f9c034ff09fa66da102d28}{{13.11.2.11}{132}{update\+\_\+pf\+\_\+params}{subsubsection.13.11.2.11}{}}
\@writefile{toc}{\contentsline {subsubsection}{\numberline {13.11.2.12}update\discretionary {\unhbox \voidb@x \hbox {\relax \fontsize  {7}{8}\selectfont  $\DOTSB \leftarrow \joinrel  \rhook $}}{}{}\_\discretionary {\unhbox \voidb@x \hbox {\relax \fontsize  {7}{8}\selectfont  $\DOTSB \leftarrow \joinrel  \rhook $}}{}{}pf\discretionary {\unhbox \voidb@x \hbox {\relax \fontsize  {7}{8}\selectfont  $\DOTSB \leftarrow \joinrel  \rhook $}}{}{}\_\discretionary {\unhbox \voidb@x \hbox {\relax \fontsize  {7}{8}\selectfont  $\DOTSB \leftarrow \joinrel  \rhook $}}{}{}params\discretionary {\unhbox \voidb@x \hbox {\relax \fontsize  {7}{8}\selectfont  $\DOTSB \leftarrow \joinrel  \rhook $}}{}{}\_\discretionary {\unhbox \voidb@x \hbox {\relax \fontsize  {7}{8}\selectfont  $\DOTSB \leftarrow \joinrel  \rhook $}}{}{}par}{132}{subsubsection.13.11.2.12}}
\newlabel{group__pf__fold_gaafe2d1b21f5418b123b088aa395e827d}{{13.11.2.12}{132}{update\+\_\+pf\+\_\+params\+\_\+par}{subsubsection.13.11.2.12}{}}
\gdef \PWST@cii{1}
\@writefile{toc}{\contentsline {subsubsection}{\numberline {13.11.2.13}export\discretionary {\unhbox \voidb@x \hbox {\relax \fontsize  {7}{8}\selectfont  $\DOTSB \leftarrow \joinrel  \rhook $}}{}{}\_\discretionary {\unhbox \voidb@x \hbox {\relax \fontsize  {7}{8}\selectfont  $\DOTSB \leftarrow \joinrel  \rhook $}}{}{}bppm}{133}{subsubsection.13.11.2.13}}
\newlabel{group__pf__fold_gac5ac7ee281aae1c5cc5898a841178073}{{13.11.2.13}{133}{export\+\_\+bppm}{subsubsection.13.11.2.13}{}}
\@writefile{toc}{\contentsline {subsubsection}{\numberline {13.11.2.14}get\discretionary {\unhbox \voidb@x \hbox {\relax \fontsize  {7}{8}\selectfont  $\DOTSB \leftarrow \joinrel  \rhook $}}{}{}\_\discretionary {\unhbox \voidb@x \hbox {\relax \fontsize  {7}{8}\selectfont  $\DOTSB \leftarrow \joinrel  \rhook $}}{}{}pf\discretionary {\unhbox \voidb@x \hbox {\relax \fontsize  {7}{8}\selectfont  $\DOTSB \leftarrow \joinrel  \rhook $}}{}{}\_\discretionary {\unhbox \voidb@x \hbox {\relax \fontsize  {7}{8}\selectfont  $\DOTSB \leftarrow \joinrel  \rhook $}}{}{}arrays}{133}{subsubsection.13.11.2.14}}
\newlabel{group__pf__fold_ga42faebdfce6f070c5f89adfc8427525c}{{13.11.2.14}{133}{get\+\_\+pf\+\_\+arrays}{subsubsection.13.11.2.14}{}}
\@writefile{toc}{\contentsline {subsubsection}{\numberline {13.11.2.15}mean\discretionary {\unhbox \voidb@x \hbox {\relax \fontsize  {7}{8}\selectfont  $\DOTSB \leftarrow \joinrel  \rhook $}}{}{}\_\discretionary {\unhbox \voidb@x \hbox {\relax \fontsize  {7}{8}\selectfont  $\DOTSB \leftarrow \joinrel  \rhook $}}{}{}bp\discretionary {\unhbox \voidb@x \hbox {\relax \fontsize  {7}{8}\selectfont  $\DOTSB \leftarrow \joinrel  \rhook $}}{}{}\_\discretionary {\unhbox \voidb@x \hbox {\relax \fontsize  {7}{8}\selectfont  $\DOTSB \leftarrow \joinrel  \rhook $}}{}{}distance}{133}{subsubsection.13.11.2.15}}
\newlabel{group__pf__fold_ga79cbc375af65f11609feb6b055269e7d}{{13.11.2.15}{133}{mean\+\_\+bp\+\_\+distance}{subsubsection.13.11.2.15}{}}
\gdef \PWST@ciii{1}
\gdef \PWST@civ{1}
\gdef \PWST@cv{1}
\@writefile{toc}{\contentsline {subsubsection}{\numberline {13.11.2.16}mean\discretionary {\unhbox \voidb@x \hbox {\relax \fontsize  {7}{8}\selectfont  $\DOTSB \leftarrow \joinrel  \rhook $}}{}{}\_\discretionary {\unhbox \voidb@x \hbox {\relax \fontsize  {7}{8}\selectfont  $\DOTSB \leftarrow \joinrel  \rhook $}}{}{}bp\discretionary {\unhbox \voidb@x \hbox {\relax \fontsize  {7}{8}\selectfont  $\DOTSB \leftarrow \joinrel  \rhook $}}{}{}\_\discretionary {\unhbox \voidb@x \hbox {\relax \fontsize  {7}{8}\selectfont  $\DOTSB \leftarrow \joinrel  \rhook $}}{}{}distance\discretionary {\unhbox \voidb@x \hbox {\relax \fontsize  {7}{8}\selectfont  $\DOTSB \leftarrow \joinrel  \rhook $}}{}{}\_\discretionary {\unhbox \voidb@x \hbox {\relax \fontsize  {7}{8}\selectfont  $\DOTSB \leftarrow \joinrel  \rhook $}}{}{}pr}{134}{subsubsection.13.11.2.16}}
\newlabel{group__pf__fold_gad5ba36cef8d01cf4244cc09b9bf1ce1d}{{13.11.2.16}{134}{mean\+\_\+bp\+\_\+distance\+\_\+pr}{subsubsection.13.11.2.16}{}}
\@writefile{toc}{\contentsline {subsubsection}{\numberline {13.11.2.17}vrna\discretionary {\unhbox \voidb@x \hbox {\relax \fontsize  {7}{8}\selectfont  $\DOTSB \leftarrow \joinrel  \rhook $}}{}{}\_\discretionary {\unhbox \voidb@x \hbox {\relax \fontsize  {7}{8}\selectfont  $\DOTSB \leftarrow \joinrel  \rhook $}}{}{}plist\discretionary {\unhbox \voidb@x \hbox {\relax \fontsize  {7}{8}\selectfont  $\DOTSB \leftarrow \joinrel  \rhook $}}{}{}\_\discretionary {\unhbox \voidb@x \hbox {\relax \fontsize  {7}{8}\selectfont  $\DOTSB \leftarrow \joinrel  \rhook $}}{}{}from\discretionary {\unhbox \voidb@x \hbox {\relax \fontsize  {7}{8}\selectfont  $\DOTSB \leftarrow \joinrel  \rhook $}}{}{}\_\discretionary {\unhbox \voidb@x \hbox {\relax \fontsize  {7}{8}\selectfont  $\DOTSB \leftarrow \joinrel  \rhook $}}{}{}probs}{134}{subsubsection.13.11.2.17}}
\newlabel{group__pf__fold_gaa3bf26a0ee2e9f2225afbaee44a37264}{{13.11.2.17}{134}{vrna\+\_\+plist\+\_\+from\+\_\+probs}{subsubsection.13.11.2.17}{}}
\gdef \PWST@cvi{1}
\@writefile{toc}{\contentsline {subsubsection}{\numberline {13.11.2.18}assign\discretionary {\unhbox \voidb@x \hbox {\relax \fontsize  {7}{8}\selectfont  $\DOTSB \leftarrow \joinrel  \rhook $}}{}{}\_\discretionary {\unhbox \voidb@x \hbox {\relax \fontsize  {7}{8}\selectfont  $\DOTSB \leftarrow \joinrel  \rhook $}}{}{}plist\discretionary {\unhbox \voidb@x \hbox {\relax \fontsize  {7}{8}\selectfont  $\DOTSB \leftarrow \joinrel  \rhook $}}{}{}\_\discretionary {\unhbox \voidb@x \hbox {\relax \fontsize  {7}{8}\selectfont  $\DOTSB \leftarrow \joinrel  \rhook $}}{}{}from\discretionary {\unhbox \voidb@x \hbox {\relax \fontsize  {7}{8}\selectfont  $\DOTSB \leftarrow \joinrel  \rhook $}}{}{}\_\discretionary {\unhbox \voidb@x \hbox {\relax \fontsize  {7}{8}\selectfont  $\DOTSB \leftarrow \joinrel  \rhook $}}{}{}pr}{135}{subsubsection.13.11.2.18}}
\newlabel{group__pf__fold_gacfdacc119b749bccf939de445afea07b}{{13.11.2.18}{135}{assign\+\_\+plist\+\_\+from\+\_\+pr}{subsubsection.13.11.2.18}{}}
\@setckpt{group__pf__fold}{
\setcounter{page}{136}
\setcounter{equation}{0}
\setcounter{enumi}{2}
\setcounter{enumii}{0}
\setcounter{enumiii}{0}
\setcounter{enumiv}{0}
\setcounter{footnote}{0}
\setcounter{mpfootnote}{0}
\setcounter{part}{0}
\setcounter{chapter}{13}
\setcounter{section}{11}
\setcounter{subsection}{2}
\setcounter{subsubsection}{18}
\setcounter{paragraph}{0}
\setcounter{subparagraph}{0}
\setcounter{figure}{0}
\setcounter{table}{0}
\setcounter{float@type}{4}
\setcounter{PWSTtable}{106}
\setcounter{NAT@ctr}{0}
\setcounter{lofdepth}{1}
\setcounter{lotdepth}{1}
\setcounter{parentequation}{0}
\setcounter{Item}{12}
\setcounter{Hfootnote}{0}
\setcounter{bookmark@seq@number}{291}
\setcounter{section@level}{3}
}
