\relax 
\providecommand\hyper@newdestlabel[2]{}
\citation{zuker:1981}
\@writefile{toc}{\contentsline {section}{\numberline {13.19}M\discretionary {\unhbox \voidb@x \hbox {\relax \fontsize  {7}{8}\selectfont  $\DOTSB \leftarrow \joinrel  \rhook $}}{}{}F\discretionary {\unhbox \voidb@x \hbox {\relax \fontsize  {7}{8}\selectfont  $\DOTSB \leftarrow \joinrel  \rhook $}}{}{}E Structures of single Nucleic Acid Sequences}{148}{section.13.19}}
\newlabel{group__mfe__fold__single}{{13.19}{148}{M\+F\+E Structures of single Nucleic Acid Sequences}{section.13.19}{}}
\@writefile{toc}{\contentsline {subsection}{\numberline {13.19.1}Detailed Description}{148}{subsection.13.19.1}}
\@writefile{brf}{\backcite{zuker:1981}{{148}{13.19.1}{subsection.13.19.1}}}
\gdef \PWST@cxix{1}
\citation{hofacker:2006}
\@writefile{toc}{\contentsline {subsection}{\numberline {13.19.2}Function Documentation}{149}{subsection.13.19.2}}
\@writefile{toc}{\contentsline {subsubsection}{\numberline {13.19.2.1}vrna\discretionary {\unhbox \voidb@x \hbox {\relax \fontsize  {7}{8}\selectfont  $\DOTSB \leftarrow \joinrel  \rhook $}}{}{}\_\discretionary {\unhbox \voidb@x \hbox {\relax \fontsize  {7}{8}\selectfont  $\DOTSB \leftarrow \joinrel  \rhook $}}{}{}fold}{149}{subsubsection.13.19.2.1}}
\newlabel{group__mfe__fold__single_gae7ca49ffb3086f145da36c964a7cec64}{{13.19.2.1}{149}{vrna\+\_\+fold}{subsubsection.13.19.2.1}{}}
\@writefile{toc}{\contentsline {subsubsection}{\numberline {13.19.2.2}vrna\discretionary {\unhbox \voidb@x \hbox {\relax \fontsize  {7}{8}\selectfont  $\DOTSB \leftarrow \joinrel  \rhook $}}{}{}\_\discretionary {\unhbox \voidb@x \hbox {\relax \fontsize  {7}{8}\selectfont  $\DOTSB \leftarrow \joinrel  \rhook $}}{}{}circfold}{149}{subsubsection.13.19.2.2}}
\newlabel{group__mfe__fold__single_gaa0f5bf321038f404b36a6147bdae4154}{{13.19.2.2}{149}{vrna\+\_\+circfold}{subsubsection.13.19.2.2}{}}
\@writefile{brf}{\backcite{hofacker:2006}{{149}{13.19.2.2}{subsubsection.13.19.2.2}}}
\gdef \PWST@cxx{1}
\@writefile{toc}{\contentsline {subsubsection}{\numberline {13.19.2.3}fold\discretionary {\unhbox \voidb@x \hbox {\relax \fontsize  {7}{8}\selectfont  $\DOTSB \leftarrow \joinrel  \rhook $}}{}{}\_\discretionary {\unhbox \voidb@x \hbox {\relax \fontsize  {7}{8}\selectfont  $\DOTSB \leftarrow \joinrel  \rhook $}}{}{}par}{150}{subsubsection.13.19.2.3}}
\newlabel{group__mfe__fold__single_ga2bc41df5d71fee6fd8da9904ee65d8fb}{{13.19.2.3}{150}{fold\+\_\+par}{subsubsection.13.19.2.3}{}}
\gdef \PWST@cxxi{2}
\gdef \PWST@cxxii{1}
\@writefile{toc}{\contentsline {subsubsection}{\numberline {13.19.2.4}fold}{151}{subsubsection.13.19.2.4}}
\newlabel{group__mfe__fold__single_gaadafcb0f140795ae62e5ca027e335a9b}{{13.19.2.4}{151}{fold}{subsubsection.13.19.2.4}{}}
\@writefile{toc}{\contentsline {subsubsection}{\numberline {13.19.2.5}circfold}{151}{subsubsection.13.19.2.5}}
\newlabel{group__mfe__fold__single_ga4ac63ab3e8d9a80ced28b8052d94e423}{{13.19.2.5}{151}{circfold}{subsubsection.13.19.2.5}{}}
\gdef \PWST@cxxiii{2}
\@writefile{toc}{\contentsline {subsubsection}{\numberline {13.19.2.6}free\discretionary {\unhbox \voidb@x \hbox {\relax \fontsize  {7}{8}\selectfont  $\DOTSB \leftarrow \joinrel  \rhook $}}{}{}\_\discretionary {\unhbox \voidb@x \hbox {\relax \fontsize  {7}{8}\selectfont  $\DOTSB \leftarrow \joinrel  \rhook $}}{}{}arrays}{152}{subsubsection.13.19.2.6}}
\newlabel{group__mfe__fold__single_ga107fdfe5fd641868156bfd849f6866c7}{{13.19.2.6}{152}{free\+\_\+arrays}{subsubsection.13.19.2.6}{}}
\@writefile{toc}{\contentsline {subsubsection}{\numberline {13.19.2.7}update\discretionary {\unhbox \voidb@x \hbox {\relax \fontsize  {7}{8}\selectfont  $\DOTSB \leftarrow \joinrel  \rhook $}}{}{}\_\discretionary {\unhbox \voidb@x \hbox {\relax \fontsize  {7}{8}\selectfont  $\DOTSB \leftarrow \joinrel  \rhook $}}{}{}fold\discretionary {\unhbox \voidb@x \hbox {\relax \fontsize  {7}{8}\selectfont  $\DOTSB \leftarrow \joinrel  \rhook $}}{}{}\_\discretionary {\unhbox \voidb@x \hbox {\relax \fontsize  {7}{8}\selectfont  $\DOTSB \leftarrow \joinrel  \rhook $}}{}{}params}{152}{subsubsection.13.19.2.7}}
\newlabel{group__mfe__fold__single_ga41bf8f6fa15b94471f7095cad9f0ccf3}{{13.19.2.7}{152}{update\+\_\+fold\+\_\+params}{subsubsection.13.19.2.7}{}}
\@writefile{toc}{\contentsline {subsubsection}{\numberline {13.19.2.8}update\discretionary {\unhbox \voidb@x \hbox {\relax \fontsize  {7}{8}\selectfont  $\DOTSB \leftarrow \joinrel  \rhook $}}{}{}\_\discretionary {\unhbox \voidb@x \hbox {\relax \fontsize  {7}{8}\selectfont  $\DOTSB \leftarrow \joinrel  \rhook $}}{}{}fold\discretionary {\unhbox \voidb@x \hbox {\relax \fontsize  {7}{8}\selectfont  $\DOTSB \leftarrow \joinrel  \rhook $}}{}{}\_\discretionary {\unhbox \voidb@x \hbox {\relax \fontsize  {7}{8}\selectfont  $\DOTSB \leftarrow \joinrel  \rhook $}}{}{}params\discretionary {\unhbox \voidb@x \hbox {\relax \fontsize  {7}{8}\selectfont  $\DOTSB \leftarrow \joinrel  \rhook $}}{}{}\_\discretionary {\unhbox \voidb@x \hbox {\relax \fontsize  {7}{8}\selectfont  $\DOTSB \leftarrow \joinrel  \rhook $}}{}{}par}{152}{subsubsection.13.19.2.8}}
\newlabel{group__mfe__fold__single_gae66dc422efb8f5d56717d92d6002a9f8}{{13.19.2.8}{152}{update\+\_\+fold\+\_\+params\+\_\+par}{subsubsection.13.19.2.8}{}}
\@writefile{toc}{\contentsline {subsubsection}{\numberline {13.19.2.9}export\discretionary {\unhbox \voidb@x \hbox {\relax \fontsize  {7}{8}\selectfont  $\DOTSB \leftarrow \joinrel  \rhook $}}{}{}\_\discretionary {\unhbox \voidb@x \hbox {\relax \fontsize  {7}{8}\selectfont  $\DOTSB \leftarrow \joinrel  \rhook $}}{}{}fold\discretionary {\unhbox \voidb@x \hbox {\relax \fontsize  {7}{8}\selectfont  $\DOTSB \leftarrow \joinrel  \rhook $}}{}{}\_\discretionary {\unhbox \voidb@x \hbox {\relax \fontsize  {7}{8}\selectfont  $\DOTSB \leftarrow \joinrel  \rhook $}}{}{}arrays}{152}{subsubsection.13.19.2.9}}
\newlabel{group__mfe__fold__single_ga99641b8dbb40891da5490d3cc271e607}{{13.19.2.9}{152}{export\+\_\+fold\+\_\+arrays}{subsubsection.13.19.2.9}{}}
\@writefile{toc}{\contentsline {subsubsection}{\numberline {13.19.2.10}export\discretionary {\unhbox \voidb@x \hbox {\relax \fontsize  {7}{8}\selectfont  $\DOTSB \leftarrow \joinrel  \rhook $}}{}{}\_\discretionary {\unhbox \voidb@x \hbox {\relax \fontsize  {7}{8}\selectfont  $\DOTSB \leftarrow \joinrel  \rhook $}}{}{}fold\discretionary {\unhbox \voidb@x \hbox {\relax \fontsize  {7}{8}\selectfont  $\DOTSB \leftarrow \joinrel  \rhook $}}{}{}\_\discretionary {\unhbox \voidb@x \hbox {\relax \fontsize  {7}{8}\selectfont  $\DOTSB \leftarrow \joinrel  \rhook $}}{}{}arrays\discretionary {\unhbox \voidb@x \hbox {\relax \fontsize  {7}{8}\selectfont  $\DOTSB \leftarrow \joinrel  \rhook $}}{}{}\_\discretionary {\unhbox \voidb@x \hbox {\relax \fontsize  {7}{8}\selectfont  $\DOTSB \leftarrow \joinrel  \rhook $}}{}{}par}{152}{subsubsection.13.19.2.10}}
\newlabel{group__mfe__fold__single_ga6606ec0ec964ea506fdadb997a1a5328}{{13.19.2.10}{152}{export\+\_\+fold\+\_\+arrays\+\_\+par}{subsubsection.13.19.2.10}{}}
\@writefile{toc}{\contentsline {subsubsection}{\numberline {13.19.2.11}export\discretionary {\unhbox \voidb@x \hbox {\relax \fontsize  {7}{8}\selectfont  $\DOTSB \leftarrow \joinrel  \rhook $}}{}{}\_\discretionary {\unhbox \voidb@x \hbox {\relax \fontsize  {7}{8}\selectfont  $\DOTSB \leftarrow \joinrel  \rhook $}}{}{}circfold\discretionary {\unhbox \voidb@x \hbox {\relax \fontsize  {7}{8}\selectfont  $\DOTSB \leftarrow \joinrel  \rhook $}}{}{}\_\discretionary {\unhbox \voidb@x \hbox {\relax \fontsize  {7}{8}\selectfont  $\DOTSB \leftarrow \joinrel  \rhook $}}{}{}arrays}{152}{subsubsection.13.19.2.11}}
\newlabel{group__mfe__fold__single_ga04d5d639fd4473ca766436a9bae5665c}{{13.19.2.11}{152}{export\+\_\+circfold\+\_\+arrays}{subsubsection.13.19.2.11}{}}
\@writefile{toc}{\contentsline {subsubsection}{\numberline {13.19.2.12}export\discretionary {\unhbox \voidb@x \hbox {\relax \fontsize  {7}{8}\selectfont  $\DOTSB \leftarrow \joinrel  \rhook $}}{}{}\_\discretionary {\unhbox \voidb@x \hbox {\relax \fontsize  {7}{8}\selectfont  $\DOTSB \leftarrow \joinrel  \rhook $}}{}{}circfold\discretionary {\unhbox \voidb@x \hbox {\relax \fontsize  {7}{8}\selectfont  $\DOTSB \leftarrow \joinrel  \rhook $}}{}{}\_\discretionary {\unhbox \voidb@x \hbox {\relax \fontsize  {7}{8}\selectfont  $\DOTSB \leftarrow \joinrel  \rhook $}}{}{}arrays\discretionary {\unhbox \voidb@x \hbox {\relax \fontsize  {7}{8}\selectfont  $\DOTSB \leftarrow \joinrel  \rhook $}}{}{}\_\discretionary {\unhbox \voidb@x \hbox {\relax \fontsize  {7}{8}\selectfont  $\DOTSB \leftarrow \joinrel  \rhook $}}{}{}par}{153}{subsubsection.13.19.2.12}}
\newlabel{group__mfe__fold__single_ga004bb901e7fd2f8d5ae68f9530318ce1}{{13.19.2.12}{153}{export\+\_\+circfold\+\_\+arrays\+\_\+par}{subsubsection.13.19.2.12}{}}
\@writefile{toc}{\contentsline {subsubsection}{\numberline {13.19.2.13}Loop\discretionary {\unhbox \voidb@x \hbox {\relax \fontsize  {7}{8}\selectfont  $\DOTSB \leftarrow \joinrel  \rhook $}}{}{}Energy}{153}{subsubsection.13.19.2.13}}
\newlabel{group__mfe__fold__single_ga2163034a25c6115d894b199e97e03f6c}{{13.19.2.13}{153}{Loop\+Energy}{subsubsection.13.19.2.13}{}}
\@writefile{toc}{\contentsline {subsubsection}{\numberline {13.19.2.14}Hairpin\discretionary {\unhbox \voidb@x \hbox {\relax \fontsize  {7}{8}\selectfont  $\DOTSB \leftarrow \joinrel  \rhook $}}{}{}E}{153}{subsubsection.13.19.2.14}}
\newlabel{group__mfe__fold__single_gab327ce11972f5ac069d52c8dedfdb700}{{13.19.2.14}{153}{Hairpin\+E}{subsubsection.13.19.2.14}{}}
\@writefile{toc}{\contentsline {subsubsection}{\numberline {13.19.2.15}initialize\discretionary {\unhbox \voidb@x \hbox {\relax \fontsize  {7}{8}\selectfont  $\DOTSB \leftarrow \joinrel  \rhook $}}{}{}\_\discretionary {\unhbox \voidb@x \hbox {\relax \fontsize  {7}{8}\selectfont  $\DOTSB \leftarrow \joinrel  \rhook $}}{}{}fold}{153}{subsubsection.13.19.2.15}}
\newlabel{group__mfe__fold__single_gac3f0a28d9cb609d388b155445073fd20}{{13.19.2.15}{153}{initialize\+\_\+fold}{subsubsection.13.19.2.15}{}}
\@setckpt{group__mfe__fold__single}{
\setcounter{page}{154}
\setcounter{equation}{0}
\setcounter{enumi}{2}
\setcounter{enumii}{0}
\setcounter{enumiii}{0}
\setcounter{enumiv}{0}
\setcounter{footnote}{0}
\setcounter{mpfootnote}{0}
\setcounter{part}{0}
\setcounter{chapter}{13}
\setcounter{section}{19}
\setcounter{subsection}{2}
\setcounter{subsubsection}{15}
\setcounter{paragraph}{0}
\setcounter{subparagraph}{0}
\setcounter{figure}{0}
\setcounter{table}{0}
\setcounter{float@type}{4}
\setcounter{PWSTtable}{123}
\setcounter{NAT@ctr}{0}
\setcounter{lofdepth}{1}
\setcounter{lotdepth}{1}
\setcounter{parentequation}{0}
\setcounter{Item}{12}
\setcounter{Hfootnote}{0}
\setcounter{bookmark@seq@number}{341}
\setcounter{section@level}{3}
}
