\relax 
\providecommand\hyper@newdestlabel[2]{}
\@writefile{toc}{\contentsline {section}{\numberline {13.14}Enumerating Suboptimal Structures}{139}{section.13.14}}
\newlabel{group__subopt__fold}{{13.14}{139}{Enumerating Suboptimal Structures}{section.13.14}{}}
\@writefile{toc}{\contentsline {subsection}{\numberline {13.14.1}Detailed Description}{139}{subsection.13.14.1}}
\@setckpt{group__subopt__fold}{
\setcounter{page}{140}
\setcounter{equation}{0}
\setcounter{enumi}{2}
\setcounter{enumii}{0}
\setcounter{enumiii}{0}
\setcounter{enumiv}{0}
\setcounter{footnote}{0}
\setcounter{mpfootnote}{0}
\setcounter{part}{0}
\setcounter{chapter}{13}
\setcounter{section}{14}
\setcounter{subsection}{1}
\setcounter{subsubsection}{0}
\setcounter{paragraph}{0}
\setcounter{subparagraph}{0}
\setcounter{figure}{0}
\setcounter{table}{0}
\setcounter{float@type}{4}
\setcounter{PWSTtable}{109}
\setcounter{NAT@ctr}{0}
\setcounter{lofdepth}{1}
\setcounter{lotdepth}{1}
\setcounter{parentequation}{0}
\setcounter{Item}{12}
\setcounter{Hfootnote}{0}
\setcounter{bookmark@seq@number}{300}
\setcounter{section@level}{2}
}
