\relax 
\providecommand\hyper@newdestlabel[2]{}
\@writefile{toc}{\contentsline {section}{\numberline {13.29}Partition functions for locally stable secondary structures}{182}{section.13.29}}
\newlabel{group__local__pf__fold}{{13.29}{182}{Partition functions for locally stable secondary structures}{section.13.29}{}}
\newlabel{group__local__pf__fold_ga14c2b82fdd5ab7a1951f1c2db4f5cf2c}{{13.29}{182}{Functions}{section*.89}{}}
\@writefile{toc}{\contentsline {subsection}{\numberline {13.29.1}Detailed Description}{182}{subsection.13.29.1}}
\@writefile{toc}{\contentsline {subsection}{\numberline {13.29.2}Function Documentation}{182}{subsection.13.29.2}}
\@writefile{toc}{\contentsline {subsubsection}{\numberline {13.29.2.1}update\discretionary {\unhbox \voidb@x \hbox {\relax \fontsize  {7}{8}\selectfont  $\DOTSB \leftarrow \joinrel  \rhook $}}{}{}\_\discretionary {\unhbox \voidb@x \hbox {\relax \fontsize  {7}{8}\selectfont  $\DOTSB \leftarrow \joinrel  \rhook $}}{}{}pf\discretionary {\unhbox \voidb@x \hbox {\relax \fontsize  {7}{8}\selectfont  $\DOTSB \leftarrow \joinrel  \rhook $}}{}{}\_\discretionary {\unhbox \voidb@x \hbox {\relax \fontsize  {7}{8}\selectfont  $\DOTSB \leftarrow \joinrel  \rhook $}}{}{}params\discretionary {\unhbox \voidb@x \hbox {\relax \fontsize  {7}{8}\selectfont  $\DOTSB \leftarrow \joinrel  \rhook $}}{}{}L\discretionary {\unhbox \voidb@x \hbox {\relax \fontsize  {7}{8}\selectfont  $\DOTSB \leftarrow \joinrel  \rhook $}}{}{}P}{182}{subsubsection.13.29.2.1}}
\newlabel{group__local__pf__fold_ga5a019014d37fe6105131dfc2fc447880}{{13.29.2.1}{182}{update\+\_\+pf\+\_\+params\+L\+P}{subsubsection.13.29.2.1}{}}
\gdef \PWST@clvi{2}
\gdef \PWST@clvii{1}
\gdef \PWST@clviii{1}
\@writefile{toc}{\contentsline {subsubsection}{\numberline {13.29.2.2}pfl\discretionary {\unhbox \voidb@x \hbox {\relax \fontsize  {7}{8}\selectfont  $\DOTSB \leftarrow \joinrel  \rhook $}}{}{}\_\discretionary {\unhbox \voidb@x \hbox {\relax \fontsize  {7}{8}\selectfont  $\DOTSB \leftarrow \joinrel  \rhook $}}{}{}fold}{183}{subsubsection.13.29.2.2}}
\newlabel{group__local__pf__fold_ga7dcf599d07258801ea55e7d14a56908d}{{13.29.2.2}{183}{pfl\+\_\+fold}{subsubsection.13.29.2.2}{}}
\@writefile{toc}{\contentsline {subsubsection}{\numberline {13.29.2.3}putoutp\discretionary {\unhbox \voidb@x \hbox {\relax \fontsize  {7}{8}\selectfont  $\DOTSB \leftarrow \joinrel  \rhook $}}{}{}U\discretionary {\unhbox \voidb@x \hbox {\relax \fontsize  {7}{8}\selectfont  $\DOTSB \leftarrow \joinrel  \rhook $}}{}{}\_\discretionary {\unhbox \voidb@x \hbox {\relax \fontsize  {7}{8}\selectfont  $\DOTSB \leftarrow \joinrel  \rhook $}}{}{}prob}{183}{subsubsection.13.29.2.3}}
\newlabel{group__local__pf__fold_ga0bcb751860bbf34e3dfee8c2fbdb3ef3}{{13.29.2.3}{183}{putoutp\+U\+\_\+prob}{subsubsection.13.29.2.3}{}}
\@writefile{toc}{\contentsline {subsubsection}{\numberline {13.29.2.4}putoutp\discretionary {\unhbox \voidb@x \hbox {\relax \fontsize  {7}{8}\selectfont  $\DOTSB \leftarrow \joinrel  \rhook $}}{}{}U\discretionary {\unhbox \voidb@x \hbox {\relax \fontsize  {7}{8}\selectfont  $\DOTSB \leftarrow \joinrel  \rhook $}}{}{}\_\discretionary {\unhbox \voidb@x \hbox {\relax \fontsize  {7}{8}\selectfont  $\DOTSB \leftarrow \joinrel  \rhook $}}{}{}prob\discretionary {\unhbox \voidb@x \hbox {\relax \fontsize  {7}{8}\selectfont  $\DOTSB \leftarrow \joinrel  \rhook $}}{}{}\_\discretionary {\unhbox \voidb@x \hbox {\relax \fontsize  {7}{8}\selectfont  $\DOTSB \leftarrow \joinrel  \rhook $}}{}{}bin}{183}{subsubsection.13.29.2.4}}
\newlabel{group__local__pf__fold_ga9acb00ee10e96b1ca4ea394cd8bcec75}{{13.29.2.4}{183}{putoutp\+U\+\_\+prob\+\_\+bin}{subsubsection.13.29.2.4}{}}
\gdef \PWST@clix{1}
\@setckpt{group__local__pf__fold}{
\setcounter{page}{186}
\setcounter{equation}{0}
\setcounter{enumi}{2}
\setcounter{enumii}{0}
\setcounter{enumiii}{0}
\setcounter{enumiv}{0}
\setcounter{footnote}{0}
\setcounter{mpfootnote}{0}
\setcounter{part}{0}
\setcounter{chapter}{13}
\setcounter{section}{29}
\setcounter{subsection}{2}
\setcounter{subsubsection}{4}
\setcounter{paragraph}{0}
\setcounter{subparagraph}{0}
\setcounter{figure}{0}
\setcounter{table}{0}
\setcounter{float@type}{4}
\setcounter{PWSTtable}{159}
\setcounter{NAT@ctr}{0}
\setcounter{lofdepth}{1}
\setcounter{lotdepth}{1}
\setcounter{parentequation}{0}
\setcounter{Item}{12}
\setcounter{Hfootnote}{0}
\setcounter{bookmark@seq@number}{423}
\setcounter{section@level}{3}
}
