\relax 
\providecommand\hyper@newdestlabel[2]{}
\@writefile{toc}{\contentsline {section}{\numberline {13.24}M\discretionary {\unhbox \voidb@x \hbox {\relax \fontsize  {7}{8}\selectfont  $\DOTSB \leftarrow \joinrel  \rhook $}}{}{}F\discretionary {\unhbox \voidb@x \hbox {\relax \fontsize  {7}{8}\selectfont  $\DOTSB \leftarrow \joinrel  \rhook $}}{}{}E Consensus Structures for Sequence Alignment(s)}{170}{section.13.24}}
\newlabel{group__consensus__mfe__fold}{{13.24}{170}{M\+F\+E Consensus Structures for Sequence Alignment(s)}{section.13.24}{}}
\@writefile{toc}{\contentsline {subsection}{\numberline {13.24.1}Detailed Description}{170}{subsection.13.24.1}}
\@writefile{toc}{\contentsline {subsection}{\numberline {13.24.2}Function Documentation}{170}{subsection.13.24.2}}
\@writefile{toc}{\contentsline {subsubsection}{\numberline {13.24.2.1}vrna\discretionary {\unhbox \voidb@x \hbox {\relax \fontsize  {7}{8}\selectfont  $\DOTSB \leftarrow \joinrel  \rhook $}}{}{}\_\discretionary {\unhbox \voidb@x \hbox {\relax \fontsize  {7}{8}\selectfont  $\DOTSB \leftarrow \joinrel  \rhook $}}{}{}alifold}{170}{subsubsection.13.24.2.1}}
\newlabel{group__consensus__mfe__fold_ga02098d0c8790f9a37fbef6ad0cfc705c}{{13.24.2.1}{170}{vrna\+\_\+alifold}{subsubsection.13.24.2.1}{}}
\gdef \PWST@cxlii{1}
\citation{hofacker:2006}
\gdef \PWST@cxliii{1}
\@writefile{toc}{\contentsline {subsubsection}{\numberline {13.24.2.2}vrna\discretionary {\unhbox \voidb@x \hbox {\relax \fontsize  {7}{8}\selectfont  $\DOTSB \leftarrow \joinrel  \rhook $}}{}{}\_\discretionary {\unhbox \voidb@x \hbox {\relax \fontsize  {7}{8}\selectfont  $\DOTSB \leftarrow \joinrel  \rhook $}}{}{}circalifold}{171}{subsubsection.13.24.2.2}}
\newlabel{group__consensus__mfe__fold_ga01ce2cff93ea44c4f4254760ca2bd16c}{{13.24.2.2}{171}{vrna\+\_\+circalifold}{subsubsection.13.24.2.2}{}}
\@writefile{brf}{\backcite{hofacker:2006}{{171}{13.24.2.2}{subsubsection.13.24.2.2}}}
\@writefile{toc}{\contentsline {subsubsection}{\numberline {13.24.2.3}alifold}{171}{subsubsection.13.24.2.3}}
\newlabel{group__consensus__mfe__fold_ga4cf00f0659e5f0480335d69e797f05b1}{{13.24.2.3}{171}{alifold}{subsubsection.13.24.2.3}{}}
\gdef \PWST@cxliv{1}
\gdef \PWST@cxlv{1}
\@writefile{toc}{\contentsline {subsubsection}{\numberline {13.24.2.4}circalifold}{172}{subsubsection.13.24.2.4}}
\newlabel{group__consensus__mfe__fold_gadbd3b0b1c144cbfb4efe704b2b260f96}{{13.24.2.4}{172}{circalifold}{subsubsection.13.24.2.4}{}}
\@writefile{toc}{\contentsline {subsubsection}{\numberline {13.24.2.5}free\discretionary {\unhbox \voidb@x \hbox {\relax \fontsize  {7}{8}\selectfont  $\DOTSB \leftarrow \joinrel  \rhook $}}{}{}\_\discretionary {\unhbox \voidb@x \hbox {\relax \fontsize  {7}{8}\selectfont  $\DOTSB \leftarrow \joinrel  \rhook $}}{}{}alifold\discretionary {\unhbox \voidb@x \hbox {\relax \fontsize  {7}{8}\selectfont  $\DOTSB \leftarrow \joinrel  \rhook $}}{}{}\_\discretionary {\unhbox \voidb@x \hbox {\relax \fontsize  {7}{8}\selectfont  $\DOTSB \leftarrow \joinrel  \rhook $}}{}{}arrays}{172}{subsubsection.13.24.2.5}}
\newlabel{group__consensus__mfe__fold_ga72095e4554b5d577250ea14c42acc49e}{{13.24.2.5}{172}{free\+\_\+alifold\+\_\+arrays}{subsubsection.13.24.2.5}{}}
\@setckpt{group__consensus__mfe__fold}{
\setcounter{page}{173}
\setcounter{equation}{0}
\setcounter{enumi}{2}
\setcounter{enumii}{0}
\setcounter{enumiii}{0}
\setcounter{enumiv}{0}
\setcounter{footnote}{0}
\setcounter{mpfootnote}{0}
\setcounter{part}{0}
\setcounter{chapter}{13}
\setcounter{section}{24}
\setcounter{subsection}{2}
\setcounter{subsubsection}{5}
\setcounter{paragraph}{0}
\setcounter{subparagraph}{0}
\setcounter{figure}{0}
\setcounter{table}{0}
\setcounter{float@type}{4}
\setcounter{PWSTtable}{145}
\setcounter{NAT@ctr}{0}
\setcounter{lofdepth}{1}
\setcounter{lotdepth}{1}
\setcounter{parentequation}{0}
\setcounter{Item}{12}
\setcounter{Hfootnote}{0}
\setcounter{bookmark@seq@number}{391}
\setcounter{section@level}{3}
}
