\relax 
\providecommand\hyper@newdestlabel[2]{}
\@writefile{toc}{\contentsline {section}{\numberline {13.49}Functions to Read/\discretionary {\unhbox \voidb@x \hbox {\relax \fontsize  {7}{8}\selectfont  $\DOTSB \leftarrow \joinrel  \rhook $}}{}{}Write several File Formats for R\discretionary {\unhbox \voidb@x \hbox {\relax \fontsize  {7}{8}\selectfont  $\DOTSB \leftarrow \joinrel  \rhook $}}{}{}N\discretionary {\unhbox \voidb@x \hbox {\relax \fontsize  {7}{8}\selectfont  $\DOTSB \leftarrow \joinrel  \rhook $}}{}{}A Sequences, Structures, and Alignments}{278}{section.13.49}}
\newlabel{group__file__utils}{{13.49}{278}{Functions to Read/\+Write several File Formats for R\+N\+A Sequences, Structures, and Alignments}{section.13.49}{}}
\newlabel{group__file__utils_ga5e125c9586fcd4e2e1559fe76f7289cc}{{13.49}{278}{Functions}{section*.160}{}}
\gdef \PWST@ccxlix{1}
\gdef \PWST@ccl{1}
\@writefile{toc}{\contentsline {subsection}{\numberline {13.49.1}Detailed Description}{279}{subsection.13.49.1}}
\@writefile{toc}{\contentsline {subsection}{\numberline {13.49.2}Function Documentation}{279}{subsection.13.49.2}}
\@writefile{toc}{\contentsline {subsubsection}{\numberline {13.49.2.1}vrna\discretionary {\unhbox \voidb@x \hbox {\relax \fontsize  {7}{8}\selectfont  $\DOTSB \leftarrow \joinrel  \rhook $}}{}{}\_\discretionary {\unhbox \voidb@x \hbox {\relax \fontsize  {7}{8}\selectfont  $\DOTSB \leftarrow \joinrel  \rhook $}}{}{}file\discretionary {\unhbox \voidb@x \hbox {\relax \fontsize  {7}{8}\selectfont  $\DOTSB \leftarrow \joinrel  \rhook $}}{}{}\_\discretionary {\unhbox \voidb@x \hbox {\relax \fontsize  {7}{8}\selectfont  $\DOTSB \leftarrow \joinrel  \rhook $}}{}{}helixlist}{279}{subsubsection.13.49.2.1}}
\newlabel{group__file__utils_gaaface7db12fadc3d271641c4515ab6e4}{{13.49.2.1}{279}{vrna\+\_\+file\+\_\+helixlist}{subsubsection.13.49.2.1}{}}
\@writefile{toc}{\contentsline {subsubsection}{\numberline {13.49.2.2}vrna\discretionary {\unhbox \voidb@x \hbox {\relax \fontsize  {7}{8}\selectfont  $\DOTSB \leftarrow \joinrel  \rhook $}}{}{}\_\discretionary {\unhbox \voidb@x \hbox {\relax \fontsize  {7}{8}\selectfont  $\DOTSB \leftarrow \joinrel  \rhook $}}{}{}file\discretionary {\unhbox \voidb@x \hbox {\relax \fontsize  {7}{8}\selectfont  $\DOTSB \leftarrow \joinrel  \rhook $}}{}{}\_\discretionary {\unhbox \voidb@x \hbox {\relax \fontsize  {7}{8}\selectfont  $\DOTSB \leftarrow \joinrel  \rhook $}}{}{}connect}{279}{subsubsection.13.49.2.2}}
\newlabel{group__file__utils_gab69682373ccca1e0e28cc967eec07745}{{13.49.2.2}{279}{vrna\+\_\+file\+\_\+connect}{subsubsection.13.49.2.2}{}}
\@writefile{toc}{\contentsline {subsubsection}{\numberline {13.49.2.3}vrna\discretionary {\unhbox \voidb@x \hbox {\relax \fontsize  {7}{8}\selectfont  $\DOTSB \leftarrow \joinrel  \rhook $}}{}{}\_\discretionary {\unhbox \voidb@x \hbox {\relax \fontsize  {7}{8}\selectfont  $\DOTSB \leftarrow \joinrel  \rhook $}}{}{}file\discretionary {\unhbox \voidb@x \hbox {\relax \fontsize  {7}{8}\selectfont  $\DOTSB \leftarrow \joinrel  \rhook $}}{}{}\_\discretionary {\unhbox \voidb@x \hbox {\relax \fontsize  {7}{8}\selectfont  $\DOTSB \leftarrow \joinrel  \rhook $}}{}{}bpseq}{279}{subsubsection.13.49.2.3}}
\newlabel{group__file__utils_ga9b462e6f202594af5d3fa56e280d633f}{{13.49.2.3}{279}{vrna\+\_\+file\+\_\+bpseq}{subsubsection.13.49.2.3}{}}
\gdef \PWST@ccli{1}
\gdef \PWST@cclii{1}
\@writefile{toc}{\contentsline {subsubsection}{\numberline {13.49.2.4}vrna\discretionary {\unhbox \voidb@x \hbox {\relax \fontsize  {7}{8}\selectfont  $\DOTSB \leftarrow \joinrel  \rhook $}}{}{}\_\discretionary {\unhbox \voidb@x \hbox {\relax \fontsize  {7}{8}\selectfont  $\DOTSB \leftarrow \joinrel  \rhook $}}{}{}file\discretionary {\unhbox \voidb@x \hbox {\relax \fontsize  {7}{8}\selectfont  $\DOTSB \leftarrow \joinrel  \rhook $}}{}{}\_\discretionary {\unhbox \voidb@x \hbox {\relax \fontsize  {7}{8}\selectfont  $\DOTSB \leftarrow \joinrel  \rhook $}}{}{}json}{280}{subsubsection.13.49.2.4}}
\newlabel{group__file__utils_ga31f4a6c2ea1495a6e4f9eb45a9f6193d}{{13.49.2.4}{280}{vrna\+\_\+file\+\_\+json}{subsubsection.13.49.2.4}{}}
\@writefile{toc}{\contentsline {subsubsection}{\numberline {13.49.2.5}vrna\discretionary {\unhbox \voidb@x \hbox {\relax \fontsize  {7}{8}\selectfont  $\DOTSB \leftarrow \joinrel  \rhook $}}{}{}\_\discretionary {\unhbox \voidb@x \hbox {\relax \fontsize  {7}{8}\selectfont  $\DOTSB \leftarrow \joinrel  \rhook $}}{}{}file\discretionary {\unhbox \voidb@x \hbox {\relax \fontsize  {7}{8}\selectfont  $\DOTSB \leftarrow \joinrel  \rhook $}}{}{}\_\discretionary {\unhbox \voidb@x \hbox {\relax \fontsize  {7}{8}\selectfont  $\DOTSB \leftarrow \joinrel  \rhook $}}{}{}fasta\discretionary {\unhbox \voidb@x \hbox {\relax \fontsize  {7}{8}\selectfont  $\DOTSB \leftarrow \joinrel  \rhook $}}{}{}\_\discretionary {\unhbox \voidb@x \hbox {\relax \fontsize  {7}{8}\selectfont  $\DOTSB \leftarrow \joinrel  \rhook $}}{}{}read\discretionary {\unhbox \voidb@x \hbox {\relax \fontsize  {7}{8}\selectfont  $\DOTSB \leftarrow \joinrel  \rhook $}}{}{}\_\discretionary {\unhbox \voidb@x \hbox {\relax \fontsize  {7}{8}\selectfont  $\DOTSB \leftarrow \joinrel  \rhook $}}{}{}record}{280}{subsubsection.13.49.2.5}}
\newlabel{group__file__utils_ga8cfb7e271efc9e1f34640acb85475639}{{13.49.2.5}{280}{vrna\+\_\+file\+\_\+fasta\+\_\+read\+\_\+record}{subsubsection.13.49.2.5}{}}
\gdef \PWST@ccliii{1}
\gdef \PWST@ccliv{1}
\@writefile{toc}{\contentsline {subsubsection}{\numberline {13.49.2.6}vrna\discretionary {\unhbox \voidb@x \hbox {\relax \fontsize  {7}{8}\selectfont  $\DOTSB \leftarrow \joinrel  \rhook $}}{}{}\_\discretionary {\unhbox \voidb@x \hbox {\relax \fontsize  {7}{8}\selectfont  $\DOTSB \leftarrow \joinrel  \rhook $}}{}{}extract\discretionary {\unhbox \voidb@x \hbox {\relax \fontsize  {7}{8}\selectfont  $\DOTSB \leftarrow \joinrel  \rhook $}}{}{}\_\discretionary {\unhbox \voidb@x \hbox {\relax \fontsize  {7}{8}\selectfont  $\DOTSB \leftarrow \joinrel  \rhook $}}{}{}record\discretionary {\unhbox \voidb@x \hbox {\relax \fontsize  {7}{8}\selectfont  $\DOTSB \leftarrow \joinrel  \rhook $}}{}{}\_\discretionary {\unhbox \voidb@x \hbox {\relax \fontsize  {7}{8}\selectfont  $\DOTSB \leftarrow \joinrel  \rhook $}}{}{}rest\discretionary {\unhbox \voidb@x \hbox {\relax \fontsize  {7}{8}\selectfont  $\DOTSB \leftarrow \joinrel  \rhook $}}{}{}\_\discretionary {\unhbox \voidb@x \hbox {\relax \fontsize  {7}{8}\selectfont  $\DOTSB \leftarrow \joinrel  \rhook $}}{}{}constraint}{281}{subsubsection.13.49.2.6}}
\newlabel{group__file__utils_ga55a9ae6dfeecc1b3f0c2acf6fa796c15}{{13.49.2.6}{281}{vrna\+\_\+extract\+\_\+record\+\_\+rest\+\_\+constraint}{subsubsection.13.49.2.6}{}}
\gdef \PWST@cclv{1}
\@writefile{toc}{\contentsline {subsubsection}{\numberline {13.49.2.7}vrna\discretionary {\unhbox \voidb@x \hbox {\relax \fontsize  {7}{8}\selectfont  $\DOTSB \leftarrow \joinrel  \rhook $}}{}{}\_\discretionary {\unhbox \voidb@x \hbox {\relax \fontsize  {7}{8}\selectfont  $\DOTSB \leftarrow \joinrel  \rhook $}}{}{}file\discretionary {\unhbox \voidb@x \hbox {\relax \fontsize  {7}{8}\selectfont  $\DOTSB \leftarrow \joinrel  \rhook $}}{}{}\_\discretionary {\unhbox \voidb@x \hbox {\relax \fontsize  {7}{8}\selectfont  $\DOTSB \leftarrow \joinrel  \rhook $}}{}{}\discretionary {\unhbox \voidb@x \hbox {\relax \fontsize  {7}{8}\selectfont  $\DOTSB \leftarrow \joinrel  \rhook $}}{}{}S\discretionary {\unhbox \voidb@x \hbox {\relax \fontsize  {7}{8}\selectfont  $\DOTSB \leftarrow \joinrel  \rhook $}}{}{}H\discretionary {\unhbox \voidb@x \hbox {\relax \fontsize  {7}{8}\selectfont  $\DOTSB \leftarrow \joinrel  \rhook $}}{}{}A\discretionary {\unhbox \voidb@x \hbox {\relax \fontsize  {7}{8}\selectfont  $\DOTSB \leftarrow \joinrel  \rhook $}}{}{}P\discretionary {\unhbox \voidb@x \hbox {\relax \fontsize  {7}{8}\selectfont  $\DOTSB \leftarrow \joinrel  \rhook $}}{}{}E\discretionary {\unhbox \voidb@x \hbox {\relax \fontsize  {7}{8}\selectfont  $\DOTSB \leftarrow \joinrel  \rhook $}}{}{}\_\discretionary {\unhbox \voidb@x \hbox {\relax \fontsize  {7}{8}\selectfont  $\DOTSB \leftarrow \joinrel  \rhook $}}{}{}read}{282}{subsubsection.13.49.2.7}}
\newlabel{group__file__utils_ga646ebf45450a69a7f2533f9ecd283a32}{{13.49.2.7}{282}{vrna\+\_\+file\+\_\+\+S\+H\+A\+P\+E\+\_\+read}{subsubsection.13.49.2.7}{}}
\@writefile{toc}{\contentsline {subsubsection}{\numberline {13.49.2.8}vrna\discretionary {\unhbox \voidb@x \hbox {\relax \fontsize  {7}{8}\selectfont  $\DOTSB \leftarrow \joinrel  \rhook $}}{}{}\_\discretionary {\unhbox \voidb@x \hbox {\relax \fontsize  {7}{8}\selectfont  $\DOTSB \leftarrow \joinrel  \rhook $}}{}{}file\discretionary {\unhbox \voidb@x \hbox {\relax \fontsize  {7}{8}\selectfont  $\DOTSB \leftarrow \joinrel  \rhook $}}{}{}\_\discretionary {\unhbox \voidb@x \hbox {\relax \fontsize  {7}{8}\selectfont  $\DOTSB \leftarrow \joinrel  \rhook $}}{}{}constraints\discretionary {\unhbox \voidb@x \hbox {\relax \fontsize  {7}{8}\selectfont  $\DOTSB \leftarrow \joinrel  \rhook $}}{}{}\_\discretionary {\unhbox \voidb@x \hbox {\relax \fontsize  {7}{8}\selectfont  $\DOTSB \leftarrow \joinrel  \rhook $}}{}{}read}{282}{subsubsection.13.49.2.8}}
\newlabel{group__file__utils_gae33323c53765ecbbc410d9de2d495432}{{13.49.2.8}{282}{vrna\+\_\+file\+\_\+constraints\+\_\+read}{subsubsection.13.49.2.8}{}}
\@writefile{toc}{\contentsline {subsubsection}{\numberline {13.49.2.9}read\discretionary {\unhbox \voidb@x \hbox {\relax \fontsize  {7}{8}\selectfont  $\DOTSB \leftarrow \joinrel  \rhook $}}{}{}\_\discretionary {\unhbox \voidb@x \hbox {\relax \fontsize  {7}{8}\selectfont  $\DOTSB \leftarrow \joinrel  \rhook $}}{}{}record}{282}{subsubsection.13.49.2.9}}
\newlabel{group__file__utils_gafd194a69af9d92b5b0412a7627ac1595}{{13.49.2.9}{282}{read\+\_\+record}{subsubsection.13.49.2.9}{}}
\@setckpt{group__file__utils}{
\setcounter{page}{283}
\setcounter{equation}{0}
\setcounter{enumi}{6}
\setcounter{enumii}{0}
\setcounter{enumiii}{0}
\setcounter{enumiv}{0}
\setcounter{footnote}{0}
\setcounter{mpfootnote}{0}
\setcounter{part}{0}
\setcounter{chapter}{13}
\setcounter{section}{49}
\setcounter{subsection}{2}
\setcounter{subsubsection}{9}
\setcounter{paragraph}{0}
\setcounter{subparagraph}{0}
\setcounter{figure}{0}
\setcounter{table}{0}
\setcounter{float@type}{4}
\setcounter{PWSTtable}{255}
\setcounter{NAT@ctr}{0}
\setcounter{lofdepth}{1}
\setcounter{lotdepth}{1}
\setcounter{parentequation}{0}
\setcounter{Item}{18}
\setcounter{Hfootnote}{0}
\setcounter{bookmark@seq@number}{684}
\setcounter{section@level}{3}
}
